\relax 
\providecommand\zref@newlabel[2]{}
\providecommand\hyper@newdestlabel[2]{}
\providecommand\HyperFirstAtBeginDocument{\AtBeginDocument}
\HyperFirstAtBeginDocument{\ifx\hyper@anchor\@undefined
\global\let\oldnewlabel\newlabel
\gdef\newlabel#1#2{\newlabelxx{#1}#2}
\gdef\newlabelxx#1#2#3#4#5#6{\oldnewlabel{#1}{{#2}{#3}}}
\AtEndDocument{\ifx\hyper@anchor\@undefined
\let\newlabel\oldnewlabel
\fi}
\fi}
\global\let\hyper@last\relax 
\gdef\HyperFirstAtBeginDocument#1{#1}
\providecommand\HyField@AuxAddToFields[1]{}
\providecommand\HyField@AuxAddToCoFields[2]{}
\@writefile{toc}{\contentsline {chapter}{Preface}{7}{chapter*.1}\protected@file@percent }
\newlabel{ch-preface}{{}{7}{Preface}{chapter*.1}{}}
\@writefile{toc}{\contentsline {part}{I\hspace  {1em}Tamed Chance}{1}{part.1}\protected@file@percent }
\newlabel{ch-intro}{{I}{3}{Introduction}{chapter*.2}{}}
\@writefile{toc}{\contentsline {chapter}{\numberline {1}Mathematics of Randomness}{17}{chapter.1}\protected@file@percent }
\@writefile{lof}{\addvspace {10\p@ }}
\@writefile{lot}{\addvspace {10\p@ }}
\@writefile{toc}{\contentsline {section}{\numberline {1.1}Probability}{17}{section.1.1}\protected@file@percent }
\newlabel{eq-1.1}{{1.1}{18}{Probability}{equation.1.1.1}{}}
\newmarginnote{note.33.1}{{33}{1864679sp}}
\@writefile{lof}{\contentsline {figure}{\numberline {1.1}{\ignorespaces Possible outcomes of rolling a die.\relax }}{19}{figure.caption.4}\protected@file@percent }
\providecommand*\caption@xref[2]{\@setref\relax\@undefined{#1}}
\newlabel{die-table}{{1.1}{19}{Possible outcomes of rolling a die.\relax }{figure.caption.4}{}}
\newmarginnote{note.34.1}{{35}{19644617sp}}
\@writefile{lof}{\contentsline {figure}{\numberline {1.2}{\ignorespaces Outcomes of rolling a dice many times.}}{21}{figure.caption.5}\protected@file@percent }
\newlabel{die-graph}{{1.2}{21}{\@sidenotes@sidecaption@tof }{figure.caption.5}{}}
\newmarginnote{note.36.1}{{36}{29900356sp}}
\@writefile{lof}{\contentsline {figure}{\numberline {1.3}{\ignorespaces Frequencies of outcomes of trials of a die as a function of number of trials. Note how the deviation of the frequency of the occurrence of an event from its probability decreases as the number of trials increases.}}{22}{figure.caption.6}\protected@file@percent }
\newlabel{die-graph2}{{1.3}{22}{\@sidenotes@sidecaption@tof }{figure.caption.6}{}}
\newlabel{eq-1.2}{{1.2}{24}{Probability}{equation.1.1.2}{}}
\newmarginnote{note.39.1}{{40}{29900356sp}}
\@writefile{lof}{\contentsline {figure}{\numberline {1.4}{\ignorespaces Finding the probability using the geometrical method.}}{26}{figure.caption.7}\protected@file@percent }
\newlabel{prob-meeting}{{1.4}{26}{\@sidenotes@sidecaption@tof }{figure.caption.7}{}}
\@writefile{toc}{\contentsline {section}{\numberline {1.2}Random Numbers}{28}{section.1.2}\protected@file@percent }
\newmarginnote{note.43.1}{{44}{29154609sp}}
\@writefile{lof}{\contentsline {figure}{\numberline {1.5}{\ignorespaces Three types of random number generators: urns, dice and roulettes. }}{30}{figure.caption.8}\protected@file@percent }
\newlabel{random-generators}{{1.5}{30}{\@sidenotes@sidecaption@tof }{figure.caption.8}{}}
\newmarginnote{note.45.1}{{45}{20491828sp}}
\@writefile{lof}{\contentsline {figure}{\numberline {1.6}{\ignorespaces A table of random numbers.}}{31}{figure.caption.9}\protected@file@percent }
\newlabel{random-table}{{1.6}{31}{\@sidenotes@sidecaption@tof }{figure.caption.9}{}}
\@writefile{toc}{\contentsline {section}{\numberline {1.3}Random Events}{33}{section.1.3}\protected@file@percent }
\newmarginnote{note.47.1}{{47}{1864679sp}}
\@writefile{lof}{\contentsline {figure}{\numberline {1.7}{\ignorespaces Different ways of taking out two out of three blue and one red balls.\relax }}{33}{figure.caption.10}\protected@file@percent }
\newlabel{three-balls}{{1.7}{33}{Different ways of taking out two out of three blue and one red balls.\relax }{figure.caption.10}{}}
\newmarginnote{note.49.1}{{50}{28501903sp}}
\@writefile{lof}{\contentsline {figure}{\numberline {1.8}{\ignorespaces Different ways of arranging two white and two black balls for different probabilities of drawing out a ball of a given colour.}}{36}{figure.caption.11}\protected@file@percent }
\newlabel{ball-picking}{{1.8}{36}{\@sidenotes@sidecaption@tof }{figure.caption.11}{}}
\newmarginnote{note.51.1}{{51}{17629141sp}}
\@writefile{lof}{\contentsline {figure}{\numberline {1.9}{\ignorespaces The probability of finding the treasure or a trap in a labyrinth.\relax }}{37}{figure.caption.12}\protected@file@percent }
\newlabel{labyrinth}{{1.9}{37}{The probability of finding the treasure or a trap in a labyrinth.\relax }{figure.caption.12}{}}
\@writefile{toc}{\contentsline {section}{\numberline {1.4}Discrete Random Variables}{38}{section.1.4}\protected@file@percent }
\newlabel{eq-1.3}{{1.3}{39}{Discrete Random Variables}{equation.1.4.3}{}}
\newmarginnote{note.53.1}{{53}{1995679sp}}
\newlabel{eq-1.4}{{1.4}{39}{Discrete Random Variables}{equation.1.4.4}{}}
\newlabel{eq-1.5}{{1.5}{40}{Discrete Random Variables}{equation.1.4.5}{}}
\newlabel{eq-1.6}{{1.6}{40}{Discrete Random Variables}{equation.1.4.6}{}}
\newmarginnote{note.54.1}{{55}{11188079sp}}
\@writefile{lof}{\contentsline {figure}{\numberline {1.10}{\ignorespaces Distributions of random variables with different parameters. (a) shows two distributions with different expected values but the same variance, while (b) shows two distributions with different variance but the same expected values.}}{41}{figure.caption.13}\protected@file@percent }
\newlabel{exp-val-variation}{{1.10}{41}{\@sidenotes@sidecaption@tof }{figure.caption.13}{}}
\newlabel{eq-1.7}{{1.7}{43}{Discrete Random Variables}{equation.1.4.7}{}}
\newlabel{eq-1.8}{{1.8}{43}{Discrete Random Variables}{equation.1.4.8}{}}
\newlabel{eq-1.9}{{1.9}{43}{Discrete Random Variables}{equation.1.4.9}{}}
\newlabel{eq-1.10}{{1.10}{43}{Discrete Random Variables}{equation.1.4.10}{}}
\newmarginnote{note.57.1}{{57}{18712363sp}}
\@writefile{lof}{\contentsline {figure}{\numberline {1.11}{\ignorespaces The binomial distribution. }}{43}{figure.caption.14}\protected@file@percent }
\newlabel{binomial-dist}{{1.11}{43}{\@sidenotes@sidecaption@tof }{figure.caption.14}{}}
\newlabel{eq-1.11}{{1.11}{44}{Discrete Random Variables}{equation.1.4.11}{}}
\newlabel{eq-1.12}{{1.12}{44}{Discrete Random Variables}{equation.1.4.12}{}}
\newlabel{eq-1.13}{{1.13}{44}{Discrete Random Variables}{equation.1.4.13}{}}
\newlabel{eq-1.14}{{1.14}{45}{Discrete Random Variables}{equation.1.4.14}{}}
\newmarginnote{note.59.1}{{59}{19644617sp}}
\@writefile{lof}{\contentsline {figure}{\numberline {1.12}{\ignorespaces The Poisson (right) and Gaussian (left) distributions. }}{45}{figure.caption.15}\protected@file@percent }
\newlabel{poisson-gaussian}{{1.12}{45}{\@sidenotes@sidecaption@tof }{figure.caption.15}{}}
\@writefile{toc}{\contentsline {section}{\numberline {1.5}Continuous Random Variables}{46}{section.1.5}\protected@file@percent }
\newmarginnote{note.61.1}{{61}{18712363sp}}
\@writefile{lof}{\contentsline {figure}{\numberline {1.13}{\ignorespaces The probability that a continuous random variable will take a certain value is zero.}}{47}{figure.caption.16}\protected@file@percent }
\newlabel{needle}{{1.13}{47}{\@sidenotes@sidecaption@tof }{figure.caption.16}{}}
\newmarginnote{note.62.1}{{62}{12120418sp}}
\@writefile{lof}{\contentsline {figure}{\numberline {1.14}{\ignorespaces A roulette to generate continuous random variables.\relax }}{48}{figure.caption.17}\protected@file@percent }
\newlabel{roulette}{{1.14}{48}{A roulette to generate continuous random variables.\relax }{figure.caption.17}{}}
\newmarginnote{note.62.2}{{62}{12120418sp}}
\@writefile{lof}{\contentsline {figure}{\numberline {1.15}{\ignorespaces A finite non-zero mass can be generated from the sum of an infinite number of zero masses.\relax }}{48}{figure.caption.18}\protected@file@percent }
\newlabel{cubes}{{1.15}{48}{A finite non-zero mass can be generated from the sum of an infinite number of zero masses.\relax }{figure.caption.18}{}}
\newlabel{eq-1.15}{{1.15}{49}{Continuous Random Variables}{equation.1.5.15}{}}
\newlabel{eq-1.16}{{1.16}{49}{Continuous Random Variables}{equation.1.5.16}{}}
\newlabel{eq-1.17}{{1.17}{50}{Continuous Random Variables}{equation.1.5.17}{}}
\newlabel{eq-1.18}{{1.18}{50}{Continuous Random Variables}{equation.1.5.18}{}}
\newlabel{eq-1.19}{{1.19}{50}{Continuous Random Variables}{equation.1.5.19}{}}
\newmarginnote{note.65.1}{{65}{18246164sp}}
\@writefile{lof}{\contentsline {figure}{\numberline {1.16}{\ignorespaces The three-sigma rule for a Gaussian distribution.}}{51}{figure.caption.19}\protected@file@percent }
\newlabel{three-sigma}{{1.16}{51}{\@sidenotes@sidecaption@tof }{figure.caption.19}{}}
\@writefile{toc}{\contentsline {chapter}{\numberline {2}Decision Making}{53}{chapter.2}\protected@file@percent }
\@writefile{lof}{\addvspace {10\p@ }}
\@writefile{lot}{\addvspace {10\p@ }}
\@writefile{toc}{\contentsline {section}{\numberline {2.1}These Difficult Decisions}{53}{section.2.1}\protected@file@percent }
\@writefile{toc}{\contentsline {section}{\numberline {2.2}Random Processes with Discrete States}{59}{section.2.2}\protected@file@percent }
\newmarginnote{note.73.1}{{73}{3864620sp}}
\@writefile{lof}{\contentsline {figure}{\numberline {2.1}{\ignorespaces A state graph for system with four states.\relax }}{59}{figure.caption.20}\protected@file@percent }
\newlabel{state-graph1}{{2.1}{59}{A state graph for system with four states.\relax }{figure.caption.20}{}}
\newmarginnote{note.74.1}{{74}{29434300sp}}
\@writefile{lof}{\contentsline {figure}{\numberline {2.2}{\ignorespaces A record of taxi orders at a taxi depot.}}{60}{figure.caption.21}\protected@file@percent }
\newlabel{event-arrival}{{2.2}{60}{\@sidenotes@sidecaption@tof }{figure.caption.21}{}}
\newlabel{eq-2.1}{{2.1}{62}{Random Processes with Discrete States}{equation.2.2.1}{}}
\newmarginnote{note.76.1}{{76}{12120418sp}}
\@writefile{lof}{\contentsline {figure}{\numberline {2.3}{\ignorespaces A state graph for system with four states with arrival rates. \relax }}{62}{figure.caption.22}\protected@file@percent }
\newlabel{state-graph2}{{2.3}{62}{A state graph for system with four states with arrival rates. \relax }{figure.caption.22}{}}
\newlabel{eq-2.2}{{2.2}{64}{Random Processes with Discrete States}{equation.2.2.2}{}}
\@writefile{toc}{\contentsline {section}{\numberline {2.3}Queueing Systems}{66}{section.2.3}\protected@file@percent }
\newmarginnote{note.84.1}{{84}{28501903sp}}
\@writefile{lof}{\contentsline {figure}{\numberline {2.4}{\ignorespaces State graph of a system with losses.}}{70}{figure.caption.23}\protected@file@percent }
\newlabel{state-graph3}{{2.4}{70}{\@sidenotes@sidecaption@tof }{figure.caption.23}{}}
\newlabel{eq-2.3}{{2.3}{72}{Queueing Systems}{equation.2.3.3}{}}
\newlabel{eq-2.4}{{2.4}{72}{Queueing Systems}{equation.2.3.4}{}}
\newlabel{eq-2.5}{{2.5}{72}{Queueing Systems}{equation.2.3.5}{}}
\newlabel{eq-2.6}{{2.6}{73}{Queueing Systems}{equation.2.3.6}{}}
\newmarginnote{note.87.1}{{88}{28501903sp}}
\@writefile{lof}{\contentsline {figure}{\numberline {2.5}{\ignorespaces State graph for a system (a) with finite queues and (b) with infinite queues.}}{74}{figure.caption.24}\protected@file@percent }
\newlabel{state-graph4}{{2.5}{74}{\@sidenotes@sidecaption@tof }{figure.caption.24}{}}
\newlabel{eq-2.7}{{2.7}{74}{Queueing Systems}{equation.2.3.7}{}}
\newlabel{eq-2.8}{{2.8}{74}{Queueing Systems}{equation.2.3.8}{}}
\newlabel{eq-2.9}{{2.9}{76}{Queueing Systems}{equation.2.3.9}{}}
\@writefile{toc}{\contentsline {section}{\numberline {2.4}Method of Statistical Testing}{76}{section.2.4}\protected@file@percent }
\newmarginnote{note.90.1}{{91}{19178561sp}}
\@writefile{lof}{\contentsline {figure}{\numberline {2.6}{\ignorespaces Finding out value of $\mitpi $ using a random distribution.}}{77}{figure.caption.25}\protected@file@percent }
\newlabel{monte-carlo1}{{2.6}{77}{\@sidenotes@sidecaption@tof }{figure.caption.25}{}}
\newmarginnote{note.93.1}{{93}{18246164sp}}
\@writefile{lof}{\contentsline {figure}{\numberline {2.7}{\ignorespaces Finding out value of $\mitpi $ using a random number table.}}{79}{figure.caption.26}\protected@file@percent }
\newlabel{monte-carlo2}{{2.7}{79}{\@sidenotes@sidecaption@tof }{figure.caption.26}{}}
\newmarginnote{note.93.2}{{94}{28069109sp}}
\@writefile{lot}{\contentsline {table}{\numberline {2.1}{\ignorespaces Coordinates of fifteen random numbers shown in red in the \hyperref  [monte-carlo2]{Figure\nobreakspace {}\ref {monte-carlo2}}. \relax }}{80}{table.caption.27}\protected@file@percent }
\newlabel{random-coord}{{2.1}{80}{Coordinates of fifteen random numbers shown in red in the \figr {monte-carlo2}. \relax }{table.caption.27}{}}
\newmarginnote{note.94.1}{{95}{18246164sp}}
\@writefile{lof}{\contentsline {figure}{\numberline {2.8}{\ignorespaces Using a random number table instead of coin tosses for statistical testing.}}{81}{figure.caption.28}\protected@file@percent }
\newlabel{monte-carlo3}{{2.8}{81}{\@sidenotes@sidecaption@tof }{figure.caption.28}{}}
\newmarginnote{note.97.1}{{98}{29434300sp}}
\@writefile{lof}{\contentsline {figure}{\numberline {2.9}{\ignorespaces A set of all possible trajectories for the neutron.}}{84}{figure.caption.29}\protected@file@percent }
\newlabel{neutron-path}{{2.9}{84}{\@sidenotes@sidecaption@tof }{figure.caption.29}{}}
\@writefile{toc}{\contentsline {section}{\numberline {2.5}Games and Decision Making}{84}{section.2.5}\protected@file@percent }
\newmarginnote{note.101.1}{{101}{16847711sp}}
\@writefile{lof}{\contentsline {figure}{\numberline {2.10}{\ignorespaces Strategies in a finite two-person zero-sum game.}}{87}{figure.caption.30}\protected@file@percent }
\newlabel{twoplayer1}{{2.10}{87}{\@sidenotes@sidecaption@tof }{figure.caption.30}{}}
\newmarginnote{note.102.1}{{102}{29434300sp}}
\@writefile{lof}{\contentsline {figure}{\numberline {2.11}{\ignorespaces A payoff matrix in a $3 \times 3$ finite two-person zero-sum game.}}{88}{figure.caption.31}\protected@file@percent }
\newlabel{twoplayer2}{{2.11}{88}{\@sidenotes@sidecaption@tof }{figure.caption.31}{}}
\newmarginnote{note.103.2}{{103}{1864679sp}}
\newmarginnote{note.103.1}{{103}{30366554sp}}
\@writefile{lof}{\contentsline {figure}{\numberline {2.12}{\ignorespaces A payoff matrix in a $3 \times 3$ finite two-person zero-sum game.}}{89}{figure.caption.32}\protected@file@percent }
\newlabel{twoplayer3}{{2.12}{89}{\@sidenotes@sidecaption@tof }{figure.caption.32}{}}
\newmarginnote{note.104.1}{{104}{21443818sp}}
\@writefile{lof}{\contentsline {figure}{\numberline {2.13}{\ignorespaces A $3 \times 3$ game with saddle point.}}{90}{figure.caption.33}\protected@file@percent }
\newlabel{saddle-point}{{2.13}{90}{\@sidenotes@sidecaption@tof }{figure.caption.33}{}}
\newlabel{eq-2.10}{{2.10}{92}{Games and Decision Making}{equation.2.5.10}{}}
\newlabel{eq-2.11}{{2.11}{92}{Games and Decision Making}{equation.2.5.11}{}}
\newlabel{eq-2.12}{{2.12}{92}{Games and Decision Making}{equation.2.5.12}{}}
\newlabel{eq-2.13}{{2.13}{93}{Games and Decision Making}{equation.2.5.13}{}}
\newmarginnote{note.107.1}{{107}{12441967sp}}
\@writefile{lof}{\contentsline {figure}{\numberline {2.14}{\ignorespaces Strategies with aeroplanes and anti-aircraft guns.\relax }}{93}{figure.caption.34}\protected@file@percent }
\newlabel{anti-aircraft}{{2.14}{93}{Strategies with aeroplanes and anti-aircraft guns.\relax }{figure.caption.34}{}}
\newmarginnote{note.107.2}{{107}{1864679sp}}
\@writefile{lof}{\contentsline {figure}{\numberline {2.15}{\ignorespaces Matrix of probable with aeroplanes and anti-aircraft guns.\relax }}{93}{figure.caption.35}\protected@file@percent }
\newlabel{aa-matrix}{{2.15}{93}{Matrix of probable with aeroplanes and anti-aircraft guns.\relax }{figure.caption.35}{}}
\newlabel{eq-2.14}{{2.14}{94}{Games and Decision Making}{equation.2.5.14}{}}
\newlabel{eq-2.15}{{2.15}{94}{Games and Decision Making}{equation.2.5.15}{}}
\newmarginnote{note.108.1}{{109}{19178561sp}}
\@writefile{lof}{\contentsline {figure}{\numberline {2.16}{\ignorespaces Solution for the game of aircrafts and anti-aircraft guns.}}{95}{figure.caption.36}\protected@file@percent }
\newlabel{aa-graph}{{2.16}{95}{\@sidenotes@sidecaption@tof }{figure.caption.36}{}}
\@writefile{toc}{\contentsline {chapter}{\numberline {3}Control and Self-control}{97}{chapter.3}\protected@file@percent }
\@writefile{lof}{\addvspace {10\p@ }}
\@writefile{lot}{\addvspace {10\p@ }}
\@writefile{toc}{\contentsline {section}{\numberline {3.1}The Problem of Control}{97}{section.3.1}\protected@file@percent }
\newmarginnote{note.113.1}{{113}{18246164sp}}
\@writefile{lof}{\contentsline {figure}{\numberline {3.1}{\ignorespaces Two different control schemes.}}{99}{figure.caption.37}\protected@file@percent }
\newlabel{control-scheme-1}{{3.1}{99}{\@sidenotes@sidecaption@tof }{figure.caption.37}{}}
\@writefile{toc}{\contentsline {section}{\numberline {3.2}From the ``Black Box'' to Cybernetics}{101}{section.3.2}\protected@file@percent }
\newmarginnote{note.115.1}{{115}{18712363sp}}
\@writefile{lof}{\contentsline {figure}{\numberline {3.2}{\ignorespaces A black box is a system whose inputs and outputs are known, but internal structure is not.}}{101}{figure.caption.38}\protected@file@percent }
\newlabel{black-box-1}{{3.2}{101}{\@sidenotes@sidecaption@tof }{figure.caption.38}{}}
\@writefile{toc}{\contentsline {section}{\numberline {3.3}Information }{105}{section.3.3}\protected@file@percent }
\newmarginnote{note.121.1}{{121}{18246164sp}}
\@writefile{lof}{\contentsline {figure}{\numberline {3.3}{\ignorespaces Representing the number 235 in decimal and binary systems. }}{107}{figure.caption.39}\protected@file@percent }
\newlabel{binary-conversion}{{3.3}{107}{\@sidenotes@sidecaption@tof }{figure.caption.39}{}}
\newmarginnote{note.121.2}{{122}{28968102sp}}
\@writefile{lof}{\contentsline {figure}{\numberline {3.4}{\ignorespaces Controlling railway lines by using switches.}}{108}{figure.caption.40}\protected@file@percent }
\newlabel{railway-switches}{{3.4}{108}{\@sidenotes@sidecaption@tof }{figure.caption.40}{}}
\newlabel{eq-3.1}{{3.1}{109}{Information}{equation.3.3.1}{}}
\newmarginnote{note.125.1}{{126}{29434300sp}}
\@writefile{lof}{\contentsline {figure}{\numberline {3.5}{\ignorespaces Finding out the selected pupil from a group of 32.}}{112}{figure.caption.41}\protected@file@percent }
\newlabel{32-pupils}{{3.5}{112}{\@sidenotes@sidecaption@tof }{figure.caption.41}{}}
\newlabel{eq-3.2}{{3.2}{115}{Information}{equation.3.3.2}{}}
\newlabel{eq-3.3}{{3.3}{115}{Information}{equation.3.3.3}{}}
\newmarginnote{note.130.1}{{130}{12120418sp}}
\@writefile{lof}{\contentsline {figure}{\numberline {3.6}{\ignorespaces Graph of Shannon distribution.\relax }}{116}{figure.caption.42}\protected@file@percent }
\newlabel{shannon-distro}{{3.6}{116}{Graph of Shannon distribution.\relax }{figure.caption.42}{}}
\newlabel{eq-3.4}{{3.4}{117}{Information}{equation.3.3.4}{}}
\newmarginnote{note.131.1}{{131}{18712363sp}}
\@writefile{lof}{\contentsline {figure}{\numberline {3.7}{\ignorespaces A communication channel for transmitting information.}}{117}{figure.caption.43}\protected@file@percent }
\newlabel{comm-channel}{{3.7}{117}{\@sidenotes@sidecaption@tof }{figure.caption.43}{}}
\newlabel{eq-3.5}{{3.5}{117}{Information}{equation.3.3.5}{}}
\newmarginnote{note.131.2}{{132}{28968102sp}}
\@writefile{lof}{\contentsline {figure}{\numberline {3.8}{\ignorespaces A communication channel with a filter.}}{118}{figure.caption.44}\protected@file@percent }
\newlabel{noise1}{{3.8}{118}{\@sidenotes@sidecaption@tof }{figure.caption.44}{}}
\newmarginnote{note.132.1}{{133}{18712363sp}}
\@writefile{lof}{\contentsline {figure}{\numberline {3.9}{\ignorespaces A communication channel with a filter and signal multiplier.}}{119}{figure.caption.45}\protected@file@percent }
\newlabel{noise2}{{3.9}{119}{\@sidenotes@sidecaption@tof }{figure.caption.45}{}}
\@writefile{toc}{\contentsline {section}{\numberline {3.4}Selection of Information from Noise}{120}{section.3.4}\protected@file@percent }
\newmarginnote{note.137.1}{{137}{1864679sp}}
\@writefile{lof}{\contentsline {figure}{\numberline {3.10}{\ignorespaces A selection amplifier.\relax }}{123}{figure.caption.46}\protected@file@percent }
\newlabel{selection-amp}{{3.10}{123}{A selection amplifier.\relax }{figure.caption.46}{}}
\newmarginnote{note.138.1}{{139}{14894899sp}}
\@writefile{lof}{\contentsline {figure}{\numberline {3.11}{\ignorespaces A homeostat is a device which possessed the property of self-organization on the basis of random search.\relax }}{125}{figure.caption.47}\protected@file@percent }
\newlabel{homeostat}{{3.11}{125}{A homeostat is a device which possessed the property of self-organization on the basis of random search.\relax }{figure.caption.47}{}}
\newmarginnote{note.139.1}{{139}{11538883sp}}
\@writefile{lof}{\contentsline {figure}{\numberline {3.12}{\ignorespaces A selection of different ways of writing letter A.\relax }}{125}{figure.caption.48}\protected@file@percent }
\newlabel{fonts}{{3.12}{125}{A selection of different ways of writing letter A.\relax }{figure.caption.48}{}}
\@writefile{toc}{\contentsline {section}{\numberline {3.5}On the Way to a Stochastic Model of the Brain}{125}{section.3.5}\protected@file@percent }
\newmarginnote{note.140.1}{{141}{11188079sp}}
\@writefile{lof}{\contentsline {figure}{\numberline {3.13}{\ignorespaces Signals and their interpretations by a perceptron.}}{127}{figure.caption.49}\protected@file@percent }
\newlabel{perceptron1}{{3.13}{127}{\@sidenotes@sidecaption@tof }{figure.caption.49}{}}
\newmarginnote{note.141.1}{{142}{27849197sp}}
\@writefile{lof}{\contentsline {figure}{\numberline {3.14}{\ignorespaces Schematic diagram of the simplest perceptron.}}{128}{figure.caption.50}\protected@file@percent }
\newlabel{perceptron2}{{3.14}{128}{\@sidenotes@sidecaption@tof }{figure.caption.50}{}}
\@writefile{toc}{\contentsline {part}{II\hspace  {1em}Fundamentality of the Probability Laws}{133}{part.2}\protected@file@percent }
\@writefile{toc}{\contentsline {chapter}{\numberline {4}Probability in Classical Physics}{135}{chapter.4}\protected@file@percent }
\@writefile{lof}{\addvspace {10\p@ }}
\@writefile{lot}{\addvspace {10\p@ }}
\@writefile{toc}{\contentsline {section}{\numberline {4.1}Thermodynamics and Its Puzzles }{136}{section.4.1}\protected@file@percent }
\newlabel{eq-4.1}{{4.1}{137}{Thermodynamics and Its Puzzles}{equation.4.1.1}{}}
\newlabel{eq-4.2}{{4.2}{138}{Thermodynamics and Its Puzzles}{equation.4.1.2}{}}
\newlabel{eq-4.3}{{4.3}{139}{Thermodynamics and Its Puzzles}{equation.4.1.3}{}}
\newmarginnote{note.153.1}{{153}{1864679sp}}
\@writefile{lof}{\contentsline {figure}{\numberline {4.1}{\ignorespaces Isothermal and adiabatic processes.\relax }}{139}{figure.caption.51}\protected@file@percent }
\newlabel{iso-adia}{{4.1}{139}{Isothermal and adiabatic processes.\relax }{figure.caption.51}{}}
\newlabel{eq-4.4}{{4.4}{139}{Thermodynamics and Its Puzzles}{equation.4.1.4}{}}
\newlabel{eq-4.5}{{4.5}{139}{Thermodynamics and Its Puzzles}{equation.4.1.5}{}}
\newlabel{eq-4.6}{{4.6}{139}{Thermodynamics and Its Puzzles}{equation.4.1.6}{}}
\newmarginnote{note.154.1}{{154}{12120418sp}}
\@writefile{lof}{\contentsline {figure}{\numberline {4.2}{\ignorespaces Carnot cycle for an ideal gas.\relax }}{140}{figure.caption.52}\protected@file@percent }
\newlabel{ideal-gas}{{4.2}{140}{Carnot cycle for an ideal gas.\relax }{figure.caption.52}{}}
\newlabel{eq-4.7}{{4.7}{141}{Thermodynamics and Its Puzzles}{equation.4.1.7}{}}
\newlabel{eq-4.8}{{4.8}{141}{Thermodynamics and Its Puzzles}{equation.4.1.8}{}}
\newlabel{eq-4.9}{{4.9}{141}{Thermodynamics and Its Puzzles}{equation.4.1.9}{}}
\newmarginnote{note.157.1}{{157}{1864679sp}}
\@writefile{lof}{\contentsline {figure}{\numberline {4.3}{\ignorespaces Work done in transfer of heat from bodies at different temperatures.\relax }}{143}{figure.caption.53}\protected@file@percent }
\newlabel{perp}{{4.3}{143}{Work done in transfer of heat from bodies at different temperatures.\relax }{figure.caption.53}{}}
\newlabel{eq-4.10}{{4.10}{143}{Thermodynamics and Its Puzzles}{equation.4.1.10}{}}
\newlabel{eq-4.11}{{4.11}{144}{Thermodynamics and Its Puzzles}{equation.4.1.11}{}}
\newlabel{eq-4.12}{{4.12}{144}{Thermodynamics and Its Puzzles}{equation.4.1.12}{}}
\newlabel{eq-4.13}{{4.13}{145}{Thermodynamics and Its Puzzles}{equation.4.1.13}{}}
\@writefile{toc}{\contentsline {section}{\numberline {4.2}Molecules in a Gas and Probability }{146}{section.4.2}\protected@file@percent }
\newmarginnote{note.163.1}{{163}{8939724sp}}
\@writefile{lof}{\contentsline {figure}{\numberline {4.4}{\ignorespaces Bounce of a stone and an elastic ball.\relax }}{149}{figure.caption.54}\protected@file@percent }
\newlabel{reflect}{{4.4}{149}{Bounce of a stone and an elastic ball.\relax }{figure.caption.54}{}}
\newmarginnote{note.165.1}{{166}{19634556sp}}
\@writefile{lof}{\contentsline {figure}{\numberline {4.5}{\ignorespaces A snapshot of the molecules in motion.\relax }}{152}{figure.caption.55}\protected@file@percent }
\newlabel{mol-photo}{{4.5}{152}{A snapshot of the molecules in motion.\relax }{figure.caption.55}{}}
\newmarginnote{note.166.1}{{167}{1864679sp}}
\@writefile{lof}{\contentsline {figure}{\numberline {4.6}{\ignorespaces A snapshot of molecular velocity distribution.\relax }}{153}{figure.caption.56}\protected@file@percent }
\newlabel{mol-dist}{{4.6}{153}{A snapshot of molecular velocity distribution.\relax }{figure.caption.56}{}}
\newlabel{eq-4.14}{{4.14}{154}{Molecules in a Gas and Probability}{equation.4.2.14}{}}
\newlabel{eq-4.15}{{4.15}{154}{Molecules in a Gas and Probability}{equation.4.2.15}{}}
\newlabel{gauss-law-param}{{4.2}{154}{Molecules in a Gas and Probability}{equation.4.2.15}{}}
\newlabel{eq-4.16}{{4.16}{154}{Molecules in a Gas and Probability}{equation.4.2.16}{}}
\newlabel{eq-4.17}{{4.17}{155}{Molecules in a Gas and Probability}{equation.4.2.17}{}}
\newmarginnote{note.168.1}{{169}{18246164sp}}
\@writefile{lof}{\contentsline {figure}{\numberline {4.7}{\ignorespaces The Gauss velocity distribution.}}{155}{figure.caption.57}\protected@file@percent }
\newlabel{gauss-dist}{{4.7}{155}{\@sidenotes@sidecaption@tof }{figure.caption.57}{}}
\newlabel{eq-4.18}{{4.18}{155}{Molecules in a Gas and Probability}{equation.4.2.18}{}}
\newmarginnote{note.169.1}{{170}{29900356sp}}
\@writefile{lof}{\contentsline {figure}{\numberline {4.8}{\ignorespaces The velocity space.}}{156}{figure.caption.58}\protected@file@percent }
\newlabel{vel-space}{{4.8}{156}{\@sidenotes@sidecaption@tof }{figure.caption.58}{}}
\newlabel{eq-4.19}{{4.19}{156}{Molecules in a Gas and Probability}{equation.4.2.19}{}}
\newmarginnote{note.170.1}{{171}{18712363sp}}
\@writefile{lof}{\contentsline {figure}{\numberline {4.9}{\ignorespaces The Maxwellian velocity distribution.}}{157}{figure.caption.59}\protected@file@percent }
\newlabel{mxwl-space}{{4.9}{157}{\@sidenotes@sidecaption@tof }{figure.caption.59}{}}
\newlabel{eq-4.20}{{4.20}{158}{Molecules in a Gas and Probability}{equation.4.2.20}{}}
\@writefile{toc}{\contentsline {section}{\numberline {4.3}Pressure and Temperature of an Ideal Gas}{158}{section.4.3}\protected@file@percent }
\newmarginnote{note.173.1}{{173}{18712363sp}}
\@writefile{lof}{\contentsline {figure}{\numberline {4.10}{\ignorespaces The collisions of molecules with walls of the container.}}{159}{figure.caption.60}\protected@file@percent }
\newlabel{collisions}{{4.10}{159}{\@sidenotes@sidecaption@tof }{figure.caption.60}{}}
\newlabel{eq-4.21}{{4.21}{159}{Pressure and Temperature of an Ideal Gas}{equation.4.3.21}{}}
\newlabel{eq-4.22}{{4.22}{159}{Pressure and Temperature of an Ideal Gas}{equation.4.3.22}{}}
\newlabel{eq-4.23}{{4.23}{160}{Pressure and Temperature of an Ideal Gas}{equation.4.3.23}{}}
\newlabel{eq-4.24}{{4.24}{160}{Pressure and Temperature of an Ideal Gas}{equation.4.3.24}{}}
\newlabel{eq-4.25}{{4.25}{160}{Pressure and Temperature of an Ideal Gas}{equation.4.3.25}{}}
\newlabel{eq-4.26}{{4.26}{160}{Pressure and Temperature of an Ideal Gas}{equation.4.3.26}{}}
\newlabel{eq-4.27}{{4.27}{160}{Pressure and Temperature of an Ideal Gas}{equation.4.3.27}{}}
\newlabel{eq-4.28}{{4.28}{161}{Pressure and Temperature of an Ideal Gas}{equation.4.3.28}{}}
\newlabel{eq-4.29}{{4.29}{161}{Pressure and Temperature of an Ideal Gas}{equation.4.3.29}{}}
\newlabel{energy-gas3}{{4.30}{161}{Pressure and Temperature of an Ideal Gas}{equation.4.3.30}{}}
\@writefile{toc}{\contentsline {section}{\numberline {4.4}Fluctuations }{161}{section.4.4}\protected@file@percent }
\newlabel{eq-4.31}{{4.31}{162}{Fluctuations}{equation.4.4.31}{}}
\newlabel{eq-4.32}{{4.32}{162}{Fluctuations}{equation.4.4.32}{}}
\newlabel{eq-4.33}{{4.33}{162}{Fluctuations}{equation.4.4.33}{}}
\newlabel{eq-4.34}{{4.34}{163}{Fluctuations}{equation.4.4.34}{}}
\newlabel{eq-4.35}{{4.35}{163}{Fluctuations}{equation.4.4.35}{}}
\newlabel{eq-4.36}{{4.36}{163}{Fluctuations}{equation.4.4.36}{}}
\newlabel{eq-4.37}{{4.37}{163}{Fluctuations}{equation.4.4.37}{}}
\newlabel{eq-4.38}{{4.38}{163}{Fluctuations}{equation.4.4.38}{}}
\newlabel{eq-4.39}{{4.39}{164}{Fluctuations}{equation.4.4.39}{}}
\newlabel{eq-4.40}{{4.40}{164}{Fluctuations}{equation.4.4.40}{}}
\newlabel{eq-4.41}{{4.41}{164}{Fluctuations}{equation.4.4.41}{}}
\newlabel{eq-4.42}{{4.42}{164}{Fluctuations}{equation.4.4.42}{}}
\newlabel{eq-4.43}{{4.43}{165}{Fluctuations}{equation.4.4.43}{}}
\newpmemlabel{^_1}{165}
\newmarginnote{note.179.1}{{179}{28101155sp}}
\@writefile{lof}{\contentsline {figure}{\numberline {4.11}{\ignorespaces A comparison of the fluctuations of the micro-variable $\mitvarepsilon $ and macro-variable $U$.}}{165}{figure.caption.61}\protected@file@percent }
\newlabel{macro-micro}{{4.11}{165}{\@sidenotes@sidecaption@tof }{figure.caption.61}{}}
\newlabel{eq-4.44}{{4.44}{166}{Fluctuations}{equation.4.4.44}{}}
\newlabel{eq-4.45}{{4.45}{167}{Fluctuations}{equation.4.4.45}{}}
\newlabel{eq-4.46}{{4.46}{167}{Fluctuations}{equation.4.4.46}{}}
\@writefile{toc}{\contentsline {section}{\numberline {4.5}Entropy and Probability }{169}{section.4.5}\protected@file@percent }
\newlabel{eq-4.47}{{4.47}{169}{Entropy and Probability}{equation.4.5.47}{}}
\newlabel{eq-4.48}{{4.48}{169}{Entropy and Probability}{equation.4.5.48}{}}
\newlabel{eq-4.49}{{4.49}{169}{Entropy and Probability}{equation.4.5.49}{}}
\newlabel{eq-4.50}{{4.50}{170}{Entropy and Probability}{equation.4.5.50}{}}
\newlabel{eq-4.51}{{4.51}{170}{Entropy and Probability}{equation.4.5.51}{}}
\newlabel{eq-4.52}{{4.52}{170}{Entropy and Probability}{equation.4.5.52}{}}
\newlabel{eq-4.53a}{{{4.53a}}{171}{Entropy and Probability}{AMS.62}{}}
\newlabel{eq-4.53b}{{{4.53b}}{171}{Entropy and Probability}{AMS.63}{}}
\newmarginnote{note.185.1}{{186}{28035705sp}}
\@writefile{lof}{\contentsline {figure}{\numberline {4.12}{\ignorespaces Entropy as a measure of disorder in the system.}}{172}{figure.caption.64}\protected@file@percent }
\newlabel{entropy-disorder}{{4.12}{172}{\@sidenotes@sidecaption@tof }{figure.caption.64}{}}
\newlabel{eq-4.54}{{4.54}{172}{Entropy and Probability}{equation.4.5.54}{}}
\newlabel{eq-4.55}{{4.55}{173}{Entropy and Probability}{equation.4.5.55}{}}
\newlabel{eq-4.56}{{4.56}{173}{Entropy and Probability}{equation.4.5.56}{}}
\newlabel{eq-4.57}{{4.57}{173}{Entropy and Probability}{equation.4.5.57}{}}
\newlabel{eq-4.58}{{4.58}{173}{Entropy and Probability}{equation.4.5.58}{}}
\newlabel{entropy-4}{{4.59}{174}{Entropy and Probability}{equation.4.5.59}{}}
\@writefile{toc}{\contentsline {section}{\numberline {4.6}Entropy and Information }{177}{section.4.6}\protected@file@percent }
\newlabel{eq-4.60}{{4.60}{178}{Entropy and Information}{equation.4.6.60}{}}
\newlabel{eq-4.61}{{4.61}{178}{Entropy and Information}{equation.4.6.61}{}}
\newmarginnote{note.193.1}{{194}{29900356sp}}
\@writefile{lof}{\contentsline {figure}{\numberline {4.13}{\ignorespaces Maxwell's demon controls the flow of molecules from one section to another.}}{180}{figure.caption.65}\protected@file@percent }
\newlabel{max-demon}{{4.13}{180}{\@sidenotes@sidecaption@tof }{figure.caption.65}{}}
\@writefile{toc}{\contentsline {chapter}{\numberline {5}Probability in the Microcosm}{183}{chapter.5}\protected@file@percent }
\@writefile{lof}{\addvspace {10\p@ }}
\@writefile{lot}{\addvspace {10\p@ }}
\@writefile{toc}{\contentsline {section}{\numberline {5.1}Spontaneous Micro-processes}{184}{section.5.1}\protected@file@percent }
\newlabel{eq-5.1}{{5.1}{185}{Spontaneous Micro-processes}{equation.5.1.1}{}}
\newmarginnote{note.199.1}{{199}{18246164sp}}
\@writefile{lof}{\contentsline {figure}{\numberline {5.1}{\ignorespaces The number of neutrons decaying as a function of time.}}{185}{figure.caption.66}\protected@file@percent }
\newlabel{decay-fn}{{5.1}{185}{\@sidenotes@sidecaption@tof }{figure.caption.66}{}}
\newlabel{eq-5.2}{{5.2}{186}{Spontaneous Micro-processes}{equation.5.1.2}{}}
\newmarginnote{note.202.1}{{203}{18712363sp}}
\@writefile{lof}{\contentsline {figure}{\numberline {5.2}{\ignorespaces The number of neutrons decaying as a function of time.}}{189}{figure.caption.67}\protected@file@percent }
\newlabel{spon-fission}{{5.2}{189}{\@sidenotes@sidecaption@tof }{figure.caption.67}{}}
\newmarginnote{note.204.1}{{205}{17779966sp}}
\@writefile{lof}{\contentsline {figure}{\numberline {5.3}{\ignorespaces Induced and spontaneous emissions in a two level quantum system.}}{191}{figure.caption.68}\protected@file@percent }
\newlabel{emission}{{5.3}{191}{\@sidenotes@sidecaption@tof }{figure.caption.68}{}}
\newmarginnote{note.206.1}{{207}{18246164sp}}
\@writefile{lof}{\contentsline {figure}{\numberline {5.4}{\ignorespaces  A schematic explanation of how does the laser emission works. }}{193}{figure.caption.69}\protected@file@percent }
\newlabel{laser}{{5.4}{193}{\@sidenotes@sidecaption@tof }{figure.caption.69}{}}
\@writefile{toc}{\contentsline {section}{\numberline {5.2}From Uncertainty Relations the Wave Function}{195}{section.5.2}\protected@file@percent }
\newlabel{eq-5.3}{{5.3}{195}{From Uncertainty Relations the Wave Function}{equation.5.2.3}{}}
\newmarginnote{note.210.1}{{210}{12120418sp}}
\@writefile{lof}{\contentsline {figure}{\numberline {5.5}{\ignorespaces  States of a micro-body.\relax }}{196}{figure.caption.70}\protected@file@percent }
\newlabel{unc}{{5.5}{196}{States of a micro-body.\relax }{figure.caption.70}{}}
\newlabel{eq-5.4}{{5.4}{196}{From Uncertainty Relations the Wave Function}{equation.5.2.4}{}}
\newmarginnote{note.211.1}{{211}{18246164sp}}
\@writefile{lof}{\contentsline {figure}{\numberline {5.6}{\ignorespaces  Electron diffraction experiment proved the wave properties of the electrons.}}{197}{figure.caption.71}\protected@file@percent }
\newlabel{diffraction1}{{5.6}{197}{\@sidenotes@sidecaption@tof }{figure.caption.71}{}}
\newmarginnote{note.212.1}{{212}{12120418sp}}
\@writefile{lof}{\contentsline {figure}{\numberline {5.7}{\ignorespaces  Electron diffraction experiment as understood by the uncertainty of the momentum and direction.\relax }}{198}{figure.caption.72}\protected@file@percent }
\newlabel{diffraction2}{{5.7}{198}{Electron diffraction experiment as understood by the uncertainty of the momentum and direction.\relax }{figure.caption.72}{}}
\newmarginnote{note.213.1}{{214}{28968102sp}}
\@writefile{lof}{\contentsline {figure}{\numberline {5.8}{\ignorespaces  Electron clouds in an atom.}}{200}{figure.caption.73}\protected@file@percent }
\newlabel{orbitals}{{5.8}{200}{\@sidenotes@sidecaption@tof }{figure.caption.73}{}}
\@writefile{toc}{\contentsline {section}{\numberline {5.3}Interference and Summing Probability Amplitudes}{200}{section.5.3}\protected@file@percent }
\newmarginnote{note.214.1}{{215}{18712363sp}}
\@writefile{lof}{\contentsline {figure}{\numberline {5.9}{\ignorespaces The two slit experiment.}}{201}{figure.caption.74}\protected@file@percent }
\newlabel{double-slit}{{5.9}{201}{\@sidenotes@sidecaption@tof }{figure.caption.74}{}}
\newlabel{eq-5.5}{{5.5}{201}{Interference and Summing Probability Amplitudes}{equation.5.3.5}{}}
\newlabel{eq-5.6}{{5.6}{202}{Interference and Summing Probability Amplitudes}{equation.5.3.6}{}}
\newlabel{eq-5.7}{{5.7}{202}{Interference and Summing Probability Amplitudes}{equation.5.3.7}{}}
\newlabel{eq-5.8}{{5.8}{203}{Interference and Summing Probability Amplitudes}{equation.5.3.8}{}}
\newlabel{eq-5.9}{{5.9}{203}{Interference and Summing Probability Amplitudes}{equation.5.3.9}{}}
\newlabel{eq-5.10}{{5.10}{204}{Interference and Summing Probability Amplitudes}{equation.5.3.10}{}}
\newmarginnote{note.219.1}{{220}{30020279sp}}
\@writefile{lof}{\contentsline {figure}{\numberline {5.10}{\ignorespaces Diffraction of neutrons through a crystal.\relax }}{206}{figure.caption.75}\protected@file@percent }
\newlabel{neutron-diff}{{5.10}{206}{Diffraction of neutrons through a crystal.\relax }{figure.caption.75}{}}
\newlabel{eq-5.11}{{5.11}{206}{Interference and Summing Probability Amplitudes}{equation.5.3.11}{}}
\newlabel{eq-5.12}{{5.12}{207}{Interference and Summing Probability Amplitudes}{equation.5.3.12}{}}
\newmarginnote{note.221.1}{{221}{1864679sp}}
\@writefile{lof}{\contentsline {figure}{\numberline {5.11}{\ignorespaces Distribution of diffraction of neutrons through a crystal. \relax }}{207}{figure.caption.76}\protected@file@percent }
\newlabel{neutron-dist}{{5.11}{207}{Distribution of diffraction of neutrons through a crystal. \relax }{figure.caption.76}{}}
\newlabel{eq-5.13}{{5.13}{207}{Interference and Summing Probability Amplitudes}{equation.5.3.13}{}}
\newlabel{eq-5.14}{{5.14}{207}{Interference and Summing Probability Amplitudes}{equation.5.3.14}{}}
\@writefile{toc}{\contentsline {section}{\numberline {5.4}Probability and Causality }{208}{section.5.4}\protected@file@percent }
\@writefile{toc}{\contentsline {chapter}{\numberline {6}Probability in Biology}{213}{chapter.6}\protected@file@percent }
\@writefile{lof}{\addvspace {10\p@ }}
\@writefile{lot}{\addvspace {10\p@ }}
\@writefile{toc}{\contentsline {section}{\numberline {6.1}Introduction }{213}{section.6.1}\protected@file@percent }
\newmarginnote{note.231.1}{{231}{1864679sp}}
\@writefile{lot}{\contentsline {table}{\numberline {6.1}{\ignorespaces Data from experiments conducted by Mendel. The ration between two varieties of seeds is close to $1:3$.\relax }}{217}{table.caption.77}\protected@file@percent }
\newlabel{mendel-result}{{6.1}{217}{Data from experiments conducted by Mendel. The ration between two varieties of seeds is close to $1:3$.\relax }{table.caption.77}{}}
\newmarginnote{note.232.1}{{233}{20110816sp}}
\@writefile{lof}{\contentsline {figure}{\numberline {6.1}{\ignorespaces Results of Mendel's experiment with yellow and green peas till fourth generation.}}{219}{figure.caption.78}\protected@file@percent }
\newlabel{mendel-expt}{{6.1}{219}{\@sidenotes@sidecaption@tof }{figure.caption.78}{}}
\@writefile{toc}{\contentsline {section}{\numberline {6.2}The Patterns After the Random Combination of Genes in Crossbreeding}{220}{section.6.2}\protected@file@percent }
\newmarginnote{note.236.1}{{236}{29900356sp}}
\@writefile{lof}{\contentsline {figure}{\numberline {6.2}{\ignorespaces Combination of chromosomes and their results.}}{222}{figure.caption.79}\protected@file@percent }
\newlabel{genes0}{{6.2}{222}{\@sidenotes@sidecaption@tof }{figure.caption.79}{}}
\newmarginnote{note.237.1}{{238}{29900356sp}}
\@writefile{lof}{\contentsline {figure}{\numberline {6.3}{\ignorespaces Analysing Mendel's experiment using modern cytology.}}{224}{figure.caption.80}\protected@file@percent }
\newlabel{genes1}{{6.3}{224}{\@sidenotes@sidecaption@tof }{figure.caption.80}{}}
\newmarginnote{note.239.1}{{239}{18246164sp}}
\@writefile{lof}{\contentsline {figure}{\numberline {6.4}{\ignorespaces Analysing Mendel's experiment using modern cytology.}}{225}{figure.caption.81}\protected@file@percent }
\newlabel{genes2}{{6.4}{225}{\@sidenotes@sidecaption@tof }{figure.caption.81}{}}
\newmarginnote{note.242.1}{{243}{17779966sp}}
\@writefile{lof}{\contentsline {figure}{\numberline {6.5}{\ignorespaces ``Farewell dance'' of the genes combines genes from the two parents. }}{229}{figure.caption.82}\protected@file@percent }
\newlabel{genes3}{{6.5}{229}{\@sidenotes@sidecaption@tof }{figure.caption.82}{}}
\@writefile{toc}{\contentsline {section}{\numberline {6.3}Mutations }{230}{section.6.3}\protected@file@percent }
\@writefile{toc}{\contentsline {section}{\numberline {6.4}Evolution Through the Eyes of Geneticists}{235}{section.6.4}\protected@file@percent }
\@writefile{toc}{\contentsline {chapter}{A Concluding Conversation}{241}{chapter*.83}\protected@file@percent }
\@writefile{toc}{\contentsline {chapter}{Recommended Literature}{249}{chapter*.84}\protected@file@percent }
\gdef \@abspage@last{269}
