<?xml version="1.0" encoding="UTF-8" standalone="no"?>
<!-- Created with Inkscape (http://www.inkscape.org/) -->

<svg
   id="svg2"
   version="1.1"
   inkscape:version="1.2.2 (b0a8486, 2022-12-01)"
   xml:space="preserve"
   width="376.29477"
   height="235.0687"
   viewBox="0 0 376.29477 235.06869"
   sodipodi:docname="fig-08.svg"
   xmlns:inkscape="http://www.inkscape.org/namespaces/inkscape"
   xmlns:sodipodi="http://sodipodi.sourceforge.net/DTD/sodipodi-0.dtd"
   xmlns:xlink="http://www.w3.org/1999/xlink"
   xmlns="http://www.w3.org/2000/svg"
   xmlns:svg="http://www.w3.org/2000/svg"
   xmlns:rdf="http://www.w3.org/1999/02/22-rdf-syntax-ns#"
   xmlns:cc="http://creativecommons.org/ns#"
   xmlns:dc="http://purl.org/dc/elements/1.1/"><metadata
     id="metadata8"><rdf:RDF><cc:Work
         rdf:about=""><dc:format>image/svg+xml</dc:format><dc:type
           rdf:resource="http://purl.org/dc/dcmitype/StillImage" /><dc:title /></cc:Work></rdf:RDF></metadata><defs
     id="defs6"><linearGradient
   inkscape:collect="always"
   id="linearGradient6539"><stop
     style="stop-color:#ffffff;stop-opacity:1"
     offset="0"
     id="stop6541" /><stop
     style="stop-color:#000000;stop-opacity:1"
     offset="1"
     id="stop6543" /></linearGradient><linearGradient
   inkscape:collect="always"
   id="linearGradient6533"><stop
     style="stop-color:#ffffff;stop-opacity:1"
     offset="0"
     id="stop6535" /><stop
     style="stop-color:#a9a9a9;stop-opacity:1"
     offset="1"
     id="stop6537" /></linearGradient><marker
   inkscape:stockid="Arrow1Mend"
   orient="auto"
   refY="0"
   refX="0"
   id="marker8269"
   style="overflow:visible"
   inkscape:isstock="true"><path
     id="path8271"
     d="M 0,0 5,-5 -12.5,0 5,5 0,0 Z"
     style="fill:#ff6347;fill-opacity:1;fill-rule:evenodd;stroke:#ff6347;stroke-width:1pt;stroke-opacity:1"
     transform="matrix(-0.4,0,0,-0.4,-4,0)"
     inkscape:connector-curvature="0" /></marker><marker
   inkscape:stockid="Arrow1Mend"
   orient="auto"
   refY="0"
   refX="0"
   id="marker8175"
   style="overflow:visible"
   inkscape:isstock="true"><path
     id="path8177"
     d="M 0,0 5,-5 -12.5,0 5,5 0,0 Z"
     style="fill:#ff6347;fill-opacity:1;fill-rule:evenodd;stroke:#ff6347;stroke-width:1pt;stroke-opacity:1"
     transform="matrix(-0.4,0,0,-0.4,-4,0)"
     inkscape:connector-curvature="0" /></marker><marker
   inkscape:isstock="true"
   style="overflow:visible"
   id="marker8081"
   refX="0"
   refY="0"
   orient="auto"
   inkscape:stockid="Arrow1Mend"><path
     transform="matrix(-0.4,0,0,-0.4,-4,0)"
     style="fill:#ff6347;fill-opacity:1;fill-rule:evenodd;stroke:#ff6347;stroke-width:1pt;stroke-opacity:1"
     d="M 0,0 5,-5 -12.5,0 5,5 0,0 Z"
     id="path8083"
     inkscape:connector-curvature="0" /></marker><marker
   inkscape:isstock="true"
   style="overflow:visible"
   id="marker8017"
   refX="0"
   refY="0"
   orient="auto"
   inkscape:stockid="Arrow1Mend"><path
     transform="matrix(-0.4,0,0,-0.4,-4,0)"
     style="fill:#ff6347;fill-opacity:1;fill-rule:evenodd;stroke:#ff6347;stroke-width:1pt;stroke-opacity:1"
     d="M 0,0 5,-5 -12.5,0 5,5 0,0 Z"
     id="path8019"
     inkscape:connector-curvature="0" /></marker><marker
   inkscape:isstock="true"
   style="overflow:visible"
   id="marker7911"
   refX="0"
   refY="0"
   orient="auto"
   inkscape:stockid="Arrow1Mend"><path
     transform="matrix(-0.4,0,0,-0.4,-4,0)"
     style="fill:#ff6347;fill-opacity:1;fill-rule:evenodd;stroke:#ff6347;stroke-width:1pt;stroke-opacity:1"
     d="M 0,0 5,-5 -12.5,0 5,5 0,0 Z"
     id="path7913"
     inkscape:connector-curvature="0" /></marker><marker
   inkscape:stockid="Arrow1Lend"
   orient="auto"
   refY="0"
   refX="0"
   id="Arrow1Lend"
   style="overflow:visible"
   inkscape:isstock="true"><path
     id="path7128"
     d="M 0,0 5,-5 -12.5,0 5,5 0,0 Z"
     style="fill:#ff6347;fill-opacity:1;fill-rule:evenodd;stroke:#ff6347;stroke-width:1pt;stroke-opacity:1"
     transform="matrix(-0.8,0,0,-0.8,-10,0)"
     inkscape:connector-curvature="0" /></marker><radialGradient
   inkscape:collect="always"
   xlink:href="#linearGradient6539"
   id="radialGradient4510"
   gradientUnits="userSpaceOnUse"
   gradientTransform="matrix(1,0,0,0.99982673,-55.56772,161.72667)"
   cx="185.98378"
   cy="-547.31024"
   fx="185.98378"
   fy="-547.31024"
   r="14.519777" /><radialGradient
   inkscape:collect="always"
   xlink:href="#linearGradient6533"
   id="radialGradient4512"
   gradientUnits="userSpaceOnUse"
   gradientTransform="matrix(1,0,0,0.99982673,-83.98046,161.72667)"
   cx="185.98378"
   cy="-547.31024"
   fx="185.98378"
   fy="-547.31024"
   r="14.519777" /><radialGradient
   inkscape:collect="always"
   xlink:href="#linearGradient6533"
   id="radialGradient6612"
   gradientUnits="userSpaceOnUse"
   gradientTransform="matrix(1,0,0,0.99982673,-83.98046,161.72667)"
   cx="185.98378"
   cy="-547.31024"
   fx="185.98378"
   fy="-547.31024"
   r="14.519777" /><radialGradient
   inkscape:collect="always"
   xlink:href="#linearGradient6539"
   id="radialGradient6614"
   gradientUnits="userSpaceOnUse"
   gradientTransform="matrix(1,0,0,0.99982673,-55.56772,161.72667)"
   cx="185.98378"
   cy="-547.31024"
   fx="185.98378"
   fy="-547.31024"
   r="14.519777" /><radialGradient
   inkscape:collect="always"
   xlink:href="#linearGradient6533"
   id="radialGradient6624"
   gradientUnits="userSpaceOnUse"
   gradientTransform="matrix(1,0,0,0.99982673,76.01954,163.32667)"
   cx="185.98378"
   cy="-547.31024"
   fx="185.98378"
   fy="-547.31024"
   r="14.519777" /><radialGradient
   inkscape:collect="always"
   xlink:href="#linearGradient6539"
   id="radialGradient6638"
   gradientUnits="userSpaceOnUse"
   gradientTransform="matrix(1,0,0,0.99982673,184.43228,163.32667)"
   cx="185.98378"
   cy="-547.31024"
   fx="185.98378"
   fy="-547.31024"
   r="14.519777" /><radialGradient
   inkscape:collect="always"
   xlink:href="#linearGradient6533"
   id="radialGradient6672"
   gradientUnits="userSpaceOnUse"
   gradientTransform="matrix(1,0,0,0.99982673,-69.774178,259.32667)"
   cx="185.98378"
   cy="-547.31024"
   fx="185.98378"
   fy="-547.31024"
   r="14.519777" /><radialGradient
   inkscape:collect="always"
   xlink:href="#linearGradient6539"
   id="radialGradient6674"
   gradientUnits="userSpaceOnUse"
   gradientTransform="matrix(1,0,0,0.99982673,10.225987,235.56987)"
   cx="185.98378"
   cy="-547.31024"
   fx="185.98378"
   fy="-547.31024"
   r="14.519777" /><radialGradient
   inkscape:collect="always"
   xlink:href="#linearGradient6533"
   id="radialGradient6676"
   gradientUnits="userSpaceOnUse"
   gradientTransform="matrix(1,0,0,0.99982673,-83.98046,161.72667)"
   cx="185.98378"
   cy="-547.31024"
   fx="185.98378"
   fy="-547.31024"
   r="14.519777" /><radialGradient
   inkscape:collect="always"
   xlink:href="#linearGradient6539"
   id="radialGradient6678"
   gradientUnits="userSpaceOnUse"
   gradientTransform="matrix(1,0,0,0.99982673,-55.56772,161.72667)"
   cx="185.98378"
   cy="-547.31024"
   fx="185.98378"
   fy="-547.31024"
   r="14.519777" /><radialGradient
   inkscape:collect="always"
   xlink:href="#linearGradient6533"
   id="radialGradient6680"
   gradientUnits="userSpaceOnUse"
   gradientTransform="matrix(1,0,0,0.99982673,-83.98046,161.72667)"
   cx="185.98378"
   cy="-547.31024"
   fx="185.98378"
   fy="-547.31024"
   r="14.519777" /><radialGradient
   inkscape:collect="always"
   xlink:href="#linearGradient6539"
   id="radialGradient6682"
   gradientUnits="userSpaceOnUse"
   gradientTransform="matrix(1,0,0,0.99982673,-55.56772,161.72667)"
   cx="185.98378"
   cy="-547.31024"
   fx="185.98378"
   fy="-547.31024"
   r="14.519777" /><radialGradient
   inkscape:collect="always"
   xlink:href="#linearGradient6533"
   id="radialGradient6684"
   gradientUnits="userSpaceOnUse"
   gradientTransform="matrix(1,0,0,0.99982673,90.22583,235.71581)"
   cx="185.98378"
   cy="-547.31024"
   fx="185.98378"
   fy="-547.31024"
   r="14.519777" /><radialGradient
   inkscape:collect="always"
   xlink:href="#linearGradient6539"
   id="radialGradient6686"
   gradientUnits="userSpaceOnUse"
   gradientTransform="matrix(1,0,0,0.99982673,170.226,259.32667)"
   cx="185.98378"
   cy="-547.31024"
   fx="185.98378"
   fy="-547.31024"
   r="14.519777" /><radialGradient
   inkscape:collect="always"
   xlink:href="#linearGradient6533"
   id="radialGradient6692"
   gradientUnits="userSpaceOnUse"
   gradientTransform="matrix(1,0,0,0.99982673,104.44026,163.32667)"
   cx="185.98378"
   cy="-547.31024"
   fx="185.98378"
   fy="-547.31024"
   r="14.519777" /><radialGradient
   inkscape:collect="always"
   xlink:href="#linearGradient6539"
   id="radialGradient6698"
   gradientUnits="userSpaceOnUse"
   gradientTransform="matrix(1,0,0,0.99982673,156.0214,163.32667)"
   cx="185.98378"
   cy="-547.31024"
   fx="185.98378"
   fy="-547.31024"
   r="14.519777" />













</defs><sodipodi:namedview
     pagecolor="#ffffff"
     bordercolor="#666666"
     borderopacity="1"
     objecttolerance="10"
     gridtolerance="10"
     guidetolerance="10"
     inkscape:pageopacity="0"
     inkscape:pageshadow="2"
     inkscape:window-width="1309"
     inkscape:window-height="396"
     id="namedview4"
     showgrid="false"
     inkscape:zoom="1.0601945"
     inkscape:cx="-83.946861"
     inkscape:cy="194.30397"
     inkscape:window-x="0"
     inkscape:window-y="0"
     inkscape:window-maximized="0"
     inkscape:current-layer="g10"
     fit-margin-top="0"
     fit-margin-left="0"
     fit-margin-right="0"
     fit-margin-bottom="0"
     inkscape:showpageshadow="2"
     inkscape:pagecheckerboard="0"
     inkscape:deskcolor="#d1d1d1"><inkscape:grid
       type="xygrid"
       id="grid6104"
       originx="-111.0913"
       originy="-318.90282" /></sodipodi:namedview><g
     id="g10"
     inkscape:groupmode="layer"
     inkscape:label="tarasov-twibop"
     transform="matrix(1.25,0,0,-1.25,-111.0913,553.97149)"><g
       transform="translate(-0.13664739)"
       id="g4321"><path
         style="color:#000000;clip-rule:nonzero;display:inline;overflow:visible;visibility:visible;opacity:1;isolation:auto;mix-blend-mode:normal;color-interpolation:sRGB;color-interpolation-filters:linearRGB;solid-color:#000000;solid-opacity:1;fill:#4682b4;fill-opacity:1;fill-rule:evenodd;stroke:none;stroke-width:0.8;stroke-linecap:butt;stroke-linejoin:miter;stroke-miterlimit:4;stroke-dasharray:none;stroke-dashoffset:0;stroke-opacity:1;color-rendering:auto;image-rendering:auto;shape-rendering:auto;text-rendering:auto;enable-background:accumulate"
         d="m 89.009689,443.17719 v -69.93437 c 0,-4.25404 0.225656,-7.67813 4.479687,-7.67813 h 51.842184 c 4.25404,0 4.38083,3.42521 4.47813,7.67813 v 69.93437 z"
         id="rect6593"
         inkscape:connector-curvature="0"
         sodipodi:nodetypes="csssscc" /><g
         id="g6595"
         transform="translate(0,-1.6)"><ellipse
           ry="13.717261"
           rx="13.719777"
           transform="scale(1,-1)"
           cy="-382.28864"
           cx="105.20341"
           id="ellipse4504"
           style="color:#000000;clip-rule:nonzero;display:inline;overflow:visible;visibility:visible;opacity:1;isolation:auto;mix-blend-mode:normal;color-interpolation:sRGB;color-interpolation-filters:linearRGB;solid-color:#000000;solid-opacity:1;fill:url(#radialGradient4512);fill-opacity:1;fill-rule:evenodd;stroke:none;stroke-width:0.8;stroke-linecap:butt;stroke-linejoin:miter;stroke-miterlimit:4;stroke-dasharray:none;stroke-dashoffset:0;stroke-opacity:1;color-rendering:auto;image-rendering:auto;shape-rendering:auto;text-rendering:auto;enable-background:accumulate" /><ellipse
           style="color:#000000;clip-rule:nonzero;display:inline;overflow:visible;visibility:visible;opacity:1;isolation:auto;mix-blend-mode:normal;color-interpolation:sRGB;color-interpolation-filters:linearRGB;solid-color:#000000;solid-opacity:1;fill:url(#radialGradient4510);fill-opacity:1;fill-rule:evenodd;stroke:none;stroke-width:0.8;stroke-linecap:butt;stroke-linejoin:miter;stroke-miterlimit:4;stroke-dasharray:none;stroke-dashoffset:0;stroke-opacity:1;color-rendering:auto;image-rendering:auto;shape-rendering:auto;text-rendering:auto;enable-background:accumulate"
           id="ellipse4502"
           cx="133.61597"
           cy="-382.28864"
           transform="scale(1,-1)"
           rx="13.719777"
           ry="13.717261" /></g><path
         sodipodi:nodetypes="csssscc"
         inkscape:connector-curvature="0"
         id="path6604"
         d="m 169.00969,443.17719 v -69.93437 c 0,-4.25404 0.22565,-7.67813 4.47969,-7.67813 h 51.84218 c 4.25404,0 4.38083,3.42521 4.47813,7.67813 v 69.93437 z"
         style="color:#000000;clip-rule:nonzero;display:inline;overflow:visible;visibility:visible;opacity:1;isolation:auto;mix-blend-mode:normal;color-interpolation:sRGB;color-interpolation-filters:linearRGB;solid-color:#000000;solid-opacity:1;fill:#4682b4;fill-opacity:1;fill-rule:evenodd;stroke:none;stroke-width:0.8;stroke-linecap:butt;stroke-linejoin:miter;stroke-miterlimit:4;stroke-dasharray:none;stroke-dashoffset:0;stroke-opacity:1;color-rendering:auto;image-rendering:auto;shape-rendering:auto;text-rendering:auto;enable-background:accumulate" /><g
         transform="translate(80,-1.6)"
         id="g6606"><ellipse
           style="color:#000000;clip-rule:nonzero;display:inline;overflow:visible;visibility:visible;opacity:1;isolation:auto;mix-blend-mode:normal;color-interpolation:sRGB;color-interpolation-filters:linearRGB;solid-color:#000000;solid-opacity:1;fill:url(#radialGradient6612);fill-opacity:1;fill-rule:evenodd;stroke:none;stroke-width:0.8;stroke-linecap:butt;stroke-linejoin:miter;stroke-miterlimit:4;stroke-dasharray:none;stroke-dashoffset:0;stroke-opacity:1;color-rendering:auto;image-rendering:auto;shape-rendering:auto;text-rendering:auto;enable-background:accumulate"
           id="ellipse6608"
           cx="105.20341"
           cy="-382.28864"
           transform="scale(1,-1)"
           rx="13.719777"
           ry="13.717261" /><ellipse
           ry="13.717261"
           rx="13.719777"
           transform="scale(1,-1)"
           cy="-382.28864"
           cx="133.61597"
           id="ellipse6610"
           style="color:#000000;clip-rule:nonzero;display:inline;overflow:visible;visibility:visible;opacity:1;isolation:auto;mix-blend-mode:normal;color-interpolation:sRGB;color-interpolation-filters:linearRGB;solid-color:#000000;solid-opacity:1;fill:url(#radialGradient6614);fill-opacity:1;fill-rule:evenodd;stroke:none;stroke-width:0.8;stroke-linecap:butt;stroke-linejoin:miter;stroke-miterlimit:4;stroke-dasharray:none;stroke-dashoffset:0;stroke-opacity:1;color-rendering:auto;image-rendering:auto;shape-rendering:auto;text-rendering:auto;enable-background:accumulate" /></g></g><g
       id="g4360"><path
         sodipodi:nodetypes="csssscc"
         inkscape:connector-curvature="0"
         id="path6656"
         d="m 249.00969,347.17719 v -69.93437 c 0,-4.25404 0.22565,-7.67813 4.47969,-7.67813 h 51.84218 c 4.25404,0 4.38083,3.42521 4.47813,7.67813 v 69.93437 z"
         style="color:#000000;clip-rule:nonzero;display:inline;overflow:visible;visibility:visible;opacity:1;isolation:auto;mix-blend-mode:normal;color-interpolation:sRGB;color-interpolation-filters:linearRGB;solid-color:#000000;solid-opacity:1;fill:#4682b4;fill-opacity:1;fill-rule:evenodd;stroke:none;stroke-width:0.8;stroke-linecap:butt;stroke-linejoin:miter;stroke-miterlimit:4;stroke-dasharray:none;stroke-dashoffset:0;stroke-opacity:1;color-rendering:auto;image-rendering:auto;shape-rendering:auto;text-rendering:auto;enable-background:accumulate" /><g
         transform="translate(160,-97.6)"
         id="g6658"><ellipse
           style="color:#000000;clip-rule:nonzero;display:inline;overflow:visible;visibility:visible;opacity:1;isolation:auto;mix-blend-mode:normal;color-interpolation:sRGB;color-interpolation-filters:linearRGB;solid-color:#000000;solid-opacity:1;fill:url(#radialGradient6680);fill-opacity:1;fill-rule:evenodd;stroke:none;stroke-width:0.8;stroke-linecap:butt;stroke-linejoin:miter;stroke-miterlimit:4;stroke-dasharray:none;stroke-dashoffset:0;stroke-opacity:1;color-rendering:auto;image-rendering:auto;shape-rendering:auto;text-rendering:auto;enable-background:accumulate"
           id="ellipse6660"
           cx="105.20341"
           cy="-382.28864"
           transform="scale(1,-1)"
           rx="13.719777"
           ry="13.717261" /><ellipse
           ry="13.717261"
           rx="13.719777"
           transform="scale(1,-1)"
           cy="-382.28864"
           cx="133.61597"
           id="ellipse6662"
           style="color:#000000;clip-rule:nonzero;display:inline;overflow:visible;visibility:visible;opacity:1;isolation:auto;mix-blend-mode:normal;color-interpolation:sRGB;color-interpolation-filters:linearRGB;solid-color:#000000;solid-opacity:1;fill:url(#radialGradient6682);fill-opacity:1;fill-rule:evenodd;stroke:none;stroke-width:0.8;stroke-linecap:butt;stroke-linejoin:miter;stroke-miterlimit:4;stroke-dasharray:none;stroke-dashoffset:0;stroke-opacity:1;color-rendering:auto;image-rendering:auto;shape-rendering:auto;text-rendering:auto;enable-background:accumulate" /></g><path
         style="color:#000000;clip-rule:nonzero;display:inline;overflow:visible;visibility:visible;opacity:1;isolation:auto;mix-blend-mode:normal;color-interpolation:sRGB;color-interpolation-filters:linearRGB;solid-color:#000000;solid-opacity:1;fill:#4682b4;fill-opacity:1;fill-rule:evenodd;stroke:none;stroke-width:0.8;stroke-linecap:butt;stroke-linejoin:miter;stroke-miterlimit:4;stroke-dasharray:none;stroke-dashoffset:0;stroke-opacity:1;color-rendering:auto;image-rendering:auto;shape-rendering:auto;text-rendering:auto;enable-background:accumulate"
         d="m 329.00969,347.17719 v -69.93437 c 0,-4.25404 0.22565,-7.67813 4.47969,-7.67813 h 51.84218 c 4.25404,0 4.38083,3.42521 4.47813,7.67813 v 69.93437 z"
         id="path6664"
         inkscape:connector-curvature="0"
         sodipodi:nodetypes="csssscc" /><ellipse
         style="color:#000000;clip-rule:nonzero;display:inline;overflow:visible;visibility:visible;opacity:1;isolation:auto;mix-blend-mode:normal;color-interpolation:sRGB;color-interpolation-filters:linearRGB;solid-color:#000000;solid-opacity:1;fill:url(#radialGradient6684);fill-opacity:1;fill-rule:evenodd;stroke:none;stroke-width:0.8;stroke-linecap:butt;stroke-linejoin:miter;stroke-miterlimit:4;stroke-dasharray:none;stroke-dashoffset:0;stroke-opacity:1;color-rendering:auto;image-rendering:auto;shape-rendering:auto;text-rendering:auto;enable-background:accumulate"
         id="ellipse6668"
         cx="279.4097"
         cy="-308.29953"
         transform="scale(1,-1)"
         rx="13.719777"
         ry="13.717261" /><ellipse
         ry="13.717261"
         rx="13.719777"
         transform="scale(1,-1)"
         cy="-284.68863"
         cx="359.4097"
         id="ellipse6670"
         style="color:#000000;clip-rule:nonzero;display:inline;overflow:visible;visibility:visible;opacity:1;isolation:auto;mix-blend-mode:normal;color-interpolation:sRGB;color-interpolation-filters:linearRGB;solid-color:#000000;solid-opacity:1;fill:url(#radialGradient6686);fill-opacity:1;fill-rule:evenodd;stroke:none;stroke-width:0.8;stroke-linecap:butt;stroke-linejoin:miter;stroke-miterlimit:4;stroke-dasharray:none;stroke-dashoffset:0;stroke-opacity:1;color-rendering:auto;image-rendering:auto;shape-rendering:auto;text-rendering:auto;enable-background:accumulate" /></g><g
       transform="translate(0.0991767)"
       id="g4352"><path
         style="color:#000000;clip-rule:nonzero;display:inline;overflow:visible;visibility:visible;opacity:1;isolation:auto;mix-blend-mode:normal;color-interpolation:sRGB;color-interpolation-filters:linearRGB;solid-color:#000000;solid-opacity:1;fill:#4682b4;fill-opacity:1;fill-rule:evenodd;stroke:none;stroke-width:0.8;stroke-linecap:butt;stroke-linejoin:miter;stroke-miterlimit:4;stroke-dasharray:none;stroke-dashoffset:0;stroke-opacity:1;color-rendering:auto;image-rendering:auto;shape-rendering:auto;text-rendering:auto;enable-background:accumulate"
         d="m 249.00969,443.17719 v -69.93437 c 0,-4.25404 0.22565,-7.67813 4.47969,-7.67813 h 51.84218 c 4.25404,0 4.38083,3.42521 4.47813,7.67813 v 69.93437 z"
         id="path6616"
         inkscape:connector-curvature="0"
         sodipodi:nodetypes="csssscc" /><ellipse
         style="color:#000000;clip-rule:nonzero;display:inline;overflow:visible;visibility:visible;opacity:1;isolation:auto;mix-blend-mode:normal;color-interpolation:sRGB;color-interpolation-filters:linearRGB;solid-color:#000000;solid-opacity:1;fill:url(#radialGradient6624);fill-opacity:1;fill-rule:evenodd;stroke:none;stroke-width:0.8;stroke-linecap:butt;stroke-linejoin:miter;stroke-miterlimit:4;stroke-dasharray:none;stroke-dashoffset:0;stroke-opacity:1;color-rendering:auto;image-rendering:auto;shape-rendering:auto;text-rendering:auto;enable-background:accumulate"
         id="ellipse6620"
         cx="265.2034"
         cy="-380.68863"
         transform="scale(1,-1)"
         rx="13.719777"
         ry="13.717261" /><path
         sodipodi:nodetypes="csssscc"
         inkscape:connector-curvature="0"
         id="path6628"
         d="m 329.00969,443.17719 v -69.93437 c 0,-4.25404 0.22565,-7.67813 4.47969,-7.67813 h 51.84218 c 4.25404,0 4.38083,3.42521 4.47813,7.67813 v 69.93437 z"
         style="color:#000000;clip-rule:nonzero;display:inline;overflow:visible;visibility:visible;opacity:1;isolation:auto;mix-blend-mode:normal;color-interpolation:sRGB;color-interpolation-filters:linearRGB;solid-color:#000000;solid-opacity:1;fill:#4682b4;fill-opacity:1;fill-rule:evenodd;stroke:none;stroke-width:0.8;stroke-linecap:butt;stroke-linejoin:miter;stroke-miterlimit:4;stroke-dasharray:none;stroke-dashoffset:0;stroke-opacity:1;color-rendering:auto;image-rendering:auto;shape-rendering:auto;text-rendering:auto;enable-background:accumulate" /><ellipse
         style="color:#000000;clip-rule:nonzero;display:inline;overflow:visible;visibility:visible;opacity:1;isolation:auto;mix-blend-mode:normal;color-interpolation:sRGB;color-interpolation-filters:linearRGB;solid-color:#000000;solid-opacity:1;fill:url(#radialGradient6638);fill-opacity:1;fill-rule:evenodd;stroke:none;stroke-width:0.8;stroke-linecap:butt;stroke-linejoin:miter;stroke-miterlimit:4;stroke-dasharray:none;stroke-dashoffset:0;stroke-opacity:1;color-rendering:auto;image-rendering:auto;shape-rendering:auto;text-rendering:auto;enable-background:accumulate"
         id="ellipse6634"
         cx="373.61597"
         cy="-380.68863"
         transform="scale(1,-1)"
         rx="13.719777"
         ry="13.717261" /><ellipse
         ry="13.717261"
         rx="13.719777"
         transform="scale(1,-1)"
         cy="-380.68863"
         cx="293.62411"
         id="ellipse6690"
         style="color:#000000;clip-rule:nonzero;display:inline;overflow:visible;visibility:visible;opacity:1;isolation:auto;mix-blend-mode:normal;color-interpolation:sRGB;color-interpolation-filters:linearRGB;solid-color:#000000;solid-opacity:1;fill:url(#radialGradient6692);fill-opacity:1;fill-rule:evenodd;stroke:none;stroke-width:0.8;stroke-linecap:butt;stroke-linejoin:miter;stroke-miterlimit:4;stroke-dasharray:none;stroke-dashoffset:0;stroke-opacity:1;color-rendering:auto;image-rendering:auto;shape-rendering:auto;text-rendering:auto;enable-background:accumulate" /><ellipse
         ry="13.717261"
         rx="13.719777"
         transform="scale(1,-1)"
         cy="-380.68863"
         cx="345.20514"
         id="ellipse6696"
         style="color:#000000;clip-rule:nonzero;display:inline;overflow:visible;visibility:visible;opacity:1;isolation:auto;mix-blend-mode:normal;color-interpolation:sRGB;color-interpolation-filters:linearRGB;solid-color:#000000;solid-opacity:1;fill:url(#radialGradient6698);fill-opacity:1;fill-rule:evenodd;stroke:none;stroke-width:0.8;stroke-linecap:butt;stroke-linejoin:miter;stroke-miterlimit:4;stroke-dasharray:none;stroke-dashoffset:0;stroke-opacity:1;color-rendering:auto;image-rendering:auto;shape-rendering:auto;text-rendering:auto;enable-background:accumulate" /></g><g
       id="g4343"><path
         sodipodi:nodetypes="csssscc"
         inkscape:connector-curvature="0"
         id="path6640"
         d="m 89.009689,347.17719 v -69.93437 c 0,-4.25404 0.225656,-7.67813 4.479687,-7.67813 h 51.842184 c 4.25404,0 4.38083,3.42521 4.47813,7.67813 v 69.93437 z"
         style="color:#000000;clip-rule:nonzero;display:inline;overflow:visible;visibility:visible;opacity:1;isolation:auto;mix-blend-mode:normal;color-interpolation:sRGB;color-interpolation-filters:linearRGB;solid-color:#000000;solid-opacity:1;fill:#4682b4;fill-opacity:1;fill-rule:evenodd;stroke:none;stroke-width:0.8;stroke-linecap:butt;stroke-linejoin:miter;stroke-miterlimit:4;stroke-dasharray:none;stroke-dashoffset:0;stroke-opacity:1;color-rendering:auto;image-rendering:auto;shape-rendering:auto;text-rendering:auto;enable-background:accumulate" /><ellipse
         ry="13.717261"
         rx="13.719777"
         transform="scale(1,-1)"
         cy="-284.68863"
         cx="119.40969"
         id="ellipse6644"
         style="color:#000000;clip-rule:nonzero;display:inline;overflow:visible;visibility:visible;opacity:1;isolation:auto;mix-blend-mode:normal;color-interpolation:sRGB;color-interpolation-filters:linearRGB;solid-color:#000000;solid-opacity:1;fill:url(#radialGradient6672);fill-opacity:1;fill-rule:evenodd;stroke:none;stroke-width:0.8;stroke-linecap:butt;stroke-linejoin:miter;stroke-miterlimit:4;stroke-dasharray:none;stroke-dashoffset:0;stroke-opacity:1;color-rendering:auto;image-rendering:auto;shape-rendering:auto;text-rendering:auto;enable-background:accumulate" /><path
         style="color:#000000;clip-rule:nonzero;display:inline;overflow:visible;visibility:visible;opacity:1;isolation:auto;mix-blend-mode:normal;color-interpolation:sRGB;color-interpolation-filters:linearRGB;solid-color:#000000;solid-opacity:1;fill:#4682b4;fill-opacity:1;fill-rule:evenodd;stroke:none;stroke-width:0.8;stroke-linecap:butt;stroke-linejoin:miter;stroke-miterlimit:4;stroke-dasharray:none;stroke-dashoffset:0;stroke-opacity:1;color-rendering:auto;image-rendering:auto;shape-rendering:auto;text-rendering:auto;enable-background:accumulate"
         d="m 169.00969,347.17719 v -69.93437 c 0,-4.25404 0.22565,-7.67813 4.47969,-7.67813 h 51.84218 c 4.25404,0 4.38083,3.42521 4.47813,7.67813 v 69.93437 z"
         id="path6648"
         inkscape:connector-curvature="0"
         sodipodi:nodetypes="csssscc" /><g
         id="g6650"
         transform="translate(80,-97.6)"><ellipse
           ry="13.717261"
           rx="13.719777"
           transform="scale(1,-1)"
           cy="-382.28864"
           cx="105.20341"
           id="ellipse6652"
           style="color:#000000;clip-rule:nonzero;display:inline;overflow:visible;visibility:visible;opacity:1;isolation:auto;mix-blend-mode:normal;color-interpolation:sRGB;color-interpolation-filters:linearRGB;solid-color:#000000;solid-opacity:1;fill:url(#radialGradient6676);fill-opacity:1;fill-rule:evenodd;stroke:none;stroke-width:0.8;stroke-linecap:butt;stroke-linejoin:miter;stroke-miterlimit:4;stroke-dasharray:none;stroke-dashoffset:0;stroke-opacity:1;color-rendering:auto;image-rendering:auto;shape-rendering:auto;text-rendering:auto;enable-background:accumulate" /><ellipse
           style="color:#000000;clip-rule:nonzero;display:inline;overflow:visible;visibility:visible;opacity:1;isolation:auto;mix-blend-mode:normal;color-interpolation:sRGB;color-interpolation-filters:linearRGB;solid-color:#000000;solid-opacity:1;fill:url(#radialGradient6678);fill-opacity:1;fill-rule:evenodd;stroke:none;stroke-width:0.8;stroke-linecap:butt;stroke-linejoin:miter;stroke-miterlimit:4;stroke-dasharray:none;stroke-dashoffset:0;stroke-opacity:1;color-rendering:auto;image-rendering:auto;shape-rendering:auto;text-rendering:auto;enable-background:accumulate"
           id="ellipse6654"
           cx="133.61597"
           cy="-382.28864"
           transform="scale(1,-1)"
           rx="13.719777"
           ry="13.717261" /></g><ellipse
         style="color:#000000;clip-rule:nonzero;display:inline;overflow:visible;visibility:visible;opacity:1;isolation:auto;mix-blend-mode:normal;color-interpolation:sRGB;color-interpolation-filters:linearRGB;solid-color:#000000;solid-opacity:1;fill:url(#radialGradient6674);fill-opacity:1;fill-rule:evenodd;stroke:none;stroke-width:0.8;stroke-linecap:butt;stroke-linejoin:miter;stroke-miterlimit:4;stroke-dasharray:none;stroke-dashoffset:0;stroke-opacity:1;color-rendering:auto;image-rendering:auto;shape-rendering:auto;text-rendering:auto;enable-background:accumulate"
         id="ellipse6646"
         cx="199.40968"
         cy="-308.44543"
         transform="scale(1,-1)"
         rx="13.719777"
         ry="13.717261" /></g><text
       transform="scale(1,-1)"
       id="text4253"
       y="-352.80124"
       x="153.0378"
       style="font-style:normal;font-variant:normal;font-weight:normal;font-stretch:normal;line-height:0%;font-family:'EB Garamond';-inkscape-font-specification:'EB Garamond';text-align:start;letter-spacing:0px;word-spacing:0px;writing-mode:lr-tb;text-anchor:start;fill:#000000;fill-opacity:1;stroke:none;stroke-width:1px;stroke-linecap:butt;stroke-linejoin:miter;stroke-opacity:1;font-size:13.86666666px;font-variant-ligatures:normal;font-variant-caps:normal;font-variant-numeric:normal;font-variant-east-asian:normal"
       xml:space="preserve"><tspan
         y="-352.80124"
         x="153.0378"
         id="tspan4255"
         sodipodi:role="line"
         style="font-size:13.86666666px;line-height:1.25;-inkscape-font-specification:'EB Garamond';font-family:'EB Garamond';font-weight:normal;font-style:normal;font-stretch:normal;font-variant:normal;font-variant-ligatures:normal;font-variant-caps:normal;font-variant-numeric:normal;font-variant-east-asian:normal">(<tspan
   style="font-style:normal;-inkscape-font-specification:'EB Garamond';font-family:'EB Garamond';font-weight:normal;font-stretch:normal;font-variant:normal"
   id="tspan26891">a</tspan>)</tspan></text><text
       xml:space="preserve"
       style="font-style:normal;font-variant:normal;font-weight:normal;font-stretch:normal;line-height:0%;font-family:'EB Garamond';-inkscape-font-specification:'EB Garamond';text-align:start;letter-spacing:0px;word-spacing:0px;writing-mode:lr-tb;text-anchor:start;fill:#000000;fill-opacity:1;stroke:none;stroke-width:1px;stroke-linecap:butt;stroke-linejoin:miter;stroke-opacity:1;font-size:13.86666666px;font-variant-ligatures:normal;font-variant-caps:normal;font-variant-numeric:normal;font-variant-east-asian:normal"
       x="313.03778"
       y="-352.80124"
       id="text4331"
       transform="scale(1,-1)"><tspan
         sodipodi:role="line"
         id="tspan4333"
         x="313.03778"
         y="-352.80124"
         style="font-size:13.86666666px;line-height:1.25;-inkscape-font-specification:'EB Garamond';font-family:'EB Garamond';font-weight:normal;font-style:normal;font-stretch:normal;font-variant:normal;font-variant-ligatures:normal;font-variant-caps:normal;font-variant-numeric:normal;font-variant-east-asian:normal">(<tspan
   style="font-style:normal;-inkscape-font-specification:'EB Garamond';font-family:'EB Garamond';font-weight:normal;font-stretch:normal;font-variant:normal"
   id="tspan26895">b</tspan>)</tspan></text><text
       xml:space="preserve"
       style="font-style:normal;font-variant:normal;font-weight:normal;font-stretch:normal;line-height:0%;font-family:'EB Garamond';-inkscape-font-specification:'EB Garamond';text-align:start;letter-spacing:0px;word-spacing:0px;writing-mode:lr-tb;text-anchor:start;fill:#000000;fill-opacity:1;stroke:none;stroke-width:1px;stroke-linecap:butt;stroke-linejoin:miter;stroke-opacity:1;font-size:13.86666666px;font-variant-ligatures:normal;font-variant-caps:normal;font-variant-numeric:normal;font-variant-east-asian:normal"
       x="153.42151"
       y="-256.80124"
       id="text4335"
       transform="scale(1,-1)"><tspan
         sodipodi:role="line"
         id="tspan4337"
         x="153.42151"
         y="-256.80124"
         style="font-size:13.86666666px;line-height:1.25;-inkscape-font-specification:'EB Garamond';font-family:'EB Garamond';font-weight:normal;font-style:normal;font-stretch:normal;font-variant:normal;font-variant-ligatures:normal;font-variant-caps:normal;font-variant-numeric:normal;font-variant-east-asian:normal">(<tspan
   style="font-style:normal;-inkscape-font-specification:'EB Garamond';font-family:'EB Garamond';font-weight:normal;font-stretch:normal;font-variant:normal"
   id="tspan26893">c</tspan>)</tspan></text><text
       transform="scale(1,-1)"
       id="text4339"
       y="-256.80124"
       x="312.77014"
       style="font-style:normal;font-variant:normal;font-weight:normal;font-stretch:normal;line-height:0%;font-family:'EB Garamond';-inkscape-font-specification:'EB Garamond';text-align:start;letter-spacing:0px;word-spacing:0px;writing-mode:lr-tb;text-anchor:start;fill:#000000;fill-opacity:1;stroke:none;stroke-width:1px;stroke-linecap:butt;stroke-linejoin:miter;stroke-opacity:1;font-size:13.86666666px;font-variant-ligatures:normal;font-variant-caps:normal;font-variant-numeric:normal;font-variant-east-asian:normal"
       xml:space="preserve"><tspan
         y="-256.80124"
         x="312.77014"
         id="tspan4341"
         sodipodi:role="line"
         style="font-size:13.86666666px;line-height:1.25;-inkscape-font-specification:'EB Garamond';font-family:'EB Garamond';font-weight:normal;font-style:normal;font-stretch:normal;font-variant:normal;font-variant-ligatures:normal;font-variant-caps:normal;font-variant-numeric:normal;font-variant-east-asian:normal">(<tspan
   style="font-style:normal;-inkscape-font-specification:'EB Garamond';font-family:'EB Garamond';font-weight:normal;font-stretch:normal;font-variant:normal"
   id="tspan26897">d</tspan>)</tspan></text></g></svg>
