<?xml version="1.0" encoding="UTF-8" standalone="no"?>
<!-- Created with Inkscape (http://www.inkscape.org/) -->

<svg
   width="55.025925mm"
   height="60.868668mm"
   viewBox="0 0 55.025925 60.868668"
   version="1.1"
   id="svg55692"
   xml:space="preserve"
   inkscape:version="1.2.2 (b0a8486, 2022-12-01)"
   sodipodi:docname="carnot.svg"
   xmlns:inkscape="http://www.inkscape.org/namespaces/inkscape"
   xmlns:sodipodi="http://sodipodi.sourceforge.net/DTD/sodipodi-0.dtd"
   xmlns="http://www.w3.org/2000/svg"
   xmlns:svg="http://www.w3.org/2000/svg"><sodipodi:namedview
     id="namedview55694"
     pagecolor="#ffffff"
     bordercolor="#666666"
     borderopacity="1.0"
     inkscape:showpageshadow="2"
     inkscape:pageopacity="0.0"
     inkscape:pagecheckerboard="0"
     inkscape:deskcolor="#d1d1d1"
     inkscape:document-units="mm"
     showgrid="false"
     inkscape:zoom="1.6173471"
     inkscape:cx="107.27444"
     inkscape:cy="122.4227"
     inkscape:window-width="1427"
     inkscape:window-height="872"
     inkscape:window-x="13"
     inkscape:window-y="0"
     inkscape:window-maximized="0"
     inkscape:current-layer="layer1" /><defs
     id="defs55689"><marker
       style="overflow:visible"
       id="marker60457"
       refX="0"
       refY="0"
       orient="auto-start-reverse"
       inkscape:stockid="Arrow1L"
       markerWidth="8.75"
       markerHeight="5"
       viewBox="0 0 8.75 5"
       inkscape:isstock="true"
       inkscape:collect="always"
       preserveAspectRatio="xMidYMid"><path
         style="fill:context-stroke;fill-rule:evenodd;stroke:none"
         d="M 0,0 5,-5 -12.5,0 5,5 Z"
         id="path60455"
         transform="scale(-0.5)" /></marker><marker
       style="overflow:visible"
       id="marker60419"
       refX="0"
       refY="0"
       orient="auto-start-reverse"
       inkscape:stockid="Arrow1L"
       markerWidth="8.75"
       markerHeight="5"
       viewBox="0 0 8.75 5"
       inkscape:isstock="true"
       inkscape:collect="always"
       preserveAspectRatio="xMidYMid"><path
         style="fill:context-stroke;fill-rule:evenodd;stroke:none"
         d="M 0,0 5,-5 -12.5,0 5,5 Z"
         id="path60417"
         transform="scale(-0.5)" /></marker><marker
       style="overflow:visible"
       id="Arrow1L"
       refX="0"
       refY="0"
       orient="auto-start-reverse"
       inkscape:stockid="Arrow1L"
       markerWidth="8.75"
       markerHeight="5"
       viewBox="0 0 8.75 5"
       inkscape:isstock="true"
       inkscape:collect="always"
       preserveAspectRatio="xMidYMid"><path
         style="fill:context-stroke;fill-rule:evenodd;stroke:none"
         d="M 0,0 5,-5 -12.5,0 5,5 Z"
         id="arrow1L"
         transform="scale(-0.5)" /></marker></defs><g
     inkscape:label="Layer 1"
     inkscape:groupmode="layer"
     id="layer1"
     transform="translate(-58.960955,-91.443624)"><path
       style="fill:#fff6d5;stroke:none;stroke-width:0.264583px;stroke-linecap:butt;stroke-linejoin:miter;stroke-opacity:1"
       d="m 69.758992,103.30029 c 4.752206,7.94328 9.996745,13.5013 15.985329,20.00813 3.573001,5.91423 8.268644,10.82875 12.915302,15.87947 l 5.716607,5.29315 c -10.076726,-2.54968 -16.294124,-6.65525 -24.877832,-12.06839 -5.830952,-9.95903 -9.538534,-18.9733 -9.739406,-29.11236 z"
       id="path3968"
       sodipodi:nodetypes="cccccc" /><path
       style="fill:none;stroke:#333333;stroke-width:0.5;stroke-linecap:butt;stroke-linejoin:miter;stroke-dasharray:none;stroke-opacity:1;marker-end:url(#Arrow1L)"
       d="M 62.312599,148.0026 62.71987,94.568533"
       id="path56434" /><path
       style="fill:none;stroke:#333333;stroke-width:0.5;stroke-linecap:butt;stroke-linejoin:miter;stroke-dasharray:none;stroke-opacity:1;marker-end:url(#Arrow1L)"
       d="m 62.190419,148.09777 48.671571,0.40727"
       id="path56454"
       sodipodi:nodetypes="cc" /><path
       id="path57954"
       style="fill:none;stroke:#d40000;stroke-width:0.65;stroke-linecap:round;stroke-linejoin:round;stroke-dasharray:1.95,1.95;stroke-dashoffset:0;stroke-opacity:1"
       d="m 65.081816,113.9548 c 0.842603,4.19356 2.915768,6.95628 5.539196,10.50737 2.627075,3.25842 5.59771,5.42931 8.959913,7.92218"
       sodipodi:nodetypes="ccc" /><path
       id="path57958"
       style="fill:none;stroke:#d40000;stroke-width:0.65;stroke-linecap:round;stroke-linejoin:round;stroke-dasharray:1.95,1.95;stroke-dashoffset:0;stroke-opacity:1"
       d="m 85.589325,123.18238 c 5.462584,4.64515 12.618053,9.09337 19.410465,12.03779"
       sodipodi:nodetypes="cc" /><path
       style="fill:none;stroke:#00ccff;stroke-width:0.5;stroke-linecap:round;stroke-linejoin:round;stroke-dasharray:none;stroke-opacity:1"
       d="m 79.580925,132.38435 c 0,0 -4.179087,-7.14255 -5.620351,-10.69151 -1.441264,-3.54896 -2.47344,-6.52609 -3.17672,-9.61162 -0.70328,-3.08553 -1.140365,-8.79134 -1.140365,-8.79134"
       id="path59463"
       sodipodi:nodetypes="czzc" /><path
       style="fill:none;stroke:#00ccff;stroke-width:0.5;stroke-linecap:round;stroke-linejoin:round;stroke-dasharray:none;stroke-opacity:1"
       d="m 85.589325,123.18238 c 5.84124,9.56877 10.657635,13.94737 18.785675,21.09995"
       id="path59465"
       sodipodi:nodetypes="cc" /><text
       xml:space="preserve"
       style="font-size:3.175px;line-height:0.65;font-family:'EB Garamond';-inkscape-font-specification:'EB Garamond, Normal';text-align:end;letter-spacing:0.396875px;word-spacing:0px;text-anchor:end;stroke-width:0.264583"
       x="108.54951"
       y="152.25797"
       id="text59469"><tspan
         sodipodi:role="line"
         id="tspan59467"
         style="font-style:italic;stroke-width:0.264583;font-size:3.175px"
         x="108.94638"
         y="152.25797">V</tspan></text><text
       xml:space="preserve"
       style="font-size:3.175px;line-height:0.65;font-family:'EB Garamond';-inkscape-font-specification:'EB Garamond, Normal';text-align:end;letter-spacing:0.396875px;word-spacing:0px;text-anchor:end;stroke-width:0.264583"
       x="60.924519"
       y="152.25797"
       id="text59473"><tspan
         sodipodi:role="line"
         id="tspan59471"
         style="font-style:normal;stroke-width:0.264583;font-size:3.175px"
         x="61.321392"
         y="152.25797">0</tspan></text><text
       xml:space="preserve"
       style="font-size:3.175px;line-height:0.65;font-family:'EB Garamond';-inkscape-font-specification:'EB Garamond, Normal';text-align:end;letter-spacing:0.396875px;word-spacing:0px;text-anchor:end;stroke-width:0.264583"
       x="61.141827"
       y="99.312614"
       id="text59477"><tspan
         sodipodi:role="line"
         id="tspan59475"
         style="font-style:italic;stroke-width:0.264583;font-size:3.175px"
         x="61.5387"
         y="99.312614">p</tspan></text><text
       xml:space="preserve"
       style="font-size:3.175px;line-height:0.65;font-family:'EB Garamond';-inkscape-font-specification:'EB Garamond, Normal';text-align:end;letter-spacing:0px;word-spacing:0px;text-anchor:end;stroke-width:0.264583"
       x="71.236435"
       y="100.94096"
       id="text59481"><tspan
         sodipodi:role="line"
         id="tspan59479"
         style="font-style:italic;stroke-width:0.264583;font-size:3.175px"
         x="71.236435"
         y="100.94096">1</tspan></text><text
       xml:space="preserve"
       style="font-size:3.175px;line-height:0.65;font-family:'EB Garamond';-inkscape-font-specification:'EB Garamond, Normal';text-align:end;letter-spacing:0px;word-spacing:0px;text-anchor:end;stroke-width:0.264583"
       x="87.321747"
       y="119.25494"
       id="text59485"><tspan
         sodipodi:role="line"
         id="tspan59483"
         style="font-style:italic;stroke-width:0.264583;font-size:3.175px"
         x="87.321747"
         y="119.25494">2</tspan></text><text
       xml:space="preserve"
       style="font-size:3.175px;line-height:0.65;font-family:'EB Garamond';-inkscape-font-specification:'EB Garamond, Normal';text-align:end;letter-spacing:0px;word-spacing:0px;text-anchor:end;stroke-width:0.264583"
       x="107.16853"
       y="141.57344"
       id="text59489"><tspan
         sodipodi:role="line"
         id="tspan59487"
         style="font-style:italic;stroke-width:0.264583;font-size:3.175px"
         x="107.16853"
         y="141.57344">3</tspan></text><circle
       style="opacity:1;fill:#ff6600;fill-opacity:1;stroke:#333333;stroke-width:0.25;stroke-linecap:round;stroke-linejoin:round;stroke-miterlimit:4;stroke-dasharray:none;stroke-dashoffset:0;stroke-opacity:1;paint-order:normal;stop-color:#000000;stop-opacity:1"
       id="circle60293"
       cx="104.375"
       cy="144.28233"
       r="0.875" /><path
       id="path60299"
       style="fill:none;stroke:#d40000;stroke-width:0.65;stroke-linecap:round;stroke-linejoin:round;stroke-dasharray:none;stroke-opacity:1"
       d="m 79.580925,132.38435 c 4.419258,3.38553 8.859144,6.12771 13.276973,8.12439 3.924129,1.76968 11.517102,3.77359 11.517102,3.77359"
       sodipodi:nodetypes="ccc" /><path
       id="path60387"
       style="fill:none;stroke:#d40000;stroke-width:0.65;stroke-linecap:round;stroke-linejoin:round;stroke-dasharray:none;stroke-opacity:1"
       d="m 69.643489,103.28988 c 2.431504,4.01629 3.585078,6.07444 5.946212,9.04125 2.893776,3.60778 6.322309,7.6151 9.999624,10.85125"
       sodipodi:nodetypes="ccc" /><circle
       style="opacity:1;fill:#ff6600;fill-opacity:1;stroke:#333333;stroke-width:0.25;stroke-linecap:round;stroke-linejoin:round;stroke-miterlimit:4;stroke-dasharray:none;stroke-dashoffset:0;stroke-opacity:1;paint-order:normal;stop-color:#000000;stop-opacity:1"
       id="circle60297"
       cx="85.589325"
       cy="123.18238"
       r="0.875" /><circle
       style="opacity:1;fill:#ff6600;fill-opacity:1;stroke:#333333;stroke-width:0.25;stroke-linecap:round;stroke-linejoin:round;stroke-miterlimit:4;stroke-dasharray:none;stroke-dashoffset:0;stroke-opacity:1;paint-order:normal;stop-color:#000000;stop-opacity:1"
       id="circle60295"
       cx="104.375"
       cy="144.28233"
       r="0.875" /><circle
       style="opacity:1;fill:#ff6600;fill-opacity:1;stroke:#333333;stroke-width:0.25;stroke-linecap:round;stroke-linejoin:round;stroke-miterlimit:4;stroke-dasharray:none;stroke-dashoffset:0;stroke-opacity:1;paint-order:normal;stop-color:#000000;stop-opacity:1"
       id="circle60291"
       cx="79.580925"
       cy="132.38435"
       r="0.875" /><circle
       style="opacity:1;fill:#ff6600;fill-opacity:1;stroke:#333333;stroke-width:0.25;stroke-linecap:round;stroke-linejoin:round;stroke-miterlimit:4;stroke-dasharray:none;stroke-dashoffset:0;stroke-opacity:1;paint-order:normal;stop-color:#000000;stop-opacity:1"
       id="path60281"
       cx="69.643486"
       cy="103.28988"
       r="0.875" /><text
       xml:space="preserve"
       style="font-size:3.175px;line-height:0.65;font-family:'EB Garamond';-inkscape-font-specification:'EB Garamond, Normal';text-align:end;letter-spacing:0px;word-spacing:0px;text-anchor:end;stroke-width:0.264583"
       x="79.122711"
       y="136.28177"
       id="text60413"><tspan
         sodipodi:role="line"
         id="tspan60411"
         style="font-style:italic;stroke-width:0.264583;font-size:3.175px"
         x="79.122711"
         y="136.28177">4</tspan></text><path
       id="path60415"
       style="fill:none;stroke:#d40000;stroke-width:0.54214;stroke-linecap:round;stroke-linejoin:round;stroke-dasharray:none;stroke-opacity:1;marker-end:url(#marker60419)"
       d="m 76.331699,113.37213 0.134333,0.15706"
       sodipodi:nodetypes="cc" /><path
       style="fill:none;stroke:#00ccff;stroke-width:0.4;stroke-linecap:round;stroke-linejoin:round;stroke-dasharray:none;stroke-opacity:1;marker-end:url(#marker60457)"
       d="m 90.951706,130.94623 0.298295,0.35338"
       id="path60453"
       sodipodi:nodetypes="cc" /><path
       style="fill:none;stroke:#00ccff;stroke-width:0.4;stroke-linecap:round;stroke-linejoin:round;stroke-dasharray:none;stroke-opacity:1;marker-end:url(#marker60457)"
       d="m 74.053425,121.93538 -0.1668,-0.43132"
       id="path60503"
       sodipodi:nodetypes="cc" /><path
       id="path60509"
       style="fill:none;stroke:#d40000;stroke-width:0.548397;stroke-linecap:round;stroke-linejoin:round;stroke-dasharray:none;stroke-opacity:1;marker-end:url(#marker60419)"
       d="M 91.857989,139.95926 91.674,139.86"
       sodipodi:nodetypes="cc" /><text
       xml:space="preserve"
       style="font-size:3.175px;line-height:1;font-family:'EB Garamond';-inkscape-font-specification:'EB Garamond, Normal';text-align:end;letter-spacing:0px;word-spacing:0px;text-anchor:end;stroke-width:0.264583"
       x="109.25136"
       y="124.32051"
       id="text60519"><tspan
         sodipodi:role="line"
         id="tspan60517"
         style="stroke-width:0.264583;font-size:3.175px"
         x="109.25136"
         y="124.32051">Isothermal</tspan><tspan
         sodipodi:role="line"
         style="stroke-width:0.264583;font-size:3.175px"
         x="109.25136"
         y="127.84829"
         id="tspan60521">Path <tspan
   style="font-style:italic;font-size:3.175px"
   id="tspan60535">T</tspan><tspan
   style="baseline-shift:sub;font-size:3.175px"
   id="tspan60523">1</tspan></tspan></text><text
       xml:space="preserve"
       style="font-size:3.175px;line-height:1;font-family:'EB Garamond';-inkscape-font-specification:'EB Garamond, Normal';text-align:end;letter-spacing:0px;word-spacing:0px;text-anchor:end;stroke-width:0.264583"
       x="77.60614"
       y="139.1385"
       id="text60531"><tspan
         sodipodi:role="line"
         id="tspan60525"
         style="stroke-width:0.264583;font-size:3.175px"
         x="77.60614"
         y="139.1385">Isothermal</tspan><tspan
         sodipodi:role="line"
         style="stroke-width:0.264583;font-size:3.175px"
         x="77.60614"
         y="142.66629"
         id="tspan60529">Path <tspan
   style="font-style:italic;font-size:3.175px"
   id="tspan60533">T</tspan><tspan
   style="baseline-shift:sub;font-size:3.175px"
   id="tspan60527">2</tspan></tspan></text></g></svg>
