<?xml version="1.0" encoding="UTF-8" standalone="no"?>
<!-- Created with Inkscape (http://www.inkscape.org/) -->

<svg
   width="80.677986mm"
   height="45.984993mm"
   viewBox="0 0 80.677986 45.984993"
   version="1.1"
   id="svg50172"
   xml:space="preserve"
   inkscape:version="1.2.2 (b0a8486, 2022-12-01)"
   sodipodi:docname="collisions.svg"
   xmlns:inkscape="http://www.inkscape.org/namespaces/inkscape"
   xmlns:sodipodi="http://sodipodi.sourceforge.net/DTD/sodipodi-0.dtd"
   xmlns="http://www.w3.org/2000/svg"
   xmlns:svg="http://www.w3.org/2000/svg"><sodipodi:namedview
     id="namedview50174"
     pagecolor="#ffffff"
     bordercolor="#666666"
     borderopacity="1.0"
     inkscape:showpageshadow="2"
     inkscape:pageopacity="0.0"
     inkscape:pagecheckerboard="0"
     inkscape:deskcolor="#d1d1d1"
     inkscape:document-units="mm"
     showgrid="false"
     inkscape:zoom="1.2639336"
     inkscape:cx="123.42421"
     inkscape:cy="86.238707"
     inkscape:window-width="1427"
     inkscape:window-height="878"
     inkscape:window-x="13"
     inkscape:window-y="0"
     inkscape:window-maximized="0"
     inkscape:current-layer="layer1" /><defs
     id="defs50169"><marker
       style="overflow:visible"
       id="marker54418"
       refX="0"
       refY="0"
       orient="auto-start-reverse"
       inkscape:stockid="Arrow1L"
       markerWidth="8.75"
       markerHeight="5"
       viewBox="0 0 8.75 5"
       inkscape:isstock="true"
       inkscape:collect="always"
       preserveAspectRatio="xMidYMid"><path
         style="fill:context-stroke;fill-rule:evenodd;stroke:none"
         d="M 0,0 5,-5 -12.5,0 5,5 Z"
         id="path54416"
         transform="scale(-0.5)" /></marker><marker
       style="overflow:visible"
       id="marker51921"
       refX="0"
       refY="0"
       orient="auto-start-reverse"
       inkscape:stockid="Arrow1L"
       markerWidth="8.75"
       markerHeight="5"
       viewBox="0 0 8.75 5"
       inkscape:isstock="true"
       inkscape:collect="always"
       preserveAspectRatio="xMidYMid"><path
         style="fill:context-stroke;fill-rule:evenodd;stroke:none"
         d="M 0,0 5,-5 -12.5,0 5,5 Z"
         id="path51919"
         transform="scale(-0.5)" /></marker><marker
       style="overflow:visible"
       id="Arrow1L"
       refX="0"
       refY="0"
       orient="auto-start-reverse"
       inkscape:stockid="Arrow1L"
       markerWidth="8.75"
       markerHeight="5"
       viewBox="0 0 8.75 5"
       inkscape:isstock="true"
       inkscape:collect="always"
       preserveAspectRatio="xMidYMid"><path
         style="fill:context-stroke;fill-rule:evenodd;stroke:none"
         d="M 0,0 5,-5 -12.5,0 5,5 Z"
         id="arrow1L"
         transform="scale(-0.5)" /></marker></defs><g
     inkscape:label="Layer 1"
     inkscape:groupmode="layer"
     id="layer1"
     transform="translate(-71.472352,-114.04444)"><path
       style="fill:#00ccff;stroke:none;stroke-width:0.264583px;stroke-linecap:butt;stroke-linejoin:miter;stroke-opacity:1"
       d="M 93.61544,136.83351 76.401825,119.60849 v 17.36408 z"
       id="path51979"
       sodipodi:nodetypes="cccc" /><path
       style="fill:#fff6d5;stroke:none;stroke-width:0.264583px;stroke-linecap:butt;stroke-linejoin:miter;stroke-opacity:1"
       d="m 94.319886,137.1302 -17.67677,17.36408 V 137.1302 Z"
       id="path51977"
       sodipodi:nodetypes="cccc" /><path
       style="fill:#00ccff;stroke:none;stroke-width:0.264583px;stroke-linecap:butt;stroke-linejoin:miter;stroke-opacity:1"
       d="m 76.229821,154.35417 17.213615,-17.22502 v 17.22326 z"
       id="path51981"
       sodipodi:nodetypes="cccc" /><path
       style="fill:#fff6d5;stroke:none;stroke-width:0.264583px;stroke-linecap:butt;stroke-linejoin:miter;stroke-opacity:1"
       d="M 76.401825,119.74755 93.61544,136.97257 V 119.60849 Z"
       id="path51973"
       sodipodi:nodetypes="cccc" /><path
       style="fill:none;stroke:#ff0000;stroke-width:0.5;stroke-linecap:round;stroke-linejoin:miter;stroke-dasharray:none;stroke-opacity:1;marker-end:url(#Arrow1L)"
       d="M 76.711232,154.24323 91.25866,139.36562"
       id="path51825"
       sodipodi:nodetypes="cc" /><rect
       style="opacity:1;fill:#999999;fill-opacity:1;stroke:none;stroke-width:0.499999;stroke-linecap:round;stroke-linejoin:round;stroke-miterlimit:4;stroke-dasharray:none;stroke-dashoffset:0;stroke-opacity:1;paint-order:normal;stop-color:#000000;stop-opacity:1"
       id="rect51041"
       width="4.9639473"
       height="45.870949"
       x="93.61544"
       y="114.04444" /><path
       style="fill:none;stroke:#000000;stroke-width:0.5;stroke-linecap:round;stroke-linejoin:miter;stroke-dasharray:none;stroke-opacity:1;marker-end:url(#Arrow1L)"
       d="m 93.86544,136.95257 h 14.14184"
       id="path50209"
       sodipodi:nodetypes="cc" /><path
       style="fill:none;stroke:#000000;stroke-width:0.5;stroke-linecap:round;stroke-linejoin:miter;stroke-dasharray:none;stroke-opacity:1;marker-end:url(#Arrow1L)"
       d="M 93.61544,159.66539 V 122.76938"
       id="path50241"
       sodipodi:nodetypes="cc" /><path
       style="fill:none;stroke:#000000;stroke-width:0.5;stroke-linecap:round;stroke-linejoin:miter;stroke-dasharray:none;stroke-opacity:1;marker-end:url(#Arrow1L)"
       d="m 76.66177,154.29926 v -14.1939"
       id="path51053"
       sodipodi:nodetypes="cc" /><path
       style="fill:none;stroke:#0055d4;stroke-width:0.5;stroke-linecap:round;stroke-linejoin:miter;stroke-dasharray:none;stroke-opacity:1;marker-end:url(#Arrow1L)"
       d="M 76.66177,154.31545 H 90.279405"
       id="path51063"
       sodipodi:nodetypes="cc" /><path
       style="fill:none;stroke:#ff0000;stroke-width:0.5;stroke-linecap:round;stroke-linejoin:miter;stroke-dasharray:none;stroke-opacity:1;marker-end:url(#Arrow1L)"
       d="M 93.409134,136.97257 78.539147,122.16297"
       id="path51835"
       sodipodi:nodetypes="cc" /><path
       style="fill:none;stroke:#0055d4;stroke-width:0.5;stroke-linecap:round;stroke-linejoin:miter;stroke-dasharray:none;stroke-opacity:1;marker-end:url(#Arrow1L)"
       d="M 93.948941,136.95257 H 79.807107"
       id="path51839"
       sodipodi:nodetypes="cc" /><path
       style="fill:none;stroke:#000000;stroke-width:0.264583px;stroke-linecap:butt;stroke-linejoin:miter;stroke-dasharray:1.05833, 1.05833;stroke-dashoffset:0;stroke-opacity:1"
       d="M 76.467837,136.93036 V 119.74755 H 93.545912"
       id="path51841"
       sodipodi:nodetypes="ccc" /><g
       id="g1968"
       transform="translate(-3.7041666)"><path
         style="opacity:1;fill:#808080;fill-opacity:1;stroke:#333333;stroke-width:0.499999;stroke-linecap:round;stroke-linejoin:round;stroke-miterlimit:4;stroke-dasharray:none;stroke-dashoffset:0;stroke-opacity:1;paint-order:normal;stop-color:#000000;stop-opacity:1"
         id="ellipse51905"
         sodipodi:type="arc"
         sodipodi:cx="125.07755"
         sodipodi:cy="136.41089"
         sodipodi:rx="5.681303"
         sodipodi:ry="10.137771"
         sodipodi:start="1.5707963"
         sodipodi:end="4.712389"
         sodipodi:arc-type="arc"
         d="m 125.07755,146.54866 a 5.681303,10.137771 0 0 1 -4.92015,-5.06889 5.681303,10.137771 0 0 1 0,-10.13777 5.681303,10.137771 0 0 1 4.92015,-5.06888"
         sodipodi:open="true" /><path
         style="fill:#808080;stroke:none;stroke-width:0.264583px;stroke-linecap:butt;stroke-linejoin:miter;stroke-opacity:1"
         d="m 124.77518,126.2731 v 20.27557 h 15.87501 V 126.2731 Z"
         id="path51983" /><path
         style="opacity:1;fill:none;fill-opacity:1;stroke:#333333;stroke-width:0.499999;stroke-linecap:round;stroke-linejoin:round;stroke-miterlimit:4;stroke-dasharray:1.5, 1.5;stroke-dashoffset:0;stroke-opacity:1;paint-order:normal;stop-color:#000000;stop-opacity:1"
         id="path51907"
         sodipodi:type="arc"
         sodipodi:cx="125.30434"
         sodipodi:cy="136.41089"
         sodipodi:rx="5.681303"
         sodipodi:ry="10.137771"
         sodipodi:start="4.712389"
         sodipodi:end="1.5707963"
         sodipodi:arc-type="arc"
         d="m 125.30434,126.27312 a 5.681303,10.137771 0 0 1 5.6813,10.13777 5.681303,10.137771 0 0 1 -5.6813,10.13777"
         sodipodi:open="true" /><ellipse
         style="opacity:1;fill:#808080;fill-opacity:1;stroke:#333333;stroke-width:0.499999;stroke-linecap:round;stroke-linejoin:round;stroke-miterlimit:4;stroke-dasharray:none;stroke-dashoffset:0;stroke-opacity:1;paint-order:normal;stop-color:#000000;stop-opacity:1"
         id="ellipse52979"
         cx="140.63937"
         cy="136.29712"
         rx="5.681303"
         ry="10.137771" /><path
         style="fill:none;stroke:#000000;stroke-width:0.5;stroke-linecap:round;stroke-linejoin:miter;stroke-dasharray:none;stroke-opacity:1"
         d="m 140.65019,120.15794 v 36.07798"
         id="path51909" /><path
         style="fill:none;stroke:#000000;stroke-width:0.5;stroke-linecap:butt;stroke-linejoin:miter;stroke-dasharray:none;stroke-opacity:1"
         d="m 124.77518,126.27313 h 15.87501"
         id="path51911" /><path
         style="fill:none;stroke:#000000;stroke-width:0.5;stroke-linecap:butt;stroke-linejoin:miter;stroke-dasharray:none;stroke-opacity:1"
         d="m 125.30434,146.54869 h 15.34585"
         id="path51913"
         sodipodi:nodetypes="cc" /><path
         style="fill:none;stroke:#000000;stroke-width:0.264583px;stroke-linecap:round;stroke-linejoin:miter;stroke-opacity:1"
         d="m 148.29642,133.34886 -14.20838,6.6863"
         id="path51915" /><path
         style="fill:none;stroke:#000000;stroke-width:0.5;stroke-linecap:round;stroke-linejoin:miter;stroke-dasharray:none;stroke-opacity:1;marker-end:url(#marker51921)"
         d="m 140.90647,136.69201 11.82392,-0.2811"
         id="path51917" /><path
         style="fill:none;stroke:#000000;stroke-width:0.264583px;stroke-linecap:butt;stroke-linejoin:miter;stroke-opacity:1"
         d="m 124.77518,146.54869 v 9.93723"
         id="path51959" /><path
         style="fill:none;stroke:#000000;stroke-width:0.264583px;stroke-linecap:butt;stroke-linejoin:miter;stroke-opacity:1;marker-start:url(#marker51921);marker-end:url(#Arrow1L)"
         d="m 126.36268,153.10481 h 12.70001"
         id="path51961"
         sodipodi:nodetypes="cc" /><text
         xml:space="preserve"
         style="font-size:3.88056px;line-height:0.65;font-family:'EB Garamond';-inkscape-font-specification:'EB Garamond, Normal';text-align:end;letter-spacing:0.396875px;word-spacing:0px;text-anchor:end;stroke-width:0.264583"
         x="150.06717"
         y="132.40514"
         id="text54212"><tspan
           sodipodi:role="line"
           id="tspan54210"
           style="font-style:italic;font-variant:normal;font-weight:normal;font-stretch:normal;font-size:3.88056px;font-family:'EB Garamond';-inkscape-font-specification:'EB Garamond Italic';stroke-width:0.264583"
           x="150.46405"
           y="132.40514">s</tspan></text><text
         xml:space="preserve"
         style="font-size:3.88056px;line-height:0.65;font-family:'EB Garamond';-inkscape-font-specification:'EB Garamond, Normal';text-align:end;letter-spacing:-0.132292px;word-spacing:0px;text-anchor:end;stroke-width:0.264583"
         x="134.92989"
         y="155.09763"
         id="text54216"><tspan
           sodipodi:role="line"
           id="tspan54214"
           style="font-style:italic;font-variant:normal;font-weight:normal;font-stretch:normal;font-size:3.88056px;font-family:'EB Garamond';-inkscape-font-specification:'EB Garamond Italic';stroke-width:0.264583"
           x="134.79759"
           y="155.09763">v<tspan
   style="font-size:3.88056px;baseline-shift:sub"
   id="tspan54218">x</tspan></tspan></text><text
         xml:space="preserve"
         style="font-size:3.88056px;line-height:0.65;font-family:'EB Garamond';-inkscape-font-specification:'EB Garamond, Normal';text-align:end;letter-spacing:0.396875px;word-spacing:0px;text-anchor:end;stroke-width:0.264583"
         x="155.35884"
         y="135.05093"
         id="text54222"><tspan
           sodipodi:role="line"
           id="tspan54220"
           style="font-style:italic;font-variant:normal;font-weight:normal;font-stretch:normal;font-size:3.88056px;font-family:'EB Garamond';-inkscape-font-specification:'EB Garamond Italic';stroke-width:0.264583"
           x="155.75572"
           y="135.05093">x</tspan></text></g><g
       id="g55151"><text
         xml:space="preserve"
         style="font-size:3.88056px;line-height:0.65;font-family:'EB Garamond';-inkscape-font-specification:'EB Garamond, Normal';text-align:end;letter-spacing:-0.132292px;word-spacing:0px;text-anchor:end;fill:#0057d5;fill-opacity:1;stroke-width:0.264583"
         x="86.066971"
         y="135.58717"
         id="text54494"><tspan
           sodipodi:role="line"
           id="tspan54492"
           style="font-style:italic;font-variant:normal;font-weight:normal;font-stretch:normal;font-size:3.88056px;font-family:'EB Garamond';-inkscape-font-specification:'EB Garamond Italic';fill:#0057d5;fill-opacity:1;stroke-width:0.264583"
           x="85.934677"
           y="135.58717">v<tspan
   style="font-size:3.88056px;baseline-shift:sub;fill:#0057d5;fill-opacity:1"
   id="tspan54490">x</tspan></tspan></text><path
         style="fill:none;stroke:#0055d4;stroke-width:0.1;stroke-linecap:round;stroke-linejoin:miter;stroke-dasharray:none;stroke-opacity:1;marker-end:url(#marker54418)"
         d="m 83.822197,133.43753 h 1.034304"
         id="path54496"
         sodipodi:nodetypes="cc" /></g><g
       id="g55443"><text
         xml:space="preserve"
         style="font-size:3.88056px;line-height:0.65;font-family:'EB Garamond';-inkscape-font-specification:'EB Garamond, Normal';text-align:end;letter-spacing:-0.132292px;word-spacing:0px;text-anchor:end;fill:#ff0000;fill-opacity:1;stroke-width:0.264583"
         x="74.906197"
         y="120.02058"
         id="text54502"><tspan
           sodipodi:role="line"
           id="tspan54500"
           style="font-style:italic;font-variant:normal;font-weight:normal;font-stretch:normal;font-size:3.88056px;font-family:'EB Garamond';-inkscape-font-specification:'EB Garamond Italic';fill:#ff0000;fill-opacity:1;stroke-width:0.264583"
           x="74.773903"
           y="120.02058">v<tspan
   style="font-size:3.88056px;baseline-shift:sub;fill:#ff0000;fill-opacity:1"
   id="tspan54498" /></tspan></text><path
         style="fill:none;stroke:#ff0000;stroke-width:0.1;stroke-linecap:round;stroke-linejoin:miter;stroke-dasharray:none;stroke-opacity:1;marker-end:url(#marker54418)"
         d="m 73.60875,117.87094 h 1.034304"
         id="path54504"
         sodipodi:nodetypes="cc" /></g><g
       id="g55161"
       transform="translate(0,21.695834)"><text
         xml:space="preserve"
         style="font-size:3.88056px;line-height:0.65;font-family:'EB Garamond';-inkscape-font-specification:'EB Garamond, Normal';text-align:end;letter-spacing:-0.132292px;word-spacing:0px;text-anchor:end;fill:#0057d5;fill-opacity:1;stroke-width:0.264583"
         x="86.066971"
         y="135.58717"
         id="text55157"><tspan
           sodipodi:role="line"
           id="tspan55155"
           style="font-style:italic;font-variant:normal;font-weight:normal;font-stretch:normal;font-size:3.88056px;font-family:'EB Garamond';-inkscape-font-specification:'EB Garamond Italic';fill:#0057d5;fill-opacity:1;stroke-width:0.264583"
           x="85.934677"
           y="135.58717">v<tspan
   style="font-size:3.88056px;baseline-shift:sub;fill:#0057d5;fill-opacity:1"
   id="tspan55153">x</tspan></tspan></text><path
         style="fill:none;stroke:#0055d4;stroke-width:0.1;stroke-linecap:round;stroke-linejoin:miter;stroke-dasharray:none;stroke-opacity:1;marker-end:url(#marker54418)"
         d="m 83.822197,133.43753 h 1.034304"
         id="path55159"
         sodipodi:nodetypes="cc" /></g><g
       id="g55453"
       transform="translate(14.654075,19.704981)"><text
         xml:space="preserve"
         style="font-size:3.88056px;line-height:0.65;font-family:'EB Garamond';-inkscape-font-specification:'EB Garamond, Normal';text-align:end;letter-spacing:-0.132292px;word-spacing:0px;text-anchor:end;fill:#ff0000;fill-opacity:1;stroke-width:0.264583"
         x="74.906197"
         y="120.02058"
         id="text55449"><tspan
           sodipodi:role="line"
           id="tspan55447"
           style="font-style:italic;font-variant:normal;font-weight:normal;font-stretch:normal;font-size:3.88056px;font-family:'EB Garamond';-inkscape-font-specification:'EB Garamond Italic';fill:#ff0000;fill-opacity:1;stroke-width:0.264583"
           x="74.773903"
           y="120.02058">v<tspan
   style="font-size:3.88056px;baseline-shift:sub;fill:#ff0000;fill-opacity:1"
   id="tspan55445" /></tspan></text><path
         style="fill:none;stroke:#ff0000;stroke-width:0.1;stroke-linecap:round;stroke-linejoin:miter;stroke-dasharray:none;stroke-opacity:1;marker-end:url(#marker54418)"
         d="m 73.60875,117.87094 h 1.034304"
         id="path55451"
         sodipodi:nodetypes="cc" /></g><circle
       style="opacity:1;fill:#ff6600;fill-opacity:1;stroke:#333333;stroke-width:0.1;stroke-linecap:round;stroke-linejoin:round;stroke-miterlimit:4;stroke-dasharray:none;stroke-dashoffset:0;stroke-opacity:1;paint-order:normal;stop-color:#000000;stop-opacity:1"
       id="path55507"
       cx="76.661774"
       cy="154.10191"
       r="0.69999999" /><text
       xml:space="preserve"
       style="font-style:normal;font-variant:normal;font-weight:normal;font-stretch:normal;font-size:3.52778px;line-height:0.65;font-family:'EB Garamond';-inkscape-font-specification:'EB Garamond';text-align:end;letter-spacing:-0.132292px;word-spacing:0px;text-anchor:end;stroke-width:0.264583"
       x="116.25665"
       y="159.27449"
       id="text55573"><tspan
         sodipodi:role="line"
         id="tspan55571"
         style="font-style:normal;font-variant:normal;font-weight:normal;font-stretch:normal;font-size:3.52778px;font-family:'EB Garamond';-inkscape-font-specification:'EB Garamond';stroke-width:0.264583"
         x="116.12436"
         y="159.27449"><tspan
   style="font-style:normal;font-variant:normal;font-weight:normal;font-stretch:normal;font-size:3.52778px;font-family:'EB Garamond';-inkscape-font-specification:'EB Garamond'"
   id="tspan55577">(</tspan>b<tspan
   style="font-style:normal;font-variant:normal;font-weight:normal;font-stretch:normal;font-size:3.52778px;font-family:'EB Garamond';-inkscape-font-specification:'EB Garamond'"
   id="tspan55575">)</tspan></tspan></text><text
       xml:space="preserve"
       style="font-style:normal;font-variant:normal;font-weight:normal;font-stretch:normal;font-size:3.52778px;line-height:0.65;font-family:'EB Garamond';-inkscape-font-specification:'EB Garamond';text-align:end;letter-spacing:-0.132292px;word-spacing:0px;text-anchor:end;stroke-width:0.264583"
       x="74.696724"
       y="159.27449"
       id="text55585"><tspan
         sodipodi:role="line"
         id="tspan55583"
         style="font-style:normal;font-variant:normal;font-weight:normal;font-stretch:normal;font-size:3.52778px;font-family:'EB Garamond';-inkscape-font-specification:'EB Garamond';stroke-width:0.264583"
         x="74.56443"
         y="159.27449"><tspan
           style="font-style:normal;font-variant:normal;font-weight:normal;font-stretch:normal;font-size:3.52778px;font-family:'EB Garamond';-inkscape-font-specification:'EB Garamond'"
           id="tspan55579">(<tspan
   style="font-style:normal;font-variant:normal;font-weight:normal;font-stretch:normal;font-size:3.52778px;font-family:'EB Garamond';-inkscape-font-specification:'EB Garamond'"
   id="tspan55587">a</tspan>)</tspan></tspan></text></g></svg>
