<?xml version="1.0" encoding="UTF-8" standalone="no"?>
<!-- Created with Inkscape (http://www.inkscape.org/) -->

<svg
   width="77.779282mm"
   height="63.308407mm"
   viewBox="0 0 77.779282 63.308408"
   version="1.1"
   id="svg40596"
   xml:space="preserve"
   inkscape:version="1.2.2 (b0a8486, 2022-12-01)"
   sodipodi:docname="control-scheme-1.svg"
   xmlns:inkscape="http://www.inkscape.org/namespaces/inkscape"
   xmlns:sodipodi="http://sodipodi.sourceforge.net/DTD/sodipodi-0.dtd"
   xmlns="http://www.w3.org/2000/svg"
   xmlns:svg="http://www.w3.org/2000/svg"><sodipodi:namedview
     id="namedview40598"
     pagecolor="#ffffff"
     bordercolor="#666666"
     borderopacity="1.0"
     inkscape:showpageshadow="2"
     inkscape:pageopacity="0.0"
     inkscape:pagecheckerboard="0"
     inkscape:deskcolor="#d1d1d1"
     inkscape:document-units="mm"
     showgrid="false"
     inkscape:zoom="1.8388541"
     inkscape:cx="143.02385"
     inkscape:cy="119.91163"
     inkscape:window-width="1309"
     inkscape:window-height="809"
     inkscape:window-x="0"
     inkscape:window-y="0"
     inkscape:window-maximized="0"
     inkscape:current-layer="layer1" /><defs
     id="defs40593"><marker
       style="overflow:visible"
       id="Arrow1L"
       refX="0"
       refY="0"
       orient="auto-start-reverse"
       inkscape:stockid="Arrow1L"
       markerWidth="8.75"
       markerHeight="5"
       viewBox="0 0 8.75 5"
       inkscape:isstock="true"
       inkscape:collect="always"
       preserveAspectRatio="xMidYMid"><path
         style="fill:context-stroke;fill-rule:evenodd;stroke:none"
         d="M 0,0 5,-5 -12.5,0 5,5 Z"
         id="arrow1L"
         transform="scale(-0.5)" /></marker></defs><g
     inkscape:label="Layer 1"
     inkscape:groupmode="layer"
     id="layer1"
     transform="translate(-65.375305,-106.79248)"><rect
       style="font-variation-settings:normal;opacity:1;fill:#ffaacc;fill-opacity:1;stroke:#333333;stroke-width:0.452388;stroke-linecap:round;stroke-linejoin:round;stroke-miterlimit:4;stroke-dasharray:none;stroke-dashoffset:0;stroke-opacity:1;paint-order:normal;stop-color:#000000;stop-opacity:1"
       id="rect45041"
       width="20.812561"
       height="14.447555"
       x="104.41881"
       y="115.44433" /><rect
       style="font-variation-settings:normal;opacity:1;fill:#00ccff;fill-opacity:1;stroke:#333333;stroke-width:0.452388;stroke-linecap:round;stroke-linejoin:round;stroke-miterlimit:4;stroke-dasharray:none;stroke-dashoffset:0;stroke-opacity:1;paint-order:normal;stop-color:#000000;stop-opacity:1"
       id="rect45099"
       width="16.375013"
       height="8.7897711"
       x="70.702332"
       y="118.27322" /><path
       style="fill:none;stroke:#000000;stroke-width:0.452388;stroke-linecap:round;stroke-linejoin:miter;stroke-dasharray:none;stroke-opacity:1;marker-end:url(#Arrow1L)"
       d="m 87.077343,122.6681 14.947577,1e-5"
       id="path45101"
       sodipodi:nodetypes="cc" /><path
       style="fill:none;stroke:#000000;stroke-width:0.452388;stroke-linecap:round;stroke-linejoin:miter;stroke-dasharray:none;stroke-opacity:1;marker-end:url(#Arrow1L)"
       d="m 125.37957,122.6681 14.94759,1e-5"
       id="path45129"
       sodipodi:nodetypes="cc" /><path
       style="fill:none;stroke:#ff0000;stroke-width:0.452388;stroke-linecap:round;stroke-linejoin:miter;stroke-dasharray:none;stroke-opacity:1;marker-end:url(#Arrow1L)"
       d="m 114.8251,107.01867 -1e-5,5.37204"
       id="path45139"
       sodipodi:nodetypes="cc" /><path
       style="fill:none;stroke:#ff0000;stroke-width:0.452388;stroke-linecap:round;stroke-linejoin:miter;stroke-dasharray:none;stroke-opacity:1;marker-end:url(#Arrow1L)"
       d="m 110.03732,107.01867 -10e-6,5.37204"
       id="path45151"
       sodipodi:nodetypes="cc" /><path
       style="fill:none;stroke:#ff0000;stroke-width:0.452388;stroke-linecap:round;stroke-linejoin:miter;stroke-dasharray:none;stroke-opacity:1;marker-end:url(#Arrow1L)"
       d="m 119.61287,107.01867 v 5.37204"
       id="path45153"
       sodipodi:nodetypes="cc" /><rect
       style="font-variation-settings:normal;opacity:1;fill:#ffaacc;fill-opacity:1;stroke:#333333;stroke-width:0.452388;stroke-linecap:round;stroke-linejoin:round;stroke-miterlimit:4;stroke-dasharray:none;stroke-dashoffset:0;stroke-opacity:1;paint-order:normal;stop-color:#000000;stop-opacity:1"
       id="rect45167"
       width="20.812561"
       height="14.447555"
       x="104.41881"
       y="143.21346" /><rect
       style="font-variation-settings:normal;opacity:1;fill:#00ccff;fill-opacity:1;stroke:#333333;stroke-width:0.452388;stroke-linecap:round;stroke-linejoin:round;stroke-miterlimit:4;stroke-dasharray:none;stroke-dashoffset:0;stroke-opacity:1;paint-order:normal;stop-color:#000000;stop-opacity:1"
       id="rect45169"
       width="16.375013"
       height="8.7897711"
       x="70.702332"
       y="146.04234" /><path
       style="fill:none;stroke:#000000;stroke-width:0.452388;stroke-linecap:round;stroke-linejoin:miter;stroke-dasharray:none;stroke-opacity:1;marker-end:url(#Arrow1L)"
       d="m 87.077343,150.43721 14.947577,1e-5"
       id="path45171"
       sodipodi:nodetypes="cc" /><path
       style="fill:none;stroke:#ff0000;stroke-width:0.452388;stroke-linecap:round;stroke-linejoin:miter;stroke-dasharray:none;stroke-opacity:1;marker-end:url(#Arrow1L)"
       d="m 114.8251,134.78779 -1e-5,5.37204"
       id="path45175"
       sodipodi:nodetypes="cc" /><path
       style="fill:none;stroke:#ff0000;stroke-width:0.452388;stroke-linecap:round;stroke-linejoin:miter;stroke-dasharray:none;stroke-opacity:1;marker-end:url(#Arrow1L)"
       d="m 110.03732,134.78779 -10e-6,5.37204"
       id="path45177"
       sodipodi:nodetypes="cc" /><path
       style="fill:none;stroke:#ff0000;stroke-width:0.452388;stroke-linecap:round;stroke-linejoin:miter;stroke-dasharray:none;stroke-opacity:1;marker-end:url(#Arrow1L)"
       d="m 119.61287,134.78779 v 5.37204"
       id="path45179"
       sodipodi:nodetypes="cc" /><path
       style="font-variation-settings:normal;opacity:1;vector-effect:none;fill:none;fill-opacity:1;stroke:#ff0000;stroke-width:0.452388;stroke-linecap:round;stroke-linejoin:miter;stroke-miterlimit:4;stroke-dasharray:none;stroke-dashoffset:0;stroke-opacity:1;-inkscape-stroke:none;marker-end:url(#Arrow1L);stop-color:#000000;stop-opacity:1"
       d="m 133.14366,150.43721 v 13.50241 H 78.889839 v -6.23484"
       id="path45181"
       sodipodi:nodetypes="cccc" /><text
       xml:space="preserve"
       style="font-size:3.88056px;line-height:0.65;font-family:'EB Garamond';-inkscape-font-specification:'EB Garamond, Normal';text-align:end;letter-spacing:0.359083px;word-spacing:0px;text-anchor:end;stroke-width:0.239388"
       x="96.648178"
       y="148.96088"
       id="text45300"><tspan
         sodipodi:role="line"
         id="tspan45298"
         style="font-style:italic;font-size:3.88056px;stroke-width:0.239388"
         x="97.007263"
         y="148.96088">v</tspan></text><text
       xml:space="preserve"
       style="font-size:3.88056px;line-height:0.65;font-family:'EB Garamond';-inkscape-font-specification:'EB Garamond, Normal';text-align:end;letter-spacing:0.359083px;word-spacing:0px;text-anchor:end;stroke-width:0.239388"
       x="96.648178"
       y="121.15538"
       id="text45304"><tspan
         sodipodi:role="line"
         id="tspan45302"
         style="font-style:italic;font-size:3.88056px;stroke-width:0.239388"
         x="97.007263"
         y="121.15538">v</tspan></text><text
       xml:space="preserve"
       style="font-size:3.88056px;line-height:0.65;font-family:'EB Garamond';-inkscape-font-specification:'EB Garamond, Normal';text-align:end;letter-spacing:0.359083px;word-spacing:0px;text-anchor:end;stroke-width:0.239388"
       x="132.46902"
       y="120.12122"
       id="text45308"><tspan
         sodipodi:role="line"
         id="tspan45306"
         style="font-style:italic;font-size:3.88056px;stroke-width:0.239388"
         x="132.82811"
         y="120.12122">w</tspan></text><text
       xml:space="preserve"
       style="font-size:3.88056px;line-height:0.65;font-family:'EB Garamond';-inkscape-font-specification:'EB Garamond, Normal';text-align:end;letter-spacing:0.359083px;word-spacing:0px;text-anchor:end;stroke-width:0.239388"
       x="133.81918"
       y="148.96567"
       id="text45312"><tspan
         sodipodi:role="line"
         id="tspan45310"
         style="font-style:italic;font-size:3.88056px;stroke-width:0.239388"
         x="134.17827"
         y="148.96567">w</tspan></text><text
       xml:space="preserve"
       style="font-style:normal;font-variant:normal;font-weight:normal;font-stretch:normal;font-size:2.82222px;line-height:0.65;font-family:'EB Garamond';-inkscape-font-specification:'EB Garamond';text-align:end;letter-spacing:-0.119695px;word-spacing:0px;text-anchor:end;stroke-width:0.239388"
       x="67.927078"
       y="126.5547"
       id="text45316"><tspan
         sodipodi:role="line"
         id="tspan45314"
         style="font-style:normal;font-variant:normal;font-weight:normal;font-stretch:normal;font-size:2.82222px;font-family:'EB Garamond';-inkscape-font-specification:'EB Garamond';stroke-width:0.239388"
         x="67.807381"
         y="126.5547">(<tspan
   style="font-style:normal;font-variant:normal;font-weight:normal;font-stretch:normal;font-size:2.82222px;font-family:'EB Garamond';-inkscape-font-specification:'EB Garamond';stroke-width:0.239388"
   id="tspan45318">a</tspan>)</tspan></text><text
       xml:space="preserve"
       style="font-style:normal;font-variant:normal;font-weight:normal;font-stretch:normal;font-size:2.82222px;line-height:0.65;font-family:'EB Garamond';-inkscape-font-specification:'EB Garamond';text-align:end;letter-spacing:-0.119695px;word-spacing:0px;text-anchor:end;stroke-width:0.239388"
       x="68.254463"
       y="154.45435"
       id="text45324"><tspan
         sodipodi:role="line"
         id="tspan45322"
         style="font-style:normal;font-variant:normal;font-weight:normal;font-stretch:normal;font-size:2.82222px;font-family:'EB Garamond';-inkscape-font-specification:'EB Garamond';stroke-width:0.239388"
         x="68.134766"
         y="154.45435">(<tspan
   style="font-style:normal;font-variant:normal;font-weight:normal;font-stretch:normal;font-size:2.82222px;font-family:'EB Garamond';-inkscape-font-specification:'EB Garamond';stroke-width:0.239388"
   id="tspan45320">b</tspan>)</tspan></text><text
       xml:space="preserve"
       style="font-size:4.58611px;line-height:0.65;font-family:'EB Garamond';-inkscape-font-specification:'EB Garamond, Normal';text-align:end;letter-spacing:0.359083px;word-spacing:0px;text-anchor:end;stroke-width:0.239388"
       x="124.32978"
       y="110.54568"
       id="text45328"><tspan
         sodipodi:role="line"
         id="tspan45326"
         style="font-style:italic;font-size:4.58611px;stroke-width:0.239388"
         x="124.68887"
         y="110.54568">P</tspan></text><text
       xml:space="preserve"
       style="font-size:2.82222px;line-height:0.65;font-family:'EB Garamond';-inkscape-font-specification:'EB Garamond, Normal';text-align:end;letter-spacing:0.359083px;word-spacing:0px;text-anchor:end;stroke-width:0.239388"
       x="124.32978"
       y="139.22444"
       id="text45332"><tspan
         sodipodi:role="line"
         id="tspan45330"
         style="font-style:italic;font-size:2.82222px;stroke-width:0.239388"
         x="124.68887"
         y="139.22444">P</tspan></text><path
       style="fill:none;stroke:#ff0000;stroke-width:0.452388;stroke-linecap:round;stroke-linejoin:miter;stroke-dasharray:none;stroke-opacity:1;marker-end:url(#Arrow1L)"
       d="m 113.42552,163.9401 -5.37203,-1e-5"
       id="path45336"
       sodipodi:nodetypes="cc" /><text
       xml:space="preserve"
       style="font-style:normal;font-variant:normal;font-weight:normal;font-stretch:normal;font-size:3.175px;line-height:0.65;font-family:'EB Garamond';-inkscape-font-specification:'EB Garamond';text-align:end;letter-spacing:0px;word-spacing:0px;text-anchor:end;stroke-width:0.239388"
       x="113.60384"
       y="170.04056"
       id="text45342"><tspan
         sodipodi:role="line"
         id="tspan45340"
         style="font-style:normal;font-variant:normal;font-weight:normal;font-stretch:normal;font-size:3.175px;font-family:'EB Garamond';-inkscape-font-specification:'EB Garamond';stroke-width:0.239388"
         x="113.60384"
         y="170.04056">Feedback</tspan></text><text
       xml:space="preserve"
       style="font-size:4.58611px;line-height:0.65;font-family:'EB Garamond';-inkscape-font-specification:'EB Garamond, Normal';text-align:end;letter-spacing:0px;word-spacing:0px;text-anchor:end;stroke-width:0.239388"
       x="81.898323"
       y="124.16088"
       id="text45346"><tspan
         sodipodi:role="line"
         id="tspan45344"
         style="font-style:italic;font-size:4.58611px;stroke-width:0.239388"
         x="81.898323"
         y="124.16088">CD</tspan></text><text
       xml:space="preserve"
       style="font-size:4.58611px;line-height:0.65;font-family:'EB Garamond';-inkscape-font-specification:'EB Garamond, Normal';text-align:end;letter-spacing:0px;word-spacing:0px;text-anchor:end;stroke-width:0.239388"
       x="81.898315"
       y="151.93001"
       id="text45350"><tspan
         sodipodi:role="line"
         id="tspan45348"
         style="font-style:italic;font-size:4.58611px;stroke-width:0.239388"
         x="81.898315"
         y="151.93001">CD</tspan></text><text
       xml:space="preserve"
       style="font-size:4.58611px;line-height:0.65;font-family:'EB Garamond';-inkscape-font-specification:'EB Garamond, Normal';text-align:end;letter-spacing:0px;word-spacing:0px;text-anchor:end;stroke-width:0.239388"
       x="115.79504"
       y="151.92543"
       id="text45354"><tspan
         sodipodi:role="line"
         id="tspan45352"
         style="font-style:italic;font-size:4.58611px;stroke-width:0.239388"
         x="115.79504"
         y="151.92543">S</tspan></text><text
       xml:space="preserve"
       style="font-size:4.58611px;line-height:0.65;font-family:'EB Garamond';-inkscape-font-specification:'EB Garamond, Normal';text-align:end;letter-spacing:0px;word-spacing:0px;text-anchor:end;stroke-width:0.239388"
       x="115.79504"
       y="124.1563"
       id="text45358"><tspan
         sodipodi:role="line"
         id="tspan45356"
         style="font-style:italic;font-size:4.58611px;stroke-width:0.239388"
         x="115.79504"
         y="124.1563">S</tspan></text><path
       style="fill:none;stroke:#000000;stroke-width:0.452388;stroke-linecap:round;stroke-linejoin:miter;stroke-dasharray:none;stroke-opacity:1;marker-end:url(#Arrow1L)"
       d="m 125.37957,150.43721 14.94759,1e-5"
       id="path45173"
       sodipodi:nodetypes="cc" /></g></svg>
