<?xml version="1.0" encoding="UTF-8" standalone="no"?>
<!-- Created with Inkscape (http://www.inkscape.org/) -->

<svg
   width="82.579346mm"
   height="42.617764mm"
   viewBox="0 0 82.579346 42.617764"
   version="1.1"
   id="svg5"
   xml:space="preserve"
   inkscape:version="1.2.2 (b0a8486, 2022-12-01)"
   sodipodi:docname="dist2.svg"
   xmlns:inkscape="http://www.inkscape.org/namespaces/inkscape"
   xmlns:sodipodi="http://sodipodi.sourceforge.net/DTD/sodipodi-0.dtd"
   xmlns:xlink="http://www.w3.org/1999/xlink"
   xmlns="http://www.w3.org/2000/svg"
   xmlns:svg="http://www.w3.org/2000/svg"><sodipodi:namedview
     id="namedview7"
     pagecolor="#ffffff"
     bordercolor="#666666"
     borderopacity="1.0"
     inkscape:showpageshadow="2"
     inkscape:pageopacity="0.0"
     inkscape:pagecheckerboard="0"
     inkscape:deskcolor="#d1d1d1"
     inkscape:document-units="mm"
     showgrid="false"
     inkscape:zoom="1.2277413"
     inkscape:cx="103.03473"
     inkscape:cy="107.5145"
     inkscape:window-width="1440"
     inkscape:window-height="878"
     inkscape:window-x="0"
     inkscape:window-y="0"
     inkscape:window-maximized="1"
     inkscape:current-layer="layer1" /><defs
     id="defs2"><marker
       style="overflow:visible"
       id="Arrow1L"
       refX="0"
       refY="0"
       orient="auto-start-reverse"
       inkscape:stockid="Arrow1L"
       markerWidth="8.75"
       markerHeight="5"
       viewBox="0 0 8.75 5"
       inkscape:isstock="true"
       inkscape:collect="always"
       preserveAspectRatio="xMidYMid"><path
         style="fill:context-stroke;fill-rule:evenodd;stroke:none"
         d="M 0,0 5,-5 -12.5,0 5,5 Z"
         id="arrow1L"
         transform="scale(-0.5)" /></marker><g
       id="g5474"><symbol
         overflow="visible"
         id="glyph0-0"><path
           style="stroke:none"
           d=""
           id="path5456" /></symbol><symbol
         overflow="visible"
         id="glyph0-1"><path
           style="stroke:none"
           d="m 25.890625,-1.140625 c -0.140625,0 -0.71875,0.0625 -0.828125,0.0625 -2.828125,0 -4.734375,-2.796875 -5.953125,-4.65625 C 18.75,-6.34375 17.78125,-7.8125 17.390625,-8.421875 c 0.859375,-1.9375 3.265625,-6.390625 7.53125,-6.390625 0.25,0 0.578125,0 0.96875,0.109375 0,-0.9375 -0.03125,-0.96875 -0.109375,-1.046875 -0.25,-0.0625 -0.78125,-0.09375 -1.109375,-0.09375 -4.5625,0 -7.203125,4.375 -8.0625,6.15625 -1.4375,-2.1875 -1.9375,-2.96875 -3.265625,-4.078125 -2.1875,-1.90625 -4.15625,-2.078125 -5.0625,-2.078125 -3.984375,0 -6.265625,4.015625 -6.265625,8.140625 0,4.015625 2.21875,8.09375 6.15625,8.09375 4.5625,0 7.21875,-4.375 8.078125,-6.15625 1.421875,2.1875 1.9375,2.96875 3.25,4.078125 2.1875,1.90625 4.171875,2.078125 5.0625,2.078125 0.4375,0 1,-0.0625 1.328125,-0.140625 z m -10.4375,-5.890625 c -0.859375,1.9375 -3.265625,6.390625 -7.53125,6.390625 -3.46875,0 -5.125,-3.8125 -5.125,-7.0625 0,-3.5625 2.015625,-6.671875 4.984375,-6.671875 2.828125,0 4.734375,2.796875 5.953125,4.65625 0.359375,0.609375 1.328125,2.078125 1.71875,2.6875 z m 0,0"
           id="path5459" /></symbol><symbol
         overflow="visible"
         id="glyph1-0"><path
           style="stroke:none"
           d="M 2.1875,0 H 16.53125 V -16.96875 H 2.1875 Z m 1.796875,-1.796875 v -13.375 h 10.75 v 13.375 z m 0,0"
           id="path5462" /></symbol><symbol
         overflow="visible"
         id="glyph1-1"><path
           style="stroke:none"
           d="m 4.265625,0.5 c 1.9375,0 4.3125,-1.28125 6.5625,-3.9375 2.46875,-2.875 3.40625,-5.921875 3.40625,-9.078125 0,-1.65625 -0.53125,-2.46875 -1.03125,-2.46875 -1.015625,0 -2.125,0.8125 -2.125,1.46875 0,0.421875 0.109375,0.828125 0.4375,1.1875 0.53125,0.609375 0.859375,1.5 0.859375,2.28125 0,4.125 -3.375,8.5 -6.859375,8.5 -1.21875,0 -1.609375,-1.078125 -1.0625,-2.71875 l 3.21875,-9.328125 c 0.21875,-0.671875 -0.359375,-1.390625 -0.9375,-1.390625 -1.03125,0 -2.859375,1.359375 -4.625,3.765625 -0.359375,0.5 -0.421875,0.78125 -0.421875,1.078125 0,0.0625 0.0625,0.171875 0.25,0.171875 0.078125,0 0.21875,0 0.46875,-0.28125 0.75,-0.828125 1.75,-1.6875 2.078125,-1.6875 0.578125,0 0.421875,0.640625 0.0625,1.609375 L 2.21875,-4.125 C 1.4375,-2.046875 2.578125,0.5 4.265625,0.5 Z m 0,0"
           id="path5465" /></symbol><symbol
         overflow="visible"
         id="glyph2-0"><path
           style="stroke:none"
           d="M 1.25,0 H 11.296875 V -11.875 H 1.25 Z m 1.265625,-1.25 v -9.375 h 7.53125 v 9.375 z m 0,0"
           id="path5468" /></symbol><symbol
         overflow="visible"
         id="glyph2-1"><path
           style="stroke:none"
           d="m 10.625,0.078125 c 0.171875,0 0.453125,-0.078125 0.546875,-0.609375 0.25,-1.25 0.75,-2.28125 0.75,-2.53125 0,-0.125 -0.01563,-0.296875 -0.171875,-0.296875 -0.28125,0 -0.5,0.375 -0.625,0.578125 -0.625,1 -0.953125,1.09375 -2.390625,1.171875 C 7.828125,-1.5625 6.828125,-1.53125 5.875,-1.53125 4.953125,-1.53125 4.21875,-1.5625 3.671875,-1.609375 3.46875,-1.625 3.3125,-1.65625 3.3125,-1.78125 c 0,-0.125 4.140625,-4.140625 5.28125,-5.5 1.046875,-1.28125 1.828125,-3.03125 1.828125,-4.390625 0,-2.4375 -1.515625,-4.140625 -4.015625,-4.140625 -2.84375,0 -4.90625,2.453125 -4.90625,3.234375 0,0.453125 0.25,0.75 0.390625,0.75 0.140625,0 0.3125,-0.15625 0.421875,-0.34375 0.703125,-1.21875 1.9375,-2.046875 3.3125,-2.046875 1.4375,0 2.6875,1.09375 2.6875,2.875 0,2.203125 -1.234375,4.46875 -2.90625,6.203125 l -4.296875,4.4375 C 0.953125,-0.546875 0.90625,-0.53125 0.90625,-0.375 c 0,0.15625 0.375,0.421875 0.5,0.421875 0.5,0 4.5625,-0.125 5.828125,-0.125 1.25,0 2.890625,0.15625 3.390625,0.15625 z m 0,0"
           id="path5471" /></symbol></g></defs><g
     inkscape:label="Layer 1"
     inkscape:groupmode="layer"
     id="layer1"
     transform="translate(-63.329197,-103.25174)"><path
       style="fill:none;stroke:#000000;stroke-width:0.5;stroke-linecap:butt;stroke-linejoin:miter;stroke-dasharray:none;stroke-opacity:1;marker-end:url(#Arrow1L)"
       d="M 66.329967,141.73398 V 107.61047"
       id="path386"
       sodipodi:nodetypes="cc" /><path
       style="fill:none;stroke:#000000;stroke-width:0.5;stroke-linecap:butt;stroke-linejoin:miter;stroke-dasharray:none;stroke-opacity:1;marker-end:url(#Arrow1L)"
       d="M 66.329967,141.73398 H 142.78354"
       id="path1960"
       sodipodi:nodetypes="cc" /><path
       style="fill:#00ccff;stroke:#d40000;stroke-width:0.75;stroke-linecap:round;stroke-linejoin:round;stroke-dasharray:none;stroke-opacity:1"
       d="m 66.329967,141.73398 c 0,0 3.910439,-0.97323 5.623351,-1.98096 2.575114,-1.51497 4.804193,-3.64166 6.709679,-5.94285 2.229637,-2.69266 3.252832,-6.22646 5.367743,-9.01014 1.175737,-1.54752 2.353363,-3.22752 4.025807,-4.21752 1.495562,-0.8853 3.305037,-1.47093 5.03819,-1.34193 1.763059,0.13122 2.924928,0.73328 4.866574,2.10875 2.140629,1.49629 4.132809,3.19444 6.198469,4.79263 2.64191,2.04403 5.16289,4.25439 7.92381,6.13457 2.58158,1.75805 5.24899,3.41399 8.05161,4.79262 2.28218,1.12262 4.66038,2.0697 7.09309,2.81168 2.77341,0.8459 8.49893,1.85315 8.49893,1.85315"
       id="path1966"
       sodipodi:nodetypes="caaaaacaaaac" /><path
       style="fill:none;stroke:#000000;stroke-width:0.264583px;stroke-linecap:round;stroke-linejoin:miter;stroke-dasharray:0.793749, 0.793749;stroke-dashoffset:0;stroke-opacity:1"
       d="m 87.840276,103.38403 c 0,0 -0.889759,5.70755 -1.626671,8.49484 -0.609935,2.30702 -1.5284,4.52124 -2.304452,6.7778 -0.596406,1.7342 -1.123981,3.49452 -1.807414,5.19631 -0.580211,1.44476 -1.211342,2.87312 -1.942967,4.24742 -0.813306,1.52773 -1.719099,3.00995 -2.71112,4.42816 -0.804921,1.15073 -1.662596,2.27188 -2.62075,3.29853 -0.807419,0.86514 -2.620749,2.39483 -2.620749,2.39483"
       id="path3444"
       sodipodi:nodetypes="caaaaaac" /><text
       xml:space="preserve"
       style="font-size:3.52778px;line-height:0.65;font-family:'EB Garamond';-inkscape-font-specification:'EB Garamond, Normal';text-align:end;letter-spacing:0.396875px;word-spacing:0px;text-anchor:end;stroke-width:0.264583"
       x="144.50688"
       y="145.82011"
       id="text3551"><tspan
         sodipodi:role="line"
         id="tspan3549"
         style="font-style:italic;font-size:3.52778px;stroke-width:0.264583"
         x="144.90376"
         y="145.82011">V</tspan></text><text
       xml:space="preserve"
       style="font-size:3.52778px;line-height:0.65;font-family:'EB Garamond';-inkscape-font-specification:'EB Garamond, Normal';text-align:end;letter-spacing:0.396875px;word-spacing:0px;text-anchor:end;stroke-width:0.264583"
       x="65.131889"
       y="145.82011"
       id="text3605"><tspan
         sodipodi:role="line"
         id="tspan3603"
         style="font-style:normal;font-size:3.52778px;stroke-width:0.264583"
         x="65.528763"
         y="145.82011">0</tspan></text><text
       xml:space="preserve"
       style="font-size:3.52778px;line-height:0.65;font-family:'EB Garamond';-inkscape-font-specification:'EB Garamond, Normal';text-align:end;letter-spacing:0.396875px;word-spacing:0px;text-anchor:end;stroke-width:0.264583"
       x="65.131889"
       y="111.42426"
       id="text3609"><tspan
         sodipodi:role="line"
         id="tspan3607"
         style="font-style:italic;font-size:3.52778px;stroke-width:0.264583"
         x="65.528763"
         y="111.42426">g</tspan></text><g
       id="surface1"
       transform="matrix(0.08616158,0,0,0.08616158,78.084506,116.14659)"><g
         style="fill:#000000;fill-opacity:1"
         id="g5480"><use
           xlink:href="#glyph0-1"
           x="-1.9216"
           y="30.8482"
           id="use5478" /></g><g
         style="fill:#000000;fill-opacity:1"
         id="g5484"><use
           xlink:href="#glyph1-1"
           x="35.936001"
           y="30.8482"
           id="use5482" /></g><g
         style="fill:#000000;fill-opacity:1"
         id="g5488"><use
           xlink:href="#glyph2-1"
           x="50.638401"
           y="16.041401"
           id="use5486" /></g></g></g></svg>
