<?xml version="1.0" encoding="UTF-8" standalone="no"?>
<!-- Created with Inkscape (http://www.inkscape.org/) -->

<svg
   width="104.05907mm"
   height="54.564102mm"
   viewBox="0 0 104.05907 54.564102"
   version="1.1"
   id="svg31269"
   xml:space="preserve"
   inkscape:version="1.2.2 (b0a8486, 2022-12-01)"
   sodipodi:docname="genes1.svg"
   xmlns:inkscape="http://www.inkscape.org/namespaces/inkscape"
   xmlns:sodipodi="http://sodipodi.sourceforge.net/DTD/sodipodi-0.dtd"
   xmlns="http://www.w3.org/2000/svg"
   xmlns:svg="http://www.w3.org/2000/svg"><sodipodi:namedview
     id="namedview31271"
     pagecolor="#ffffff"
     bordercolor="#666666"
     borderopacity="1.0"
     inkscape:showpageshadow="2"
     inkscape:pageopacity="0.0"
     inkscape:pagecheckerboard="0"
     inkscape:deskcolor="#d1d1d1"
     inkscape:document-units="mm"
     showgrid="false"
     inkscape:zoom="0.92020382"
     inkscape:cx="191.80533"
     inkscape:cy="93.457556"
     inkscape:window-width="1440"
     inkscape:window-height="878"
     inkscape:window-x="0"
     inkscape:window-y="0"
     inkscape:window-maximized="1"
     inkscape:current-layer="layer1"><inkscape:grid
       type="xygrid"
       id="grid6823"
       originx="-94.639454"
       originy="-172.24887" /></sodipodi:namedview><defs
     id="defs31266"><marker
       style="overflow:visible"
       id="Arrow1L"
       refX="0"
       refY="0"
       orient="auto-start-reverse"
       inkscape:stockid="Arrow1L"
       markerWidth="8.75"
       markerHeight="5"
       viewBox="0 0 8.75 5"
       inkscape:isstock="true"
       inkscape:collect="always"
       preserveAspectRatio="xMidYMid"><path
         style="fill:context-stroke;fill-rule:evenodd;stroke:none"
         d="M 0,0 5,-5 -12.5,0 5,5 Z"
         id="arrow1L"
         transform="scale(-0.5)" /></marker></defs><g
     inkscape:label="Layer 1"
     inkscape:groupmode="layer"
     id="layer1"
     transform="translate(-94.639448,-172.24887)"><ellipse
       style="font-variation-settings:normal;vector-effect:none;fill:#f9f9f9;fill-opacity:1;stroke:#333333;stroke-width:0.4;stroke-linecap:round;stroke-linejoin:miter;stroke-miterlimit:4;stroke-dasharray:none;stroke-dashoffset:0;stroke-opacity:1;-inkscape-stroke:none;paint-order:normal;stop-color:#000000"
       id="ellipse27729"
       cx="105.21016"
       cy="200.577"
       rx="4.9719725"
       ry="4.8847442" /><rect
       style="font-variation-settings:normal;vector-effect:none;fill:none;fill-opacity:1;stroke:#333333;stroke-width:0.221622;stroke-linecap:round;stroke-linejoin:miter;stroke-miterlimit:4;stroke-dasharray:none;stroke-dashoffset:0;stroke-opacity:1;-inkscape-stroke:none;paint-order:stroke markers fill;stop-color:#000000"
       id="rect27667"
       width="48.181263"
       height="47.7099"
       x="94.750259"
       y="175.14679" /><ellipse
       style="font-variation-settings:normal;vector-effect:none;fill:#f9f9f9;fill-opacity:1;stroke:#333333;stroke-width:0.4;stroke-linecap:round;stroke-linejoin:miter;stroke-miterlimit:4;stroke-dasharray:none;stroke-dashoffset:0;stroke-opacity:1;-inkscape-stroke:none;paint-order:normal;stop-color:#000000"
       id="path27721"
       cx="120.05592"
       cy="186.19516"
       rx="4.9719725"
       ry="4.8847442" /><ellipse
       style="font-variation-settings:normal;vector-effect:none;fill:#f9f9f9;fill-opacity:1;stroke:#333333;stroke-width:0.4;stroke-linecap:round;stroke-linejoin:miter;stroke-miterlimit:4;stroke-dasharray:none;stroke-dashoffset:0;stroke-opacity:1;-inkscape-stroke:none;paint-order:normal;stop-color:#000000"
       id="ellipse27723"
       cx="135.22536"
       cy="186.19516"
       rx="4.9719725"
       ry="4.8847442" /><ellipse
       style="font-variation-settings:normal;vector-effect:none;fill:#f9f9f9;fill-opacity:1;stroke:#333333;stroke-width:0.4;stroke-linecap:round;stroke-linejoin:miter;stroke-miterlimit:4;stroke-dasharray:none;stroke-dashoffset:0;stroke-opacity:1;-inkscape-stroke:none;paint-order:normal;stop-color:#000000"
       id="ellipse27731"
       cx="105.21016"
       cy="215.04089"
       rx="4.9719725"
       ry="4.8847442" /><rect
       style="font-variation-settings:normal;vector-effect:none;fill:#fff6d5;fill-opacity:1;stroke:#333333;stroke-width:0.4;stroke-linecap:round;stroke-linejoin:miter;stroke-miterlimit:4;stroke-dasharray:none;stroke-dashoffset:0;stroke-opacity:1;-inkscape-stroke:none;paint-order:normal;stop-color:#000000"
       id="rect27737"
       width="12.990038"
       height="12.990038"
       x="113.93337"
       y="194.14714" /><rect
       style="font-variation-settings:normal;vector-effect:none;fill:#fff6d5;fill-opacity:1;stroke:#333333;stroke-width:0.4;stroke-linecap:round;stroke-linejoin:miter;stroke-miterlimit:4;stroke-dasharray:none;stroke-dashoffset:0;stroke-opacity:1;-inkscape-stroke:none;paint-order:normal;stop-color:#000000"
       id="rect27739"
       width="12.990038"
       height="12.990038"
       x="113.93337"
       y="208.52898" /><rect
       style="font-variation-settings:normal;vector-effect:none;fill:#fff6d5;fill-opacity:1;stroke:#333333;stroke-width:0.4;stroke-linecap:round;stroke-linejoin:miter;stroke-miterlimit:4;stroke-dasharray:none;stroke-dashoffset:0;stroke-opacity:1;-inkscape-stroke:none;paint-order:normal;stop-color:#000000"
       id="rect27745"
       width="12.990038"
       height="12.990038"
       x="128.75003"
       y="194.14714" /><rect
       style="font-variation-settings:normal;vector-effect:none;fill:#008080;fill-opacity:1;stroke:#333333;stroke-width:0.4;stroke-linecap:round;stroke-linejoin:miter;stroke-miterlimit:4;stroke-dasharray:none;stroke-dashoffset:0;stroke-opacity:1;-inkscape-stroke:none;paint-order:normal;stop-color:#000000"
       id="rect27747"
       width="12.990038"
       height="12.990038"
       x="128.75003"
       y="208.52898" /><text
       xml:space="preserve"
       style="font-size:3.88056px;line-height:0.65;font-family:'EB Garamond';-inkscape-font-specification:'EB Garamond, Normal';text-align:end;letter-spacing:0px;word-spacing:0px;text-anchor:end;stroke-width:0.264583"
       x="138.59044"
       y="178.54053"
       id="text27771"><tspan
         sodipodi:role="line"
         id="tspan27769"
         style="font-size:3.88056px;stroke-width:0.264583"
         x="138.59044"
         y="178.54053">Female gametes</tspan></text><text
       xml:space="preserve"
       style="font-size:3.88056px;line-height:0.65;font-family:'EB Garamond';-inkscape-font-specification:'EB Garamond, Normal';text-align:end;letter-spacing:0px;word-spacing:0px;text-anchor:end;stroke-width:0.264583"
       x="-198.33267"
       y="97.954384"
       id="text27775"
       transform="rotate(-90)"><tspan
         sodipodi:role="line"
         id="tspan27773"
         style="font-size:3.88056px;stroke-width:0.264583"
         x="-198.33267"
         y="97.954384">Male gametes</tspan></text><text
       xml:space="preserve"
       style="font-size:3.88056px;line-height:0.65;font-family:'EB Garamond';-inkscape-font-specification:'EB Garamond, Normal';text-align:end;letter-spacing:0px;word-spacing:0px;text-anchor:end;stroke-width:0.264583"
       x="121.39278"
       y="187.44652"
       id="text27779"><tspan
         sodipodi:role="line"
         id="tspan27777"
         style="font-size:3.88056px;stroke-width:0.264583"
         x="121.39278"
         y="187.44652">A</tspan></text><text
       xml:space="preserve"
       style="font-size:3.88056px;line-height:0.65;font-family:'EB Garamond';-inkscape-font-specification:'EB Garamond, Normal';text-align:end;letter-spacing:0px;word-spacing:0px;text-anchor:end;stroke-width:0.264583"
       x="135.92967"
       y="186.97127"
       id="text27837"><tspan
         sodipodi:role="line"
         id="tspan27835"
         style="font-size:3.88056px;stroke-width:0.264583"
         x="135.92967"
         y="186.97127">a</tspan></text><text
       xml:space="preserve"
       style="font-size:3.88056px;line-height:0.65;font-family:'EB Garamond';-inkscape-font-specification:'EB Garamond, Normal';text-align:end;letter-spacing:0px;word-spacing:0px;text-anchor:end;fill:#333333;stroke-width:0.264583"
       x="106.54701"
       y="201.89833"
       id="text27849"><tspan
         sodipodi:role="line"
         id="tspan27847"
         style="font-size:3.88056px;fill:#333333;stroke-width:0.264583"
         x="106.54701"
         y="201.89833">A</tspan></text><text
       xml:space="preserve"
       style="font-size:3.88056px;line-height:0.65;font-family:'EB Garamond';-inkscape-font-specification:'EB Garamond, Normal';text-align:end;letter-spacing:0px;word-spacing:0px;text-anchor:end;stroke-width:0.264583"
       x="105.91447"
       y="215.817"
       id="text27853"><tspan
         sodipodi:role="line"
         id="tspan27851"
         style="font-size:3.88056px;stroke-width:0.264583"
         x="105.91447"
         y="215.817">a</tspan></text><ellipse
       style="font-variation-settings:normal;vector-effect:none;fill:#f9f9f9;fill-opacity:1;stroke:#333333;stroke-width:0.4;stroke-linecap:round;stroke-linejoin:miter;stroke-miterlimit:4;stroke-dasharray:none;stroke-dashoffset:0;stroke-opacity:1;-inkscape-stroke:none;paint-order:normal;stop-color:#000000"
       id="ellipse27863"
       cx="120.42839"
       cy="200.64217"
       rx="4.9719725"
       ry="4.8847442" /><text
       xml:space="preserve"
       style="font-size:3.175px;line-height:0.65;font-family:'EB Garamond';-inkscape-font-specification:'EB Garamond, Normal';text-align:end;letter-spacing:0px;word-spacing:0px;text-anchor:end;stroke-width:0.264583"
       x="122.98585"
       y="201.70895"
       id="text27867"><tspan
         sodipodi:role="line"
         id="tspan27865"
         style="font-size:3.175px;stroke-width:0.264583"
         x="122.98585"
         y="201.70895">A.A</tspan></text><ellipse
       style="font-variation-settings:normal;vector-effect:none;fill:#f9f9f9;fill-opacity:1;stroke:#333333;stroke-width:0.4;stroke-linecap:round;stroke-linejoin:miter;stroke-miterlimit:4;stroke-dasharray:none;stroke-dashoffset:0;stroke-opacity:1;-inkscape-stroke:none;paint-order:normal;stop-color:#000000"
       id="ellipse29431"
       cx="120.42839"
       cy="214.92964"
       rx="4.9719725"
       ry="4.8847442" /><text
       xml:space="preserve"
       style="font-size:3.175px;line-height:0.65;font-family:'EB Garamond';-inkscape-font-specification:'EB Garamond, Normal';text-align:end;letter-spacing:0px;word-spacing:0px;text-anchor:end;stroke-width:0.264583"
       x="122.4588"
       y="215.99644"
       id="text29435"><tspan
         sodipodi:role="line"
         id="tspan29433"
         style="font-size:3.175px;stroke-width:0.264583"
         x="122.4588"
         y="215.99644">a.A</tspan></text><ellipse
       style="font-variation-settings:normal;vector-effect:none;fill:#f9f9f9;fill-opacity:1;stroke:#333333;stroke-width:0.4;stroke-linecap:round;stroke-linejoin:miter;stroke-miterlimit:4;stroke-dasharray:none;stroke-dashoffset:0;stroke-opacity:1;-inkscape-stroke:none;paint-order:normal;stop-color:#000000"
       id="ellipse29449"
       cx="135.24506"
       cy="215.02399"
       rx="4.9719725"
       ry="4.8847442" /><text
       xml:space="preserve"
       style="font-size:3.175px;line-height:0.65;font-family:'EB Garamond';-inkscape-font-specification:'EB Garamond, Normal';text-align:end;letter-spacing:0px;word-spacing:0px;text-anchor:end;stroke-width:0.264583"
       x="136.79602"
       y="215.659"
       id="text29453"><tspan
         sodipodi:role="line"
         id="tspan29451"
         style="font-size:3.175px;stroke-width:0.264583"
         x="136.79602"
         y="215.659">a.a</tspan></text><ellipse
       style="font-variation-settings:normal;vector-effect:none;fill:#f9f9f9;fill-opacity:1;stroke:#333333;stroke-width:0.4;stroke-linecap:round;stroke-linejoin:miter;stroke-miterlimit:4;stroke-dasharray:none;stroke-dashoffset:0;stroke-opacity:1;-inkscape-stroke:none;paint-order:normal;stop-color:#000000"
       id="ellipse29503"
       cx="135.24506"
       cy="200.64217"
       rx="4.9719725"
       ry="4.8847442" /><text
       xml:space="preserve"
       style="font-size:3.175px;line-height:0.65;font-family:'EB Garamond';-inkscape-font-specification:'EB Garamond, Normal';text-align:end;letter-spacing:0px;word-spacing:0px;text-anchor:end;stroke-width:0.264583"
       x="137.32309"
       y="201.70897"
       id="text29507"><tspan
         sodipodi:role="line"
         id="tspan29505"
         style="font-size:3.175px;stroke-width:0.264583"
         x="137.32309"
         y="201.70897">A.a</tspan></text><path
       id="rect389"
       style="fill:none;stroke:#333333;stroke-width:0.4;stroke-linecap:round;-inkscape-stroke:none;stop-color:#000000"
       d="m 172.76979,179.86218 c -0.23578,-1.18556 -1.05926,-2.01438 -1.99988,-2.04278 h -15.47967 c -1.108,0 -2.0004,0.89188 -2.0004,1.99988"
       sodipodi:nodetypes="ccsc" /><path
       id="path600"
       style="fill:none;stroke:#333333;stroke-width:0.4;stroke-linecap:round;-inkscape-stroke:none;stop-color:#000000"
       d="m 196.41814,180.92052 c -0.23578,-1.18556 -1.05926,-2.01438 -1.99988,-2.04278 h -15.47967 c -1.108,0 -2.0004,0.89188 -2.0004,1.99988"
       sodipodi:nodetypes="ccsc" /><ellipse
       style="font-variation-settings:normal;vector-effect:none;fill:#f9f9f9;fill-opacity:1;stroke:#333333;stroke-width:0.335426;stroke-linecap:round;stroke-linejoin:miter;stroke-miterlimit:4;stroke-dasharray:none;stroke-dashoffset:0;stroke-opacity:1;-inkscape-stroke:none;paint-order:normal;stop-color:#000000"
       id="ellipse712"
       cx="156.51489"
       cy="184.16302"
       rx="4.1693168"
       ry="4.0961704" /><ellipse
       style="font-variation-settings:normal;vector-effect:none;fill:#f9f9f9;fill-opacity:1;stroke:#333333;stroke-width:0.335426;stroke-linecap:round;stroke-linejoin:miter;stroke-miterlimit:4;stroke-dasharray:none;stroke-dashoffset:0;stroke-opacity:1;-inkscape-stroke:none;paint-order:normal;stop-color:#000000"
       id="ellipse714"
       cx="168.76427"
       cy="184.16302"
       rx="4.1693168"
       ry="4.0961704" /><ellipse
       style="font-variation-settings:normal;vector-effect:none;fill:#f9f9f9;fill-opacity:1;stroke:#333333;stroke-width:0.335426;stroke-linecap:round;stroke-linejoin:miter;stroke-miterlimit:4;stroke-dasharray:none;stroke-dashoffset:0;stroke-opacity:1;-inkscape-stroke:none;paint-order:normal;stop-color:#000000"
       id="ellipse716"
       cx="180.32738"
       cy="184.16302"
       rx="4.1693168"
       ry="4.0961704" /><g
       id="g1324"
       transform="translate(54.215018,74.733411)"><circle
         style="font-variation-settings:normal;fill:#f9f9f9;fill-opacity:1;stroke:#333333;stroke-width:0.3;stroke-linecap:round;stroke-linejoin:miter;stroke-miterlimit:4;stroke-dasharray:none;stroke-dashoffset:0;stroke-opacity:1;paint-order:normal;stop-color:#000000"
         id="ellipse766"
         cx="139.048"
         cy="142.23795"
         r="5.2854981" /><ellipse
         style="font-variation-settings:normal;fill:#f9f9f9;fill-opacity:1;stroke:#333333;stroke-width:0.3;stroke-linecap:round;stroke-linejoin:miter;stroke-miterlimit:4;stroke-dasharray:none;stroke-dashoffset:0;stroke-opacity:1;paint-order:normal;stop-color:#000000"
         id="ellipse718"
         cx="139.048"
         cy="142.23795"
         rx="4.1693168"
         ry="4.0961704" /></g><ellipse
       style="font-variation-settings:normal;vector-effect:none;fill:#f9f9f9;fill-opacity:1;stroke:#333333;stroke-width:0.335426;stroke-linecap:round;stroke-linejoin:miter;stroke-miterlimit:4;stroke-dasharray:none;stroke-dashoffset:0;stroke-opacity:1;-inkscape-stroke:none;paint-order:normal;stop-color:#000000"
       id="ellipse2052"
       cx="193.26302"
       cy="184.16302"
       rx="4.1693168"
       ry="4.0961704" /><g
       id="g2167"
       transform="translate(41.965643,74.733411)"><circle
         style="font-variation-settings:normal;fill:#f9f9f9;fill-opacity:1;stroke:#333333;stroke-width:0.3;stroke-linecap:round;stroke-linejoin:miter;stroke-miterlimit:4;stroke-dasharray:none;stroke-dashoffset:0;stroke-opacity:1;paint-order:normal;stop-color:#000000"
         id="circle2163"
         cx="139.048"
         cy="142.23795"
         r="5.2854981" /><ellipse
         style="font-variation-settings:normal;fill:#f9f9f9;fill-opacity:1;stroke:#333333;stroke-width:0.3;stroke-linecap:round;stroke-linejoin:miter;stroke-miterlimit:4;stroke-dasharray:none;stroke-dashoffset:0;stroke-opacity:1;paint-order:normal;stop-color:#000000"
         id="ellipse2165"
         cx="139.048"
         cy="142.23795"
         rx="4.1693168"
         ry="4.0961704" /></g><g
       id="g2173"
       transform="translate(29.716269,74.733411)"><circle
         style="font-variation-settings:normal;fill:#f9f9f9;fill-opacity:1;stroke:#333333;stroke-width:0.3;stroke-linecap:round;stroke-linejoin:miter;stroke-miterlimit:4;stroke-dasharray:none;stroke-dashoffset:0;stroke-opacity:1;paint-order:normal;stop-color:#000000"
         id="circle2169"
         cx="139.048"
         cy="142.23795"
         r="5.2854981" /><ellipse
         style="font-variation-settings:normal;fill:#f9f9f9;fill-opacity:1;stroke:#333333;stroke-width:0.3;stroke-linecap:round;stroke-linejoin:miter;stroke-miterlimit:4;stroke-dasharray:none;stroke-dashoffset:0;stroke-opacity:1;paint-order:normal;stop-color:#000000"
         id="ellipse2171"
         cx="139.048"
         cy="142.23795"
         rx="4.1693168"
         ry="4.0961704" /></g><g
       id="g2179"
       transform="translate(17.466895,74.733411)"><circle
         style="font-variation-settings:normal;fill:#f9f9f9;fill-opacity:1;stroke:#333333;stroke-width:0.3;stroke-linecap:round;stroke-linejoin:miter;stroke-miterlimit:4;stroke-dasharray:none;stroke-dashoffset:0;stroke-opacity:1;paint-order:normal;stop-color:#000000"
         id="circle2175"
         cx="139.048"
         cy="142.23795"
         r="5.2854981" /><ellipse
         style="font-variation-settings:normal;fill:#f9f9f9;fill-opacity:1;stroke:#333333;stroke-width:0.3;stroke-linecap:round;stroke-linejoin:miter;stroke-miterlimit:4;stroke-dasharray:none;stroke-dashoffset:0;stroke-opacity:1;paint-order:normal;stop-color:#000000"
         id="ellipse2177"
         cx="139.048"
         cy="142.23795"
         rx="4.1693168"
         ry="4.0961704" /></g><path
       style="fill:none;stroke:#000000;stroke-width:0.5;stroke-linecap:butt;stroke-linejoin:miter;stroke-dasharray:none;stroke-opacity:1;marker-end:url(#Arrow1L)"
       d="M 193.26302,188.25919 V 208.523"
       id="path2244"
       sodipodi:nodetypes="cc" /><path
       style="fill:none;stroke:#000000;stroke-width:0.5;stroke-linecap:butt;stroke-linejoin:miter;stroke-dasharray:none;stroke-opacity:1;marker-end:url(#Arrow1L)"
       d="m 193.26302,188.25919 -10.61821,20.79095"
       id="path2463"
       sodipodi:nodetypes="cc" /><path
       style="fill:none;stroke:#000000;stroke-width:0.5;stroke-linecap:butt;stroke-linejoin:miter;stroke-dasharray:none;stroke-opacity:1;marker-end:url(#Arrow1L)"
       d="M 181.46956,188.25919 170.63762,209.1698"
       id="path2467"
       sodipodi:nodetypes="cc" /><path
       style="fill:none;stroke:#000000;stroke-width:0.5;stroke-linecap:butt;stroke-linejoin:miter;stroke-dasharray:none;stroke-opacity:1;marker-end:url(#Arrow1L)"
       d="m 181.46956,188.25919 -22.68121,21.17288"
       id="path2471"
       sodipodi:nodetypes="cc" /><path
       style="fill:none;stroke:#000000;stroke-width:0.5;stroke-linecap:butt;stroke-linejoin:miter;stroke-dasharray:none;stroke-opacity:1;marker-end:url(#Arrow1L)"
       d="m 168.76427,188.25919 22.23786,21.17177"
       id="path2475"
       sodipodi:nodetypes="cc" /><path
       style="fill:none;stroke:#000000;stroke-width:0.5;stroke-linecap:butt;stroke-linejoin:miter;stroke-dasharray:none;stroke-opacity:1;marker-end:url(#Arrow1L)"
       d="m 168.76427,188.25919 -0.24818,20.53711"
       id="path2479"
       sodipodi:nodetypes="cc" /><path
       style="fill:none;stroke:#000000;stroke-width:0.5;stroke-linecap:butt;stroke-linejoin:miter;stroke-dasharray:none;stroke-opacity:1;marker-end:url(#Arrow1L)"
       d="m 156.5149,188.25919 v 20.21564"
       id="path2487"
       sodipodi:nodetypes="cc" /><path
       style="fill:none;stroke:#000000;stroke-width:0.5;stroke-linecap:butt;stroke-linejoin:miter;stroke-dasharray:none;stroke-opacity:1;marker-end:url(#Arrow1L)"
       d="m 156.5149,188.25919 22.76848,21.32699"
       id="path2491"
       sodipodi:nodetypes="cc" /><rect
       style="fill:#00ccff;stroke:#333333;stroke-width:0.25;stroke-linecap:round;stroke-dasharray:none;stop-color:#000000"
       id="rect710"
       width="1.3359047"
       height="7.337924"
       x="168.09631"
       y="180.49406"
       rx="1.6274431"
       ry="1.6866604" /><rect
       style="fill:#00ccff;stroke:#333333;stroke-width:0.25;stroke-linecap:round;stroke-dasharray:none;stop-color:#000000"
       id="rect2495"
       width="1.3359047"
       height="7.337924"
       x="192.59506"
       y="180.49406"
       rx="1.6274431"
       ry="1.6866604" /><rect
       style="fill:#ff0000;stroke:#333333;stroke-width:0.25;stroke-linecap:round;stroke-dasharray:none;stop-color:#000000"
       id="rect2497"
       width="1.3359047"
       height="7.337924"
       x="179.65942"
       y="180.49406"
       rx="1.6274431"
       ry="1.6866604" /><g
       id="g5818"
       transform="translate(-26.964821,74.733411)"><rect
         style="fill:#ff0000;stroke:#333333;stroke-width:0.25;stroke-linecap:round;stroke-dasharray:none;stop-color:#000000"
         id="rect2499"
         width="1.3359047"
         height="7.337924"
         x="181.75345"
         y="138.56897"
         rx="1.6274431"
         ry="1.6866604" /><rect
         style="fill:#ff0000;stroke:#333333;stroke-width:0.25;stroke-linecap:round;stroke-dasharray:none;stop-color:#000000"
         id="rect2501"
         width="1.3359047"
         height="7.337924"
         x="183.87009"
         y="138.56897"
         rx="1.6274431"
         ry="1.6866604" /></g><g
       id="g5814"
       transform="translate(-26.886269,74.733411)"><rect
         style="fill:#00ccff;fill-opacity:1;stroke:#333333;stroke-width:0.25;stroke-linecap:round;stroke-dasharray:none;stop-color:#000000"
         id="rect2503"
         width="1.3359047"
         height="7.337924"
         x="193.92427"
         y="138.56897"
         rx="1.6274431"
         ry="1.6866604" /><rect
         style="fill:#ff0000;stroke:#333333;stroke-width:0.25;stroke-linecap:round;stroke-dasharray:none;stop-color:#000000"
         id="rect2505"
         width="1.3359047"
         height="7.337924"
         x="196.04091"
         y="138.56897"
         rx="1.6274431"
         ry="1.6866604" /></g><g
       id="g5810"
       transform="translate(-26.807717,74.733411)"><rect
         style="fill:#ff0000;stroke:#333333;stroke-width:0.25;stroke-linecap:round;stroke-dasharray:none;stop-color:#000000"
         id="rect2507"
         width="1.3359047"
         height="7.337924"
         x="206.09509"
         y="138.56897"
         rx="1.6274431"
         ry="1.6866604" /><rect
         style="fill:#00ccff;fill-opacity:1;stroke:#333333;stroke-width:0.25;stroke-linecap:round;stroke-dasharray:none;stop-color:#000000"
         id="rect2509"
         width="1.3359047"
         height="7.337924"
         x="208.21173"
         y="138.56897"
         rx="1.6274431"
         ry="1.6866604" /></g><g
       id="g5822"
       transform="translate(-27.78756,74.733411)"><rect
         style="fill:#00ccff;fill-opacity:1;stroke:#333333;stroke-width:0.25;stroke-linecap:round;stroke-dasharray:none;stop-color:#000000"
         id="rect2511"
         width="1.3359047"
         height="7.337924"
         x="219.32431"
         y="138.56897"
         rx="1.6274431"
         ry="1.6866604" /><rect
         style="fill:#00ccff;fill-opacity:1;stroke:#333333;stroke-width:0.25;stroke-linecap:round;stroke-dasharray:none;stop-color:#000000"
         id="rect2513"
         width="1.3359047"
         height="7.337924"
         x="221.44095"
         y="138.56897"
         rx="1.6274431"
         ry="1.6866604" /></g><rect
       style="fill:#ff0000;stroke:#333333;stroke-width:0.25;stroke-linecap:round;stroke-dasharray:none;stop-color:#000000"
       id="rect4240"
       width="1.3359047"
       height="7.337924"
       x="155.84694"
       y="180.49406"
       rx="1.6274431"
       ry="1.6866604" /><text
       xml:space="preserve"
       style="font-size:3.88056px;line-height:0.65;font-family:'EB Garamond';-inkscape-font-specification:'EB Garamond, Normal';text-align:end;letter-spacing:0px;word-spacing:0px;text-anchor:end;stroke-width:0.264583"
       x="198.82269"
       y="174.98466"
       id="text4244"><tspan
         sodipodi:role="line"
         id="tspan4242"
         style="font-size:3.88056px;stroke-width:0.264583"
         x="198.82269"
         y="174.98466">Female gametes</tspan></text><text
       xml:space="preserve"
       style="font-size:3.88056px;line-height:0.65;font-family:'EB Garamond';-inkscape-font-specification:'EB Garamond, Normal';text-align:end;letter-spacing:0px;word-spacing:0px;text-anchor:end;stroke-width:0.264583"
       x="173.02611"
       y="174.98466"
       id="text4248"><tspan
         sodipodi:role="line"
         id="tspan4246"
         style="font-size:3.88056px;stroke-width:0.264583"
         x="173.02611"
         y="174.98466">Male gametes</tspan></text><path
       style="fill:none;stroke:#000000;stroke-width:0.335;stroke-linecap:round;stroke-linejoin:round;stroke-dasharray:none;stroke-opacity:1"
       d="m 153.35523,186.91675 c 0,0 -1.32292,0.69928 -1.32292,1.32291 0,0.62363 1.32292,0.69929 1.32292,1.32292 0,0.62363 -1.32292,0.69929 -1.32292,1.32292 0,0.62363 1.08427,0.74675 1.32292,1.32291 0.135,0.32593 0,1.05834 0,1.05834"
       id="path6825"
       sodipodi:nodetypes="caaaac" /><path
       style="fill:none;stroke:#000000;stroke-width:0.335;stroke-linecap:round;stroke-linejoin:round;stroke-dasharray:none;stroke-opacity:1"
       d="m 165.52606,186.91675 c 0,0 -1.32292,0.69928 -1.32292,1.32291 0,0.62363 1.32292,0.69929 1.32292,1.32292 0,0.62363 -1.32292,0.69929 -1.32292,1.32292 0,0.62363 1.08427,0.74675 1.32292,1.32291 0.135,0.32593 0,1.05834 0,1.05834"
       id="path6827"
       sodipodi:nodetypes="caaaac" /><text
       xml:space="preserve"
       style="font-size:3.88056px;line-height:0.65;font-family:'EB Garamond';-inkscape-font-specification:'EB Garamond, Normal';text-align:end;letter-spacing:0px;word-spacing:0px;text-anchor:end;fill:#ff0000;fill-opacity:1;stroke-width:0.264583"
       x="151.77104"
       y="185.48436"
       id="text6920"><tspan
         sodipodi:role="line"
         id="tspan6918"
         style="font-size:3.88056px;fill:#ff0000;fill-opacity:1;stroke-width:0.264583"
         x="151.77104"
         y="185.48436">A</tspan></text><text
       xml:space="preserve"
       style="font-size:3.88056px;line-height:0.65;font-family:'EB Garamond';-inkscape-font-specification:'EB Garamond, Normal';text-align:end;letter-spacing:0px;word-spacing:0px;text-anchor:end;fill:#ff0000;fill-opacity:1;stroke-width:0.264583"
       x="175.99489"
       y="185.48436"
       id="text6924"><tspan
         sodipodi:role="line"
         id="tspan6922"
         style="font-size:3.88056px;fill:#ff0000;fill-opacity:1;stroke-width:0.264583"
         x="175.99489"
         y="185.48436">A</tspan></text><text
       xml:space="preserve"
       style="font-size:3.88056px;line-height:0.65;font-family:'EB Garamond';-inkscape-font-specification:'EB Garamond, Normal';text-align:end;letter-spacing:0px;word-spacing:0px;text-anchor:end;fill:#00ccff;fill-opacity:1;stroke-width:0.264583"
       x="163.34389"
       y="184.93913"
       id="text6928"><tspan
         sodipodi:role="line"
         id="tspan6926"
         style="font-size:3.88056px;fill:#00ccff;fill-opacity:1;stroke-width:0.264583"
         x="163.34389"
         y="184.93913">a</tspan></text><text
       xml:space="preserve"
       style="font-size:3.88056px;line-height:0.65;font-family:'EB Garamond';-inkscape-font-specification:'EB Garamond, Normal';text-align:end;letter-spacing:0px;word-spacing:0px;text-anchor:end;fill:#00ccff;fill-opacity:1;stroke-width:0.264583"
       x="188.21469"
       y="184.93913"
       id="text6932"><tspan
         sodipodi:role="line"
         id="tspan6930"
         style="font-size:3.88056px;fill:#00ccff;fill-opacity:1;stroke-width:0.264583"
         x="188.21469"
         y="184.93913">a</tspan></text><text
       xml:space="preserve"
       style="font-size:3.175px;line-height:0.65;font-family:'EB Garamond';-inkscape-font-specification:'EB Garamond, Normal';text-align:end;letter-spacing:0px;word-spacing:0px;text-anchor:end;fill:#ff0000;fill-opacity:1;stroke-width:0.264583"
       x="158.80699"
       y="225.86699"
       id="text7419"><tspan
         sodipodi:role="line"
         id="tspan7417"
         style="font-size:3.175px;fill:#ff0000;fill-opacity:1;stroke-width:0.264583"
         x="158.80699"
         y="225.86699">A<tspan
   style="fill:#333333"
   id="tspan7630">.</tspan>A</tspan></text><text
       xml:space="preserve"
       style="font-size:3.175px;line-height:0.65;font-family:'EB Garamond';-inkscape-font-specification:'EB Garamond, Normal';text-align:end;letter-spacing:0px;word-spacing:0px;text-anchor:end;fill:#00ccff;fill-opacity:1;stroke-width:0.264583"
       x="177.54773"
       y="226.08908"
       id="text7636"><tspan
         sodipodi:role="line"
         id="tspan7634"
         style="font-size:3.175px;fill:#00ccff;fill-opacity:1;stroke-width:0.264583"
         x="177.54773"
         y="226.08908"><tspan
   style="fill:#ff0000"
   id="tspan8604">A</tspan><tspan
   style="fill:#333333"
   id="tspan8606">.</tspan>a</tspan></text><text
       xml:space="preserve"
       style="font-size:3.175px;line-height:0.65;font-family:'EB Garamond';-inkscape-font-specification:'EB Garamond, Normal';text-align:end;letter-spacing:0px;word-spacing:0px;text-anchor:end;fill:#00ccff;fill-opacity:1;stroke-width:0.264583"
       x="193.7795"
       y="226.76852"
       id="text8614"><tspan
         sodipodi:role="line"
         id="tspan8612"
         style="font-size:3.175px;fill:#00ccff;fill-opacity:1;stroke-width:0.264583"
         x="193.7795"
         y="226.76852">a<tspan
   style="fill:#333333"
   id="tspan8961">.</tspan>a</tspan></text><path
       style="fill:none;stroke:#000000;stroke-width:0.335;stroke-linecap:round;stroke-linejoin:round;stroke-dasharray:none;stroke-opacity:1"
       d="m 100.66965,202.48674 c 0,0 -1.322923,0.69928 -1.322923,1.32291 0,0.62363 1.322923,0.69929 1.322923,1.32292 0,0.62363 -1.322923,0.69929 -1.322923,1.32292 0,0.62363 1.084273,0.74675 1.322923,1.32291 0.135,0.32593 0,1.05834 0,1.05834"
       id="path9128"
       sodipodi:nodetypes="caaaac" /><path
       style="fill:none;stroke:#000000;stroke-width:0.335;stroke-linecap:round;stroke-linejoin:round;stroke-dasharray:none;stroke-opacity:1"
       d="m 100.23819,215.04089 c 0,0 -1.322926,0.69928 -1.322926,1.32291 0,0.62363 1.322926,0.69929 1.322926,1.32292 0,0.62363 -1.322926,0.69929 -1.322926,1.32292 0,0.62363 1.084273,0.74675 1.322926,1.32291 0.135,0.32593 0,1.05834 0,1.05834"
       id="path9130"
       sodipodi:nodetypes="caaaac" /></g></svg>
