<?xml version="1.0" encoding="UTF-8" standalone="no"?>
<!-- Created with Inkscape (http://www.inkscape.org/) -->

<svg
   width="94.144623mm"
   height="106.02308mm"
   viewBox="0 0 94.144623 106.02308"
   version="1.1"
   id="svg3877"
   xml:space="preserve"
   inkscape:version="1.2.2 (b0a8486, 2022-12-01)"
   sodipodi:docname="interference.svg"
   xmlns:inkscape="http://www.inkscape.org/namespaces/inkscape"
   xmlns:sodipodi="http://sodipodi.sourceforge.net/DTD/sodipodi-0.dtd"
   xmlns:xlink="http://www.w3.org/1999/xlink"
   xmlns="http://www.w3.org/2000/svg"
   xmlns:svg="http://www.w3.org/2000/svg"><sodipodi:namedview
     id="namedview3879"
     pagecolor="#ffffff"
     bordercolor="#666666"
     borderopacity="1.0"
     inkscape:showpageshadow="2"
     inkscape:pageopacity="0.0"
     inkscape:pagecheckerboard="0"
     inkscape:deskcolor="#d1d1d1"
     inkscape:document-units="mm"
     showgrid="false"
     inkscape:zoom="1.7858984"
     inkscape:cx="318.32718"
     inkscape:cy="32.476652"
     inkscape:window-width="1440"
     inkscape:window-height="878"
     inkscape:window-x="0"
     inkscape:window-y="0"
     inkscape:window-maximized="1"
     inkscape:current-layer="layer1"
     showguides="false" /><defs
     id="defs3874"><marker
       style="overflow:visible"
       id="marker7587"
       refX="0"
       refY="0"
       orient="auto-start-reverse"
       inkscape:stockid="Arrow1L"
       markerWidth="8.75"
       markerHeight="5"
       viewBox="0 0 8.75 5"
       inkscape:isstock="true"
       inkscape:collect="always"
       preserveAspectRatio="xMidYMid"><path
         style="fill:context-stroke;fill-rule:evenodd;stroke:none"
         d="M 0,0 5,-5 -12.5,0 5,5 Z"
         id="path7585"
         transform="scale(-0.5)" /></marker><marker
       style="overflow:visible"
       id="Arrow1L"
       refX="0"
       refY="0"
       orient="auto-start-reverse"
       inkscape:stockid="Arrow1L"
       markerWidth="8.75"
       markerHeight="5"
       viewBox="0 0 8.75 5"
       inkscape:isstock="true"
       inkscape:collect="always"
       preserveAspectRatio="xMidYMid"><path
         style="fill:context-stroke;fill-rule:evenodd;stroke:none"
         d="M 0,0 5,-5 -12.5,0 5,5 Z"
         id="arrow1L"
         transform="scale(-0.5)" /></marker><g
       id="g6820"><symbol
         overflow="visible"
         id="glyph0-0"><path
           style="stroke:none"
           d="M 2.1875,0 H 16.53125 V -16.96875 H 2.1875 Z m 1.796875,-1.796875 v -13.375 h 10.75 v 13.375 z m 0,0"
           id="path6796" /></symbol><symbol
         overflow="visible"
         id="glyph0-1"><path
           style="stroke:none"
           d="m 4.546875,0.5 c 1.265625,0 4.171875,-2.1875 5.921875,-4.65625 -0.359375,2.25 0.25,4.65625 1.96875,4.65625 1.6875,0 3.5625,-1.109375 5.484375,-3.375 2.765625,-3.25 4.09375,-6.484375 4.09375,-9.640625 0,-1.65625 -0.53125,-2.546875 -1.03125,-2.546875 -0.765625,0 -2.265625,1.21875 -2.265625,1.96875 0,0.328125 0.390625,0.765625 0.71875,1.296875 0.25,0.421875 0.46875,0.890625 0.46875,1.46875 0,3.90625 -3.484375,8.859375 -6.140625,8.859375 -1.171875,0 -1.4375,-1.46875 -1.078125,-3.65625 0.07813,-0.5 0.40625,-1.71875 0.765625,-2.546875 0.390625,-0.90625 0.8125,-2.1875 1.46875,-3.875 0.359375,-0.9375 0.5,-2.6875 0,-2.6875 -0.96875,0 -1.46875,0.390625 -2.046875,0.75 -0.390625,0.25 -0.6875,0.828125 -0.828125,1.46875 -0.21875,0.90625 -0.9375,4.375 -1.140625,5.34375 -0.21875,1.046875 -3.265625,5.125 -5.09375,5.125 -1.1875,0 -1.609375,-1.109375 -1.046875,-2.75 L 8.03125,-13.65625 c 0.28125,-0.828125 -0.28125,-1.328125 -0.6875,-1.328125 -1.03125,0 -3.296875,1.359375 -5.125,3.546875 -0.421875,0.53125 -0.421875,0.75 -0.421875,0.9375 0,0.140625 0.171875,0.25 0.3125,0.25 0.078125,0 0.359375,-0.07813 0.578125,-0.328125 0.75,-0.859375 1.828125,-1.328125 2.078125,-1.328125 0.390625,0 0.5,0.359375 0.25,1 L 2.875,-5.0625 C 1.546875,-1.4375 2.71875,0.5 4.546875,0.5 Z m 0,0"
           id="path6799" /></symbol><symbol
         overflow="visible"
         id="glyph0-2"><path
           style="stroke:none"
           d="M 0.859375,0.5 C 1.71875,0.5 2.515625,0.21875 3.515625,-0.96875 4.703125,-2.359375 5.84375,-3.9375 7,-5.375 c 0.28125,-0.359375 0.421875,-0.359375 0.5625,0.21875 0.25,1 0.546875,2.25 0.796875,3.25 0.421875,1.578125 0.921875,2.40625 2.25,2.40625 2.078125,0 3.734375,-3.40625 3.734375,-4.734375 0,-0.71875 -0.140625,-0.78125 -0.328125,-0.78125 -0.171875,0 -0.3125,0.140625 -0.453125,0.5 -0.71875,1.75 -1.6875,2.859375 -2.375,2.859375 -0.25,0 -0.578125,-0.203125 -0.75,-0.859375 l -1.21875,-4.40625 c -0.1875,-0.609375 -0.109375,-0.96875 0.0625,-1.25 0.90625,-1.359375 1.6875,-2.296875 2.375,-3.09375 0.828125,-1 1.46875,-1.5 2.046875,-1.5 0.3125,0 0.53125,0.171875 0.78125,0.828125 0.140625,0.359375 0.359375,0.609375 0.640625,0.609375 0.625,0 1.515625,-1.4375 1.484375,-1.96875 -0.04687,-0.578125 -0.90625,-1.546875 -1.828125,-1.546875 -1.296875,0 -2.515625,1.109375 -3.234375,2.109375 l -2.515625,3.59375 c -0.25,0.3125 -0.421875,0.28125 -0.5,-0.078125 l -0.890625,-3.796875 c -0.328125,-1.25 -0.75,-1.828125 -1.515625,-1.828125 -1.578125,0 -3.828125,2.6875 -3.828125,4.09375 0,0.34375 0.0625,0.609375 0.25,0.609375 0.328125,0 0.5,-0.4375 0.609375,-0.578125 0.890625,-1.296875 1.65625,-1.875 2,-1.875 0.296875,0 0.40625,0.07813 0.546875,0.609375 l 1.359375,5.03125 c 0.078125,0.21875 0.078125,0.46875 -0.109375,0.640625 -1.5,1.71875 -2.296875,2.765625 -3.71875,4.234375 -0.296875,0.28125 -0.65625,0.46875 -0.96875,0.421875 -0.296875,0 -0.546875,-0.25 -0.6875,-0.8125 C 1.5,-2.796875 1.359375,-3.125 1,-3.125 c -0.609375,0 -1.609375,1.4375 -1.609375,2.265625 0,0.9375 0.75,1.359375 1.46875,1.359375 z m 0,0"
           id="path6802" /></symbol><symbol
         overflow="visible"
         id="glyph1-0"><path
           style="stroke:none"
           d="M 1.53125,0 H 11.578125 V -11.875 H 1.53125 Z m 1.25,-1.25 v -9.375 h 7.53125 v 9.375 z m 0,0"
           id="path6805" /></symbol><symbol
         overflow="visible"
         id="glyph1-1"><path
           style="stroke:none"
           d="m 0.09375,0.125 c 1.359375,0 1.859375,-0.203125 3.0625,-0.203125 0.9375,0 1.765625,0.171875 3.171875,0.171875 3.84375,0 6.734375,-2 6.734375,-4.921875 0,-2.328125 -1.203125,-3.359375 -3.140625,-4.109375 -0.125,-0.046875 -0.203125,-0.234375 0.078125,-0.25 1.90625,-0.25 4.484375,-1.609375 4.484375,-4 0,-1.75 -1.25,-3.265625 -4.640625,-3.265625 -0.625,0 -1.8125,0.25 -2.5625,0.25 -0.703125,0 -1.046875,-0.125 -1.875,-0.125 -0.40625,0 -0.84375,0.07813 -0.84375,0.3125 0,0.25 0.1875,0.328125 0.6875,0.421875 1.125,0.203125 1.375,0.578125 1,1.8125 L 2.8125,-2.484375 c -0.375,1.203125 -1.1875,1.65625 -2.40625,1.875 C -0.171875,-0.5 -0.5,-0.40625 -0.5,-0.15625 -0.5,0.078125 -0.296875,0.125 0.09375,0.125 Z m 7.0625,-9.4375 c -0.25,0 -0.375,-0.078125 -0.296875,-0.375 l 1.546875,-5.609375 c 0.078125,-0.296875 0.328125,-0.390625 0.953125,-0.390625 1.96875,0 3.09375,1.125 3.09375,2.5 0,1.71875 -1.328125,2.875 -2.984375,3.578125 C 8.65625,-9.4375 7.9375,-9.3125 7.15625,-9.3125 Z M 6.25,-0.53125 C 5.671875,-0.53125 5.34375,-0.796875 5,-1.125 4.59375,-1.484375 4.5625,-2.109375 4.75,-2.71875 L 6.359375,-8.203125 C 6.421875,-8.515625 6.625,-8.6875 6.875,-8.6875 c 2.734375,0 4.140625,1.234375 4.140625,3.546875 0,2.65625 -2.5,4.609375 -4.765625,4.609375 z m 0,0"
           id="path6808" /></symbol><symbol
         overflow="visible"
         id="glyph2-0"><path
           style="stroke:none"
           d="m 1.796875,0 h 14.34375 V -16.96875 H 1.796875 Z m 1.78125,-1.796875 v -13.375 H 14.34375 v 13.375 z m 0,0"
           id="path6811" /></symbol><symbol
         overflow="visible"
         id="glyph2-1"><path
           style="stroke:none"
           d="m 8.5,7.671875 c 0.46875,0 0.96875,-0.28125 0.96875,-0.78125 0,-0.078125 -0.5,-0.609375 -0.546875,-0.6875 -2.1875,-2.546875 -4.515625,-10.1875 -4.515625,-16.28125 0,-6.09375 2.4375,-11.40625 4.625,-13.953125 0.078125,-0.0625 0.46875,-0.609375 0.46875,-0.671875 0,-0.328125 -0.53125,-0.578125 -0.78125,-0.578125 -0.359375,0 -0.765625,0.1875 -0.96875,0.390625 -2.546875,2.546875 -6.3125,9.140625 -6.3125,15.25 0,6.09375 3.90625,14.515625 6.453125,17.0625 0.171875,0.1875 0.390625,0.25 0.609375,0.25 z m 0,0"
           id="path6814" /></symbol><symbol
         overflow="visible"
         id="glyph2-2"><path
           style="stroke:none"
           d="m 2.796875,7.671875 c 0.21875,0 0.4375,-0.0625 0.609375,-0.25 2.546875,-2.546875 6.453125,-10.96875 6.453125,-17.0625 0,-6.109375 -3.765625,-12.703125 -6.3125,-15.25 -0.21875,-0.203125 -0.609375,-0.390625 -0.96875,-0.390625 -0.25,0 -0.78125,0.25 -0.78125,0.578125 0,0.0625 0.390625,0.609375 0.46875,0.671875 2.1875,2.546875 4.625,7.859375 4.625,13.953125 0,6.09375 -2.34375,13.734375 -4.53125,16.28125 -0.03125,0.078125 -0.53125,0.609375 -0.53125,0.6875 0,0.5 0.5,0.78125 0.96875,0.78125 z m 0,0"
           id="path6817" /></symbol></g><g
       id="g6907"><symbol
         overflow="visible"
         id="glyph0-0-0"><path
           style="stroke:none"
           d="M 2.1875,0 H 16.53125 V -16.96875 H 2.1875 Z m 1.796875,-1.796875 v -13.375 h 10.75 v 13.375 z m 0,0"
           id="path6883" /></symbol><symbol
         overflow="visible"
         id="glyph0-1-1"><path
           style="stroke:none"
           d="m 4.546875,0.5 c 1.265625,0 4.171875,-2.1875 5.921875,-4.65625 -0.359375,2.25 0.25,4.65625 1.96875,4.65625 1.6875,0 3.5625,-1.109375 5.484375,-3.375 2.765625,-3.25 4.09375,-6.484375 4.09375,-9.640625 0,-1.65625 -0.53125,-2.546875 -1.03125,-2.546875 -0.765625,0 -2.265625,1.21875 -2.265625,1.96875 0,0.328125 0.390625,0.765625 0.71875,1.296875 0.25,0.421875 0.46875,0.890625 0.46875,1.46875 0,3.90625 -3.484375,8.859375 -6.140625,8.859375 -1.171875,0 -1.4375,-1.46875 -1.078125,-3.65625 0.07813,-0.5 0.40625,-1.71875 0.765625,-2.546875 0.390625,-0.90625 0.8125,-2.1875 1.46875,-3.875 0.359375,-0.9375 0.5,-2.6875 0,-2.6875 -0.96875,0 -1.46875,0.390625 -2.046875,0.75 -0.390625,0.25 -0.6875,0.828125 -0.828125,1.46875 -0.21875,0.90625 -0.9375,4.375 -1.140625,5.34375 -0.21875,1.046875 -3.265625,5.125 -5.09375,5.125 -1.1875,0 -1.609375,-1.109375 -1.046875,-2.75 L 8.03125,-13.65625 c 0.28125,-0.828125 -0.28125,-1.328125 -0.6875,-1.328125 -1.03125,0 -3.296875,1.359375 -5.125,3.546875 -0.421875,0.53125 -0.421875,0.75 -0.421875,0.9375 0,0.140625 0.171875,0.25 0.3125,0.25 0.078125,0 0.359375,-0.07813 0.578125,-0.328125 0.75,-0.859375 1.828125,-1.328125 2.078125,-1.328125 0.390625,0 0.5,0.359375 0.25,1 L 2.875,-5.0625 C 1.546875,-1.4375 2.71875,0.5 4.546875,0.5 Z m 0,0"
           id="path6886" /></symbol><symbol
         overflow="visible"
         id="glyph0-2-3"><path
           style="stroke:none"
           d="M 0.859375,0.5 C 1.71875,0.5 2.515625,0.21875 3.515625,-0.96875 4.703125,-2.359375 5.84375,-3.9375 7,-5.375 c 0.28125,-0.359375 0.421875,-0.359375 0.5625,0.21875 0.25,1 0.546875,2.25 0.796875,3.25 0.421875,1.578125 0.921875,2.40625 2.25,2.40625 2.078125,0 3.734375,-3.40625 3.734375,-4.734375 0,-0.71875 -0.140625,-0.78125 -0.328125,-0.78125 -0.171875,0 -0.3125,0.140625 -0.453125,0.5 -0.71875,1.75 -1.6875,2.859375 -2.375,2.859375 -0.25,0 -0.578125,-0.203125 -0.75,-0.859375 l -1.21875,-4.40625 c -0.1875,-0.609375 -0.109375,-0.96875 0.0625,-1.25 0.90625,-1.359375 1.6875,-2.296875 2.375,-3.09375 0.828125,-1 1.46875,-1.5 2.046875,-1.5 0.3125,0 0.53125,0.171875 0.78125,0.828125 0.140625,0.359375 0.359375,0.609375 0.640625,0.609375 0.625,0 1.515625,-1.4375 1.484375,-1.96875 -0.04687,-0.578125 -0.90625,-1.546875 -1.828125,-1.546875 -1.296875,0 -2.515625,1.109375 -3.234375,2.109375 l -2.515625,3.59375 c -0.25,0.3125 -0.421875,0.28125 -0.5,-0.078125 l -0.890625,-3.796875 c -0.328125,-1.25 -0.75,-1.828125 -1.515625,-1.828125 -1.578125,0 -3.828125,2.6875 -3.828125,4.09375 0,0.34375 0.0625,0.609375 0.25,0.609375 0.328125,0 0.5,-0.4375 0.609375,-0.578125 0.890625,-1.296875 1.65625,-1.875 2,-1.875 0.296875,0 0.40625,0.07813 0.546875,0.609375 l 1.359375,5.03125 c 0.078125,0.21875 0.078125,0.46875 -0.109375,0.640625 -1.5,1.71875 -2.296875,2.765625 -3.71875,4.234375 -0.296875,0.28125 -0.65625,0.46875 -0.96875,0.421875 -0.296875,0 -0.546875,-0.25 -0.6875,-0.8125 C 1.5,-2.796875 1.359375,-3.125 1,-3.125 c -0.609375,0 -1.609375,1.4375 -1.609375,2.265625 0,0.9375 0.75,1.359375 1.46875,1.359375 z m 0,0"
           id="path6889" /></symbol><symbol
         overflow="visible"
         id="glyph1-0-4"><path
           style="stroke:none"
           d="M 1.53125,0 H 11.578125 V -11.875 H 1.53125 Z m 1.25,-1.25 v -9.375 h 7.53125 v 9.375 z m 0,0"
           id="path6892" /></symbol><symbol
         overflow="visible"
         id="glyph1-1-3"><path
           style="stroke:none"
           d="m -0.90625,0.125 c 0.78125,0 2.109375,-0.15625 3.140625,-0.15625 0.859375,0 1.53125,0.0625 1.953125,0.0625 0.40625,0 0.703125,-0.109375 0.703125,-0.328125 0,-0.25 -0.25,-0.4375 -0.625,-0.5625 C 3.6875,-1.046875 3.15625,-1.328125 4.09375,-2.5625 l 2.578125,-3.40625 c 0.265625,-0.359375 0.5625,-0.453125 1.09375,-0.453125 l 2.8125,-0.0625 c 0.46875,0 0.84375,0.1875 0.71875,0.6875 l -0.78125,2.984375 c -0.375,1.40625 -0.796875,1.734375 -2.453125,2.015625 -0.421875,0.0625 -0.75,0.265625 -0.703125,0.5 C 7.40625,-0.09375 7.5625,0 7.953125,0 c 0.5625,0 1.59375,-0.03125 2.5,-0.03125 1.046875,0 2.375,0.15625 3.03125,0.15625 0.546875,0 0.78125,-0.09375 0.78125,-0.296875 0,-0.234375 -0.28125,-0.3125 -0.8125,-0.453125 C 12.5,-0.90625 12.25,-1.453125 12.578125,-3.0625 L 15.1875,-16.171875 c 0.125,-0.65625 0.03125,-0.796875 -0.125,-0.796875 -0.171875,0 -0.265625,0.140625 -0.75,0.671875 -0.40625,0.421875 -0.5,0.671875 -1.203125,0.671875 -0.203125,0 -0.5625,0.578125 -1.15625,1.34375 -3.015625,3.859375 -5.59375,7.484375 -9.3125,11.5625 C 1.8125,-1.78125 0.75,-1.109375 -0.65625,-0.734375 -1.203125,-0.578125 -1.5625,-0.453125 -1.5,-0.203125 -1.453125,0.03125 -1.3125,0.125 -0.90625,0.125 Z M 8.390625,-7.28125 C 7.484375,-7.28125 7.6875,-7.5 7.9375,-7.828125 l 4.46875,-5.953125 c 0.171875,-0.25 0.34375,-0.3125 0.46875,-0.3125 0.1875,0 0.1875,0.1875 0.07813,0.578125 l -1.203125,5.5 c -0.125,0.53125 -0.328125,0.703125 -0.671875,0.703125 z m 0,0"
           id="path6895" /></symbol><symbol
         overflow="visible"
         id="glyph2-0-7"><path
           style="stroke:none"
           d="m 1.796875,0 h 14.34375 V -16.96875 H 1.796875 Z m 1.78125,-1.796875 v -13.375 H 14.34375 v 13.375 z m 0,0"
           id="path6898" /></symbol><symbol
         overflow="visible"
         id="glyph2-1-7"><path
           style="stroke:none"
           d="m 8.5,7.671875 c 0.46875,0 0.96875,-0.28125 0.96875,-0.78125 0,-0.078125 -0.5,-0.609375 -0.546875,-0.6875 -2.1875,-2.546875 -4.515625,-10.1875 -4.515625,-16.28125 0,-6.09375 2.4375,-11.40625 4.625,-13.953125 0.078125,-0.0625 0.46875,-0.609375 0.46875,-0.671875 0,-0.328125 -0.53125,-0.578125 -0.78125,-0.578125 -0.359375,0 -0.765625,0.1875 -0.96875,0.390625 -2.546875,2.546875 -6.3125,9.140625 -6.3125,15.25 0,6.09375 3.90625,14.515625 6.453125,17.0625 0.171875,0.1875 0.390625,0.25 0.609375,0.25 z m 0,0"
           id="path6901" /></symbol><symbol
         overflow="visible"
         id="glyph2-2-5"><path
           style="stroke:none"
           d="m 2.796875,7.671875 c 0.21875,0 0.4375,-0.0625 0.609375,-0.25 2.546875,-2.546875 6.453125,-10.96875 6.453125,-17.0625 0,-6.109375 -3.765625,-12.703125 -6.3125,-15.25 -0.21875,-0.203125 -0.609375,-0.390625 -0.96875,-0.390625 -0.25,0 -0.78125,0.25 -0.78125,0.578125 0,0.0625 0.390625,0.609375 0.46875,0.671875 2.1875,2.546875 4.625,7.859375 4.625,13.953125 0,6.09375 -2.34375,13.734375 -4.53125,16.28125 -0.03125,0.078125 -0.53125,0.609375 -0.53125,0.6875 0,0.5 0.5,0.78125 0.96875,0.78125 z m 0,0"
           id="path6904" /></symbol></g><g
       id="g6988"><symbol
         overflow="visible"
         id="glyph0-0-2"><path
           style="stroke:none"
           d="M 2.1875,0 H 16.53125 V -16.96875 H 2.1875 Z m 1.796875,-1.796875 v -13.375 h 10.75 v 13.375 z m 0,0"
           id="path6970" /></symbol><symbol
         overflow="visible"
         id="glyph0-1-6"><path
           style="stroke:none"
           d="m 4.546875,0.5 c 1.265625,0 4.171875,-2.1875 5.921875,-4.65625 -0.359375,2.25 0.25,4.65625 1.96875,4.65625 1.6875,0 3.5625,-1.109375 5.484375,-3.375 2.765625,-3.25 4.09375,-6.484375 4.09375,-9.640625 0,-1.65625 -0.53125,-2.546875 -1.03125,-2.546875 -0.765625,0 -2.265625,1.21875 -2.265625,1.96875 0,0.328125 0.390625,0.765625 0.71875,1.296875 0.25,0.421875 0.46875,0.890625 0.46875,1.46875 0,3.90625 -3.484375,8.859375 -6.140625,8.859375 -1.171875,0 -1.4375,-1.46875 -1.078125,-3.65625 0.07813,-0.5 0.40625,-1.71875 0.765625,-2.546875 0.390625,-0.90625 0.8125,-2.1875 1.46875,-3.875 0.359375,-0.9375 0.5,-2.6875 0,-2.6875 -0.96875,0 -1.46875,0.390625 -2.046875,0.75 -0.390625,0.25 -0.6875,0.828125 -0.828125,1.46875 -0.21875,0.90625 -0.9375,4.375 -1.140625,5.34375 -0.21875,1.046875 -3.265625,5.125 -5.09375,5.125 -1.1875,0 -1.609375,-1.109375 -1.046875,-2.75 L 8.03125,-13.65625 c 0.28125,-0.828125 -0.28125,-1.328125 -0.6875,-1.328125 -1.03125,0 -3.296875,1.359375 -5.125,3.546875 -0.421875,0.53125 -0.421875,0.75 -0.421875,0.9375 0,0.140625 0.171875,0.25 0.3125,0.25 0.078125,0 0.359375,-0.07813 0.578125,-0.328125 0.75,-0.859375 1.828125,-1.328125 2.078125,-1.328125 0.390625,0 0.5,0.359375 0.25,1 L 2.875,-5.0625 C 1.546875,-1.4375 2.71875,0.5 4.546875,0.5 Z m 0,0"
           id="path6973" /></symbol><symbol
         overflow="visible"
         id="glyph0-2-6"><path
           style="stroke:none"
           d="M 0.859375,0.5 C 1.71875,0.5 2.515625,0.21875 3.515625,-0.96875 4.703125,-2.359375 5.84375,-3.9375 7,-5.375 c 0.28125,-0.359375 0.421875,-0.359375 0.5625,0.21875 0.25,1 0.546875,2.25 0.796875,3.25 0.421875,1.578125 0.921875,2.40625 2.25,2.40625 2.078125,0 3.734375,-3.40625 3.734375,-4.734375 0,-0.71875 -0.140625,-0.78125 -0.328125,-0.78125 -0.171875,0 -0.3125,0.140625 -0.453125,0.5 -0.71875,1.75 -1.6875,2.859375 -2.375,2.859375 -0.25,0 -0.578125,-0.203125 -0.75,-0.859375 l -1.21875,-4.40625 c -0.1875,-0.609375 -0.109375,-0.96875 0.0625,-1.25 0.90625,-1.359375 1.6875,-2.296875 2.375,-3.09375 0.828125,-1 1.46875,-1.5 2.046875,-1.5 0.3125,0 0.53125,0.171875 0.78125,0.828125 0.140625,0.359375 0.359375,0.609375 0.640625,0.609375 0.625,0 1.515625,-1.4375 1.484375,-1.96875 -0.04687,-0.578125 -0.90625,-1.546875 -1.828125,-1.546875 -1.296875,0 -2.515625,1.109375 -3.234375,2.109375 l -2.515625,3.59375 c -0.25,0.3125 -0.421875,0.28125 -0.5,-0.078125 l -0.890625,-3.796875 c -0.328125,-1.25 -0.75,-1.828125 -1.515625,-1.828125 -1.578125,0 -3.828125,2.6875 -3.828125,4.09375 0,0.34375 0.0625,0.609375 0.25,0.609375 0.328125,0 0.5,-0.4375 0.609375,-0.578125 0.890625,-1.296875 1.65625,-1.875 2,-1.875 0.296875,0 0.40625,0.07813 0.546875,0.609375 l 1.359375,5.03125 c 0.078125,0.21875 0.078125,0.46875 -0.109375,0.640625 -1.5,1.71875 -2.296875,2.765625 -3.71875,4.234375 -0.296875,0.28125 -0.65625,0.46875 -0.96875,0.421875 -0.296875,0 -0.546875,-0.25 -0.6875,-0.8125 C 1.5,-2.796875 1.359375,-3.125 1,-3.125 c -0.609375,0 -1.609375,1.4375 -1.609375,2.265625 0,0.9375 0.75,1.359375 1.46875,1.359375 z m 0,0"
           id="path6976" /></symbol><symbol
         overflow="visible"
         id="glyph1-0-5"><path
           style="stroke:none"
           d="m 1.796875,0 h 14.34375 V -16.96875 H 1.796875 Z m 1.78125,-1.796875 v -13.375 H 14.34375 v 13.375 z m 0,0"
           id="path6979" /></symbol><symbol
         overflow="visible"
         id="glyph1-1-4"><path
           style="stroke:none"
           d="m 8.5,7.671875 c 0.46875,0 0.96875,-0.28125 0.96875,-0.78125 0,-0.078125 -0.5,-0.609375 -0.546875,-0.6875 -2.1875,-2.546875 -4.515625,-10.1875 -4.515625,-16.28125 0,-6.09375 2.4375,-11.40625 4.625,-13.953125 0.078125,-0.0625 0.46875,-0.609375 0.46875,-0.671875 0,-0.328125 -0.53125,-0.578125 -0.78125,-0.578125 -0.359375,0 -0.765625,0.1875 -0.96875,0.390625 -2.546875,2.546875 -6.3125,9.140625 -6.3125,15.25 0,6.09375 3.90625,14.515625 6.453125,17.0625 0.171875,0.1875 0.390625,0.25 0.609375,0.25 z m 0,0"
           id="path6982" /></symbol><symbol
         overflow="visible"
         id="glyph1-2"><path
           style="stroke:none"
           d="m 2.796875,7.671875 c 0.21875,0 0.4375,-0.0625 0.609375,-0.25 2.546875,-2.546875 6.453125,-10.96875 6.453125,-17.0625 0,-6.109375 -3.765625,-12.703125 -6.3125,-15.25 -0.21875,-0.203125 -0.609375,-0.390625 -0.96875,-0.390625 -0.25,0 -0.78125,0.25 -0.78125,0.578125 0,0.0625 0.390625,0.609375 0.46875,0.671875 2.1875,2.546875 4.625,7.859375 4.625,13.953125 0,6.09375 -2.34375,13.734375 -4.53125,16.28125 -0.03125,0.078125 -0.53125,0.609375 -0.53125,0.6875 0,0.5 0.5,0.78125 0.96875,0.78125 z m 0,0"
           id="path6985" /></symbol></g></defs><g
     inkscape:label="Layer 1"
     inkscape:groupmode="layer"
     id="layer1"
     transform="translate(-34.693249,-32.618001)"><rect
       style="fill:none;fill-opacity:1;stroke:#333333;stroke-width:0.499999;stroke-linecap:round;stroke-linejoin:round;stroke-opacity:1;paint-order:stroke markers fill;stop-color:#000000"
       id="rect6144"
       width="93.644623"
       height="105.33099"
       x="34.943249"
       y="33.060089" /><path
       style="fill:none;stroke:#000000;stroke-width:0.5;stroke-linecap:butt;stroke-linejoin:miter;stroke-dasharray:none;stroke-opacity:1;marker-end:url(#Arrow1L)"
       d="M 35.011156,66.542943 H 61.758811"
       id="path6202" /><path
       style="fill:none;stroke:#000000;stroke-width:0.5;stroke-linecap:butt;stroke-linejoin:miter;stroke-dasharray:none;stroke-opacity:1;marker-end:url(#Arrow1L)"
       d="M 66.761161,66.542943 H 93.508816"
       id="path6415" /><path
       style="fill:none;stroke:#000000;stroke-width:0.5;stroke-linecap:butt;stroke-linejoin:miter;stroke-dasharray:none;stroke-opacity:1;marker-end:url(#Arrow1L)"
       d="M 98.511163,66.542943 H 125.25883"
       id="path6421" /><g
       id="surface1"
       transform="matrix(0.09399261,0,0,0.09399261,49.135559,42.392665)"
       style="fill:#333333"><g
         style="fill:#333333;fill-opacity:1"
         id="g6826"><use
           xlink:href="#glyph0-1"
           x="-1.7359999"
           y="26.248199"
           id="use6824"
           style="fill:#333333" /></g><g
         style="fill:#333333;fill-opacity:1"
         id="g6830"><use
           xlink:href="#glyph1-1"
           x="20.6092"
           y="31.630199"
           id="use6828"
           style="fill:#333333" /></g><g
         style="fill:#333333;fill-opacity:1"
         id="g6834"><use
           xlink:href="#glyph2-1"
           x="36.888401"
           y="26.248199"
           id="use6832"
           style="fill:#333333"
           transform="translate(4.2506981)" /></g><g
         style="fill:#333333;fill-opacity:1"
         id="g6838"><use
           xlink:href="#glyph0-2"
           x="48.1852"
           y="26.248199"
           id="use6836"
           style="fill:#333333"
           transform="translate(4.2506981)" /></g><g
         style="fill:#333333;fill-opacity:1"
         id="g6842"><use
           xlink:href="#glyph2-2"
           x="64.828003"
           y="26.248199"
           id="use6840"
           style="fill:#333333"
           transform="translate(4.2506981)" /></g></g><g
       id="surface1-1"
       transform="matrix(0.09308856,0,0,0.09308856,75.491683,42.344865)"
       style="fill:#333333"><g
         style="fill:#333333;fill-opacity:1"
         id="g6913"><use
           xlink:href="#glyph0-1-1"
           x="-1.1512001"
           y="26.248199"
           id="use6911"
           style="fill:#333333" /></g><g
         style="fill:#333333;fill-opacity:1"
         id="g6917"><use
           xlink:href="#glyph1-1-3"
           x="21.190399"
           y="31.630199"
           id="use6915"
           style="fill:#333333" /></g><g
         style="fill:#333333;fill-opacity:1"
         id="g6921"><use
           xlink:href="#glyph2-1-7"
           x="39.503601"
           y="26.248199"
           id="use6919"
           style="fill:#333333"
           transform="translate(4.4909182)" /></g><g
         style="fill:#333333;fill-opacity:1"
         id="g6925"><use
           xlink:href="#glyph0-2-3"
           x="50.8004"
           y="26.248199"
           id="use6923"
           style="fill:#333333"
           transform="translate(4.4909182)" /></g><g
         style="fill:#333333;fill-opacity:1"
         id="g6929"><use
           xlink:href="#glyph2-2-5"
           x="67.443199"
           y="26.248199"
           id="use6927"
           style="fill:#333333"
           transform="translate(4.4909182)" /></g></g><g
       id="surface1-17"
       transform="matrix(0.09378128,0,0,0.09378128,116.08192,41.824113)"
       style="fill:#333333"><g
         style="fill:#333333;fill-opacity:1"
         id="g6994"><use
           xlink:href="#glyph0-1-6"
           x="-1.7964"
           y="26.248199"
           id="use6992"
           style="fill:#333333" /></g><g
         style="fill:#333333;fill-opacity:1"
         id="g6998"><use
           xlink:href="#glyph1-1-4"
           x="20.5488"
           y="26.248199"
           id="use6996"
           style="fill:#333333"
           transform="translate(5.5585139)" /></g><g
         style="fill:#333333;fill-opacity:1"
         id="g7002"><use
           xlink:href="#glyph0-2-6"
           x="31.8456"
           y="26.248199"
           id="use7000"
           style="fill:#333333"
           transform="translate(5.5585139)" /></g><g
         style="fill:#333333;fill-opacity:1"
         id="g7006"><use
           xlink:href="#glyph1-2"
           x="48.4884"
           y="26.248199"
           id="use7004"
           style="fill:#333333"
           transform="translate(5.5585139)" /></g></g><g
       id="g7581"
       transform="translate(0.30090622)"><path
         style="fill:none;stroke:#000000;stroke-width:0.264583px;stroke-linecap:butt;stroke-linejoin:miter;stroke-opacity:1"
         d="m 65.154732,32.61909 0.869842,105.68585"
         id="path6198" /><path
         style="fill:none;stroke:#000000;stroke-width:0.264583px;stroke-linecap:butt;stroke-linejoin:miter;stroke-opacity:1"
         d="m 96.904734,32.61909 0.869842,105.68585"
         id="path6200" /><g
         id="g7549"
         transform="matrix(0.97442455,0,0,0.97442455,64.555278,2.0447738)"><rect
           style="fill:#999999;fill-opacity:1;stroke:#333333;stroke-width:0.5;stroke-linecap:round;stroke-linejoin:round;stroke-dasharray:none;stroke-opacity:1;paint-order:stroke markers fill;stop-color:#000000"
           id="rect7543"
           width="11.54592"
           height="2.396733"
           x="35.167732"
           y="99.442703" /><rect
           style="font-variation-settings:normal;opacity:1;vector-effect:none;fill:#999999;fill-opacity:1;stroke:#333333;stroke-width:0.5;stroke-linecap:round;stroke-linejoin:round;stroke-miterlimit:4;stroke-dasharray:none;stroke-dashoffset:0;stroke-opacity:1;-inkscape-stroke:none;paint-order:stroke markers fill;stop-color:#000000;stop-opacity:1"
           id="rect7545"
           width="11.54592"
           height="2.396733"
           x="53.159401"
           y="99.442703" /><rect
           style="font-variation-settings:normal;opacity:1;vector-effect:none;fill:#999999;fill-opacity:1;stroke:#333333;stroke-width:0.5;stroke-linecap:round;stroke-linejoin:round;stroke-miterlimit:4;stroke-dasharray:none;stroke-dashoffset:0;stroke-opacity:1;-inkscape-stroke:none;paint-order:stroke markers fill;stop-color:#000000;stop-opacity:1"
           id="rect7547"
           width="4.2269287"
           height="2.4585989"
           x="47.823063"
           y="99.411774" /></g><g
         id="g7557"
         transform="matrix(0.97442455,0,0,0.97442455,32.805276,2.0447738)"><rect
           style="fill:#999999;fill-opacity:1;stroke:#333333;stroke-width:0.5;stroke-linecap:round;stroke-linejoin:round;stroke-dasharray:none;stroke-opacity:1;paint-order:stroke markers fill;stop-color:#000000"
           id="rect7551"
           width="11.54592"
           height="2.396733"
           x="35.167732"
           y="99.442703" /><rect
           style="font-variation-settings:normal;opacity:1;vector-effect:none;fill:#999999;fill-opacity:1;stroke:#333333;stroke-width:0.5;stroke-linecap:round;stroke-linejoin:round;stroke-miterlimit:4;stroke-dasharray:none;stroke-dashoffset:0;stroke-opacity:1;-inkscape-stroke:none;paint-order:stroke markers fill;stop-color:#000000;stop-opacity:1"
           id="rect7553"
           width="11.54592"
           height="2.396733"
           x="53.159401"
           y="99.442703" /><rect
           style="font-variation-settings:normal;opacity:1;vector-effect:none;fill:#999999;fill-opacity:1;stroke:#333333;stroke-width:0.5;stroke-linecap:round;stroke-linejoin:round;stroke-miterlimit:4;stroke-dasharray:none;stroke-dashoffset:0;stroke-opacity:1;-inkscape-stroke:none;paint-order:stroke markers fill;stop-color:#000000;stop-opacity:1"
           id="rect7555"
           width="4.2269287"
           height="2.4585989"
           x="47.823063"
           y="99.411774" /><rect
           style="font-variation-settings:normal;opacity:1;vector-effect:none;fill:#333333;fill-opacity:1;stroke:#333333;stroke-width:0.357272;stroke-linecap:round;stroke-linejoin:round;stroke-miterlimit:4;stroke-dasharray:none;stroke-dashoffset:0;stroke-opacity:1;-inkscape-stroke:none;paint-order:stroke markers fill;stop-color:#000000;stop-opacity:1"
           id="rect7956"
           width="4.3696566"
           height="1.2142931"
           x="50.115162"
           y="102.78506" /><rect
           style="font-variation-settings:normal;opacity:1;vector-effect:none;fill:#333333;fill-opacity:1;stroke:#333333;stroke-width:0.357272;stroke-linecap:round;stroke-linejoin:round;stroke-miterlimit:4;stroke-dasharray:none;stroke-dashoffset:0;stroke-opacity:1;-inkscape-stroke:none;paint-order:stroke markers fill;stop-color:#000000;stop-opacity:1"
           id="rect7958"
           width="4.3696566"
           height="1.2142931"
           x="12.708776"
           y="103.08972" /></g><g
         id="g7565"
         transform="matrix(0.97442455,0,0,0.97442455,1.0552746,2.0447738)"><rect
           style="fill:#999999;fill-opacity:1;stroke:#333333;stroke-width:0.5;stroke-linecap:round;stroke-linejoin:round;stroke-dasharray:none;stroke-opacity:1;paint-order:stroke markers fill;stop-color:#000000"
           id="rect7559"
           width="11.54592"
           height="2.396733"
           x="35.167732"
           y="99.442703" /><rect
           style="font-variation-settings:normal;opacity:1;vector-effect:none;fill:#999999;fill-opacity:1;stroke:#333333;stroke-width:0.5;stroke-linecap:round;stroke-linejoin:round;stroke-miterlimit:4;stroke-dasharray:none;stroke-dashoffset:0;stroke-opacity:1;-inkscape-stroke:none;paint-order:stroke markers fill;stop-color:#000000;stop-opacity:1"
           id="rect7561"
           width="11.54592"
           height="2.396733"
           x="53.159401"
           y="99.442703" /><rect
           style="font-variation-settings:normal;opacity:1;vector-effect:none;fill:#999999;fill-opacity:1;stroke:#333333;stroke-width:0.5;stroke-linecap:round;stroke-linejoin:round;stroke-miterlimit:4;stroke-dasharray:none;stroke-dashoffset:0;stroke-opacity:1;-inkscape-stroke:none;paint-order:stroke markers fill;stop-color:#000000;stop-opacity:1"
           id="rect7563"
           width="4.2269287"
           height="2.4585989"
           x="47.823063"
           y="99.411774" /></g></g><path
       style="fill:none;stroke:#ff0000;stroke-width:0.5;stroke-linecap:butt;stroke-linejoin:miter;stroke-dasharray:none;stroke-opacity:1;marker-end:url(#marker7587)"
       d="m 113.64098,133.63137 -0.43457,-24.98798"
       id="path7583" /><path
       style="fill:none;stroke:#ff0000;stroke-width:0.5;stroke-linecap:butt;stroke-linejoin:miter;stroke-dasharray:none;stroke-opacity:1;marker-end:url(#marker7587)"
       d="m 81.890972,133.63137 -0.43457,-24.98798"
       id="path7619" /><path
       style="fill:none;stroke:#ff0000;stroke-width:0.5;stroke-linecap:butt;stroke-linejoin:miter;stroke-dasharray:none;stroke-opacity:1;marker-end:url(#marker7587)"
       d="M 50.14097,133.63137 49.7064,108.64339"
       id="path7625" /><path
       style="fill:none;stroke:#ff0000;stroke-width:0.75;stroke-linecap:round;stroke-linejoin:round;stroke-dasharray:none;stroke-opacity:1"
       d="m 66.794726,63.380773 c 7.212888,-3.160919 5.581023,-16.263458 11.874616,-15.96617 6.293593,0.297288 6.539365,13.805209 16.327601,14.92714"
       id="path7643"
       sodipodi:nodetypes="czc" /><path
       style="fill:none;stroke:#ff0000;stroke-width:0.75;stroke-linecap:round;stroke-linejoin:round;stroke-dasharray:none;stroke-opacity:1"
       d="m 98.188247,63.380773 c 0,0 1.762089,-0.236561 2.449143,-0.742165 2.65253,-1.401626 1.87455,-6.42288 3.59236,-6.318834 0.79268,0.04801 0.47767,4.043004 1.677,4.092343 1.19931,0.04934 0.43409,-10.237805 1.78119,-10.835586 1.3471,-0.597781 0.90985,8.428364 2.44914,8.609095 1.53929,0.180731 0.82736,-23.739195 2.746,-23.787785 2.58908,3.00927 0.90657,23.719084 2.74601,23.787785 1.56941,-0.20661 0.66726,-8.578519 2.07806,-8.609095 1.4108,-0.03058 1.85543,10.878588 2.82022,10.835586 0.96479,-0.043 0.62455,-4.023398 1.41011,-4.092343 0.78556,-0.06894 1.24803,2.298241 1.48433,3.201745 0.64864,1.892473 1.71055,4.076431 3.48817,3.859254"
       id="path7645"
       sodipodi:nodetypes="ccszzzcczzzcc" /><path
       style="fill:none;stroke:#ff0000;stroke-width:0.5;stroke-linecap:butt;stroke-linejoin:miter;stroke-dasharray:none;stroke-opacity:1;marker-end:url(#marker7587)"
       d="M 52.738543,94.648476 52.303973,70.718829"
       id="path7649"
       sodipodi:nodetypes="cc" /><path
       style="fill:none;stroke:#ff0000;stroke-width:0.5;stroke-linecap:butt;stroke-linejoin:miter;stroke-dasharray:none;stroke-opacity:1;marker-end:url(#marker7587)"
       d="M 54.000221,94.519347 60.022475,71.535209"
       id="path7653"
       sodipodi:nodetypes="cc" /><path
       style="fill:none;stroke:#ff0000;stroke-width:0.5;stroke-linecap:butt;stroke-linejoin:miter;stroke-dasharray:none;stroke-opacity:1;marker-end:url(#marker7587)"
       d="M 51.476865,94.593563 44.437039,71.609425"
       id="path7657"
       sodipodi:nodetypes="cc" /><path
       style="fill:none;stroke:#ff0000;stroke-width:0.5;stroke-linecap:butt;stroke-linejoin:miter;stroke-dasharray:none;stroke-opacity:1;marker-end:url(#marker7587)"
       d="M 79.233784,94.796909 78.799214,70.867262"
       id="path7665"
       sodipodi:nodetypes="cc" /><path
       style="fill:none;stroke:#ff0000;stroke-width:0.5;stroke-linecap:butt;stroke-linejoin:miter;stroke-dasharray:none;stroke-opacity:1;marker-end:url(#marker7587)"
       d="M 80.495462,94.66778 86.517716,71.683642"
       id="path7667"
       sodipodi:nodetypes="cc" /><path
       style="fill:none;stroke:#ff0000;stroke-width:0.5;stroke-linecap:butt;stroke-linejoin:miter;stroke-dasharray:none;stroke-opacity:1;marker-end:url(#marker7587)"
       d="M 77.972106,94.741996 70.93228,71.757858"
       id="path7669"
       sodipodi:nodetypes="cc" /><path
       style="fill:none;stroke:#ff0000;stroke-width:0.5;stroke-linecap:butt;stroke-linejoin:miter;stroke-dasharray:none;stroke-opacity:1;marker-end:url(#marker7587)"
       d="m 116.49039,94.593563 3.86999,-23.652085"
       id="path7683"
       sodipodi:nodetypes="cc" /><path
       style="fill:none;stroke:#ff0000;stroke-width:0.5;stroke-linecap:butt;stroke-linejoin:miter;stroke-dasharray:none;stroke-opacity:1;marker-end:url(#marker7587)"
       d="M 110.04901,94.66778 104.99156,71.08991"
       id="path7695"
       sodipodi:nodetypes="cc" /><path
       style="fill:none;stroke:#ff0000;stroke-width:0.5;stroke-linecap:butt;stroke-linejoin:miter;stroke-dasharray:none;stroke-opacity:1;marker-end:url(#marker7587)"
       d="M 115.61524,94.519347 114.49126,70.86726"
       id="path7699"
       sodipodi:nodetypes="cc" /><path
       style="fill:none;stroke:#ff0000;stroke-width:0.5;stroke-linecap:butt;stroke-linejoin:miter;stroke-dasharray:none;stroke-opacity:1;marker-end:url(#marker7587)"
       d="M 111.1768,94.519347 112.30078,70.86726"
       id="path7707"
       sodipodi:nodetypes="cc" /><text
       xml:space="preserve"
       style="font-size:3.53109px;line-height:0.65;font-family:'EB Garamond';-inkscape-font-specification:'EB Garamond, Normal';text-align:end;letter-spacing:0.264832px;word-spacing:0px;text-anchor:end;stroke-width:0.176554"
       x="64.193001"
       y="69.218475"
       id="text7713"><tspan
         sodipodi:role="line"
         id="tspan7711"
         style="font-style:italic;stroke-width:0.176554"
         x="64.457832"
         y="69.218475">x</tspan></text><text
       xml:space="preserve"
       style="font-size:3.53109px;line-height:0.65;font-family:'EB Garamond';-inkscape-font-specification:'EB Garamond, Normal';text-align:end;letter-spacing:0.264832px;word-spacing:0px;text-anchor:end;stroke-width:0.176554"
       x="95.486694"
       y="69.366905"
       id="text7822"><tspan
         sodipodi:role="line"
         id="tspan7820"
         style="font-style:italic;stroke-width:0.176554"
         x="95.751526"
         y="69.366905">x</tspan></text><text
       xml:space="preserve"
       style="font-size:3.53109px;line-height:0.65;font-family:'EB Garamond';-inkscape-font-specification:'EB Garamond, Normal';text-align:end;letter-spacing:0.264832px;word-spacing:0px;text-anchor:end;stroke-width:0.176554"
       x="126.78039"
       y="69.254814"
       id="text7826"><tspan
         sodipodi:role="line"
         id="tspan7824"
         style="font-style:italic;stroke-width:0.176554"
         x="127.04522"
         y="69.254814">x</tspan></text><text
       xml:space="preserve"
       style="font-size:3.53109px;line-height:0.65;font-family:'EB Garamond';-inkscape-font-specification:'EB Garamond, Normal';text-align:end;letter-spacing:0.264832px;word-spacing:0px;text-anchor:end;stroke-width:0.176554"
       x="48.475403"
       y="97.882294"
       id="text7830"><tspan
         sodipodi:role="line"
         id="tspan7828"
         style="font-style:italic;stroke-width:0.176554"
         x="48.740234"
         y="97.882294">A</tspan></text><text
       xml:space="preserve"
       style="font-size:3.53109px;line-height:0.65;font-family:'EB Garamond';-inkscape-font-specification:'EB Garamond, Normal';text-align:end;letter-spacing:0.264832px;word-spacing:0px;text-anchor:end;stroke-width:0.176554"
       x="53.767071"
       y="97.882294"
       id="text7834"><tspan
         sodipodi:role="line"
         id="tspan7832"
         style="font-style:italic;stroke-width:0.176554"
         x="54.031902"
         y="97.882294">B</tspan></text><text
       xml:space="preserve"
       style="font-size:3.53109px;line-height:0.65;font-family:'EB Garamond';-inkscape-font-specification:'EB Garamond, Normal';text-align:end;letter-spacing:0.264832px;word-spacing:0px;text-anchor:end;stroke-width:0.176554"
       x="79.813278"
       y="98.179161"
       id="text7838"><tspan
         sodipodi:role="line"
         id="tspan7836"
         style="font-style:italic;stroke-width:0.176554"
         x="80.07811"
         y="98.179161">A</tspan></text><text
       xml:space="preserve"
       style="font-size:3.53109px;line-height:0.65;font-family:'EB Garamond';-inkscape-font-specification:'EB Garamond, Normal';text-align:end;letter-spacing:0.264832px;word-spacing:0px;text-anchor:end;stroke-width:0.176554"
       x="85.10495"
       y="98.179161"
       id="text7842"><tspan
         sodipodi:role="line"
         id="tspan7840"
         style="font-style:italic;stroke-width:0.176554"
         x="85.369781"
         y="98.179161">B</tspan></text><text
       xml:space="preserve"
       style="font-size:3.53109px;line-height:0.65;font-family:'EB Garamond';-inkscape-font-specification:'EB Garamond, Normal';text-align:end;letter-spacing:0.264832px;word-spacing:0px;text-anchor:end;stroke-width:0.176554"
       x="111.21094"
       y="97.895073"
       id="text7846"><tspan
         sodipodi:role="line"
         id="tspan7844"
         style="font-style:italic;stroke-width:0.176554"
         x="111.47577"
         y="97.895073">A</tspan></text><text
       xml:space="preserve"
       style="font-size:3.53109px;line-height:0.65;font-family:'EB Garamond';-inkscape-font-specification:'EB Garamond, Normal';text-align:end;letter-spacing:0.264832px;word-spacing:0px;text-anchor:end;stroke-width:0.176554"
       x="116.50261"
       y="97.895073"
       id="text7850"><tspan
         sodipodi:role="line"
         id="tspan7848"
         style="font-style:italic;stroke-width:0.176554"
         x="116.76744"
         y="97.895073">B</tspan></text><path
       style="fill:none;stroke:#ff0000;stroke-width:0.75;stroke-linecap:round;stroke-linejoin:round;stroke-dasharray:none;stroke-opacity:1"
       d="M 63.776108,63.380773 C 56.56322,60.219854 58.195085,47.117315 51.901492,47.414603 45.607899,47.711891 45.362127,61.219812 35.573891,62.341743"
       id="path8032"
       sodipodi:nodetypes="czc" /><text
       xml:space="preserve"
       style="font-size:3.175px;line-height:0.65;font-family:'EB Garamond';-inkscape-font-specification:'EB Garamond';text-align:end;letter-spacing:0.264832px;word-spacing:0px;text-anchor:end;stroke-width:0.176554;font-weight:normal;font-style:normal;font-stretch:normal;font-variant:normal"
       x="52.610008"
       y="137.01338"
       id="text8189"><tspan
         sodipodi:role="line"
         id="tspan8187"
         style="font-style:normal;stroke-width:0.176554;-inkscape-font-specification:'EB Garamond';font-family:'EB Garamond';font-weight:normal;font-stretch:normal;font-variant:normal;font-size:3.175px"
         x="52.87484"
         y="137.01338">(a)</tspan></text><text
       xml:space="preserve"
       style="font-size:3.175px;line-height:0.65;font-family:'EB Garamond';-inkscape-font-specification:'EB Garamond';text-align:end;letter-spacing:0.264832px;word-spacing:0px;text-anchor:end;stroke-width:0.176554;font-weight:normal;font-style:normal;font-stretch:normal;font-variant:normal"
       x="84.360001"
       y="137.01338"
       id="text8193"><tspan
         sodipodi:role="line"
         id="tspan8191"
         style="font-style:normal;stroke-width:0.176554;-inkscape-font-specification:'EB Garamond';font-family:'EB Garamond';font-weight:normal;font-stretch:normal;font-variant:normal;font-size:3.175px"
         x="84.624832"
         y="137.01338">(b)</tspan></text><text
       xml:space="preserve"
       style="font-size:3.175px;line-height:0.65;font-family:'EB Garamond';-inkscape-font-specification:'EB Garamond';text-align:end;letter-spacing:0.264832px;word-spacing:0px;text-anchor:end;stroke-width:0.176554;font-weight:normal;font-style:normal;font-stretch:normal;font-variant:normal"
       x="116.10999"
       y="137.01338"
       id="text8197"><tspan
         sodipodi:role="line"
         id="tspan8195"
         style="font-style:normal;stroke-width:0.176554;-inkscape-font-specification:'EB Garamond';font-family:'EB Garamond';font-weight:normal;font-stretch:normal;font-variant:normal;font-size:3.175px"
         x="116.37482"
         y="137.01338">(c)</tspan></text><text
       xml:space="preserve"
       style="font-style:italic;font-size:3.88056px;line-height:0.65;font-family:'EB Garamond';-inkscape-font-specification:'EB Garamond Italic';text-align:end;letter-spacing:0.396875px;word-spacing:0px;text-anchor:end;stroke-width:0.264583"
       x="118.69675"
       y="43.761723"
       id="text2610"><tspan
         sodipodi:role="line"
         id="tspan2608"
         style="stroke-width:0.264583" /></text></g></svg>
