<?xml version="1.0" encoding="UTF-8" standalone="no"?>
<!-- Created with Inkscape (http://www.inkscape.org/) -->

<svg
   width="90.562752mm"
   height="38.464565mm"
   viewBox="0 0 90.562752 38.464565"
   version="1.1"
   id="svg34914"
   xml:space="preserve"
   inkscape:version="1.2.2 (b0a8486, 2022-12-01)"
   sodipodi:docname="maxwl-dist1.svg"
   xmlns:inkscape="http://www.inkscape.org/namespaces/inkscape"
   xmlns:sodipodi="http://sodipodi.sourceforge.net/DTD/sodipodi-0.dtd"
   xmlns:xlink="http://www.w3.org/1999/xlink"
   xmlns="http://www.w3.org/2000/svg"
   xmlns:svg="http://www.w3.org/2000/svg"><sodipodi:namedview
     id="namedview34916"
     pagecolor="#ffffff"
     bordercolor="#666666"
     borderopacity="1.0"
     inkscape:showpageshadow="2"
     inkscape:pageopacity="0.0"
     inkscape:pagecheckerboard="0"
     inkscape:deskcolor="#d1d1d1"
     inkscape:document-units="mm"
     showgrid="false"
     inkscape:zoom="1.4885282"
     inkscape:cx="181.05132"
     inkscape:cy="67.516356"
     inkscape:window-width="1440"
     inkscape:window-height="769"
     inkscape:window-x="0"
     inkscape:window-y="0"
     inkscape:window-maximized="0"
     inkscape:current-layer="layer1" /><defs
     id="defs34911"><marker
       style="overflow:visible"
       id="marker39516"
       refX="0"
       refY="0"
       orient="auto-start-reverse"
       inkscape:stockid="Arrow1L"
       markerWidth="8.75"
       markerHeight="5"
       viewBox="0 0 8.75 5"
       inkscape:isstock="true"
       inkscape:collect="always"
       preserveAspectRatio="xMidYMid"><path
         style="fill:context-stroke;fill-rule:evenodd;stroke:none"
         d="M 0,0 5,-5 -12.5,0 5,5 Z"
         id="path39514"
         transform="scale(-0.5)" /></marker><marker
       style="overflow:visible"
       id="marker39484"
       refX="0"
       refY="0"
       orient="auto-start-reverse"
       inkscape:stockid="Arrow1L"
       markerWidth="8.75"
       markerHeight="5"
       viewBox="0 0 8.75 5"
       inkscape:isstock="true"
       inkscape:collect="always"
       preserveAspectRatio="xMidYMid"><path
         style="fill:context-stroke;fill-rule:evenodd;stroke:none"
         d="M 0,0 5,-5 -12.5,0 5,5 Z"
         id="path39482"
         transform="scale(-0.5)" /></marker><marker
       style="overflow:visible"
       id="Arrow1L"
       refX="0"
       refY="0"
       orient="auto-start-reverse"
       inkscape:stockid="Arrow1L"
       markerWidth="8.75"
       markerHeight="5"
       viewBox="0 0 8.75 5"
       inkscape:isstock="true"
       inkscape:collect="always"
       preserveAspectRatio="xMidYMid"><path
         style="fill:context-stroke;fill-rule:evenodd;stroke:none"
         d="M 0,0 5,-5 -12.5,0 5,5 Z"
         id="arrow1L"
         transform="scale(-0.5)" /></marker><g
       id="g39056"><symbol
         overflow="visible"
         id="glyph0-0"><path
           style="stroke:none"
           d=""
           id="path39041" /></symbol><symbol
         overflow="visible"
         id="glyph0-1"><path
           style="stroke:none"
           d="m 16.703125,77.53125 h -0.03125 l -7.75,-35.9375 -4.6875,7.390625 c -0.25,0.328125 -0.25,0.390625 -0.25,0.4375 0,0.140625 0.46875,0.53125 0.5,0.5625 l 2.4375,-3.828125 8.28125,38.46875 c 1.1875,0 1.296875,0 1.5,-0.921875 L 36.4375,0.03125 c 0.0625,-0.25 0.140625,-0.5625 0.140625,-0.75 0,-0.390625 -0.28125,-0.71875 -0.71875,-0.71875 -0.578125,0 -0.6875,0.46875 -0.78125,0.96875 z m 0,0"
           id="path39044" /></symbol><symbol
         overflow="visible"
         id="glyph1-0"><path
           style="stroke:none"
           d="M 2.1875,0 H 16.53125 V -16.96875 H 2.1875 Z m 1.796875,-1.796875 v -13.375 h 10.75 v 13.375 z m 0,0"
           id="path39047" /></symbol><symbol
         overflow="visible"
         id="glyph1-1"><path
           style="stroke:none"
           d="M 2.078125,0.53125 C 3.984375,0.53125 7.28125,-1.90625 9.75,-4.375 9.578125,-3.734375 9.4375,-2.765625 9.4375,-1.96875 9.4375,-0.6875 9.859375,0.5 11.328125,0.5 13.625,0.5 16,-2.4375 16,-4.15625 c 0,-0.109375 -0.04687,-0.140625 -0.21875,-0.140625 -0.140625,0 -0.296875,0.0625 -0.5,0.359375 -0.546875,0.640625 -1.90625,1.5 -2.875,1.5 -0.96875,0 -1.71875,-0.890625 -1.75,-2.875 2.828125,-3.15625 5.015625,-6.515625 5.296875,-7.625 0.04687,-0.15625 0.07813,-0.359375 0.07813,-0.65625 0,-0.640625 -0.578125,-1.640625 -1.1875,-1.640625 -0.25,0 -0.421875,0.203125 -0.671875,0.671875 -1.046875,1.96875 -2.09375,4.0625 -3.15625,5.84375 -0.07813,0.140625 -0.15625,0.140625 -0.15625,0 0,-2.5 -0.140625,-5.625 -2.328125,-5.625 -3.4375,0 -8.421875,7.703125 -8.421875,11.984375 0,1.671875 0.71875,2.890625 1.96875,2.890625 z M 2.21875,-1.109375 c -0.46875,0 -0.75,-0.546875 -0.75,-1.328125 0,-3.046875 4.296875,-9.078125 7.03125,-9.078125 1.140625,0 1.46875,1.9375 1.296875,4.171875 -0.296875,0.671875 -0.765625,1.25 -1.21875,1.828125 -2.234375,2.75 -4.484375,4.40625 -6.359375,4.40625 z m 0,0"
           id="path39050" /></symbol><symbol
         overflow="visible"
         id="glyph1-2"><path
           style="stroke:none"
           d="m 3.875,0.46875 c 0.25,0 0.71875,-0.4375 1.109375,-1.328125 1.21875,-2.71875 3.015625,-7.5 4.703125,-10.859375 0.171875,-0.359375 0.421875,-0.546875 0.75,-0.515625 l 2.546875,0.21875 c 0.25,0.03125 0.46875,0.1875 0.3125,0.578125 -0.75,2.046875 -3.109375,8 -3.46875,9.5 -0.296875,1.21875 0.25,2.4375 1.328125,2.4375 1.71875,0 5.484375,-3.40625 5.484375,-4.90625 0,-0.109375 -0.109375,-0.1875 -0.21875,-0.1875 -0.0625,0 -0.109375,0.046875 -0.140625,0.078125 -1.359375,1.359375 -2.765625,2.15625 -3.90625,2.15625 -0.578125,0 -0.71875,-0.515625 -0.46875,-1.375 0.53125,-1.859375 1.65625,-5.625 2.609375,-7.78125 0.15625,-0.3125 0.328125,-0.390625 0.4375,-0.390625 0.53125,0 1.21875,0.07813 1.65625,0.07813 2.078125,0 4.046875,-2.1875 4.046875,-3.40625 0,-0.40625 -0.1875,-0.578125 -0.546875,-0.578125 -0.140625,0 -0.53125,0.609375 -1,0.890625 -0.640625,0.40625 -1.4375,0.4375 -2.40625,0.4375 -2.359375,0 -5.4375,-0.21875 -8.28125,-0.21875 -4.90625,0 -6.921875,2.6875 -6.921875,5.09375 0,0.5 0.296875,1.03125 0.546875,1.03125 0.28125,0 0.46875,-0.3125 0.5,-0.640625 0.25,-2.15625 2.046875,-3.515625 4.875,-3.296875 l 0.9375,0.07813 c 0.28125,0.03125 0.21875,0.28125 0.140625,0.453125 -0.796875,2.015625 -3.1875,6.53125 -6.171875,10.6875 v 0.71875 C 2.265625,-0.21875 3.375,0.46875 3.875,0.46875 Z m 0,0"
           id="path39053" /></symbol></g></defs><g
     inkscape:label="Layer 1"
     inkscape:groupmode="layer"
     id="layer1"
     transform="translate(-94.72213,-72.373689)"><path
       style="fill:#00ccff;stroke:#d40000;stroke-width:0.5;stroke-linecap:round;stroke-linejoin:round;stroke-dasharray:none;stroke-opacity:1"
       d="m 179.1281,107.33869 c 0,0 -7.74863,-0.9952 -11.8745,-3.37365 -4.12587,-2.37845 -9.37206,-5.376217 -13.79136,-9.368086 -4.4193,-3.99187 -8.3415,-9.441411 -14.18952,-9.454261 -5.84802,-0.01285 -9.67537,6.14374 -14.99842,10.599026 -5.32306,4.455281 -11.6799,7.940631 -14.37201,8.981261 -5.31375,2.05402 -8.46374,2.61571 -8.46374,2.61571 z"
       id="path36456"
       sodipodi:nodetypes="czsssscc" /><path
       style="fill:none;stroke:#333333;stroke-width:0.5;stroke-linecap:round;stroke-linejoin:miter;stroke-dasharray:none;stroke-opacity:1;marker-end:url(#Arrow1L)"
       d="m 94.97213,107.27335 h 87.18775"
       id="path34930"
       sodipodi:nodetypes="cc" /><path
       style="fill:none;stroke:#333333;stroke-width:0.5;stroke-linecap:round;stroke-linejoin:miter;stroke-dasharray:none;stroke-opacity:1;marker-end:url(#Arrow1L)"
       d="M 139.27272,107.12395 V 75.498692"
       id="path34954"
       sodipodi:nodetypes="cc" /><g
       id="surface1"
       transform="matrix(0.1036151,0,0,0.1036151,124.03558,95.567394)"><g
         style="fill:#000000;fill-opacity:1"
         id="g39062"><use
           xlink:href="#glyph0-1"
           x="-3.5711999"
           y="1.8686"
           id="use39060" /></g><path
         style="fill:none;stroke:#000000;stroke-width:0.398;stroke-linecap:butt;stroke-linejoin:miter;stroke-miterlimit:10;stroke-opacity:1"
         d="M 3.80208e-4,-1.04167e-5 H 8.12972"
         transform="matrix(3.6,0,0,-3.6,32.2916,1.1484)"
         id="path39064" /><g
         style="fill:#000000;fill-opacity:1"
         id="g39068"><use
           xlink:href="#glyph1-1"
           x="38.534401"
           y="29.674999"
           id="use39066" /></g><path
         style="fill:none;stroke:#000000;stroke-width:0.398;stroke-linecap:butt;stroke-linejoin:miter;stroke-miterlimit:10;stroke-opacity:1"
         d="M 1.26736e-4,-4.04514e-4 H 5.737974"
         transform="matrix(3.6,0,0,-3.6,36.5972,44.9712)"
         id="path39070" /><g
         style="fill:#000000;fill-opacity:1"
         id="g39074"><use
           xlink:href="#glyph1-2"
           x="36.597599"
           y="78.541397"
           id="use39072" /></g></g><path
       style="fill:none;stroke:#666666;stroke-width:0.264583px;stroke-linecap:butt;stroke-linejoin:miter;stroke-opacity:1"
       d="m 120.37781,84.009893 h 18.54764"
       id="path39476"
       sodipodi:nodetypes="cc" /><path
       style="fill:none;stroke:#666666;stroke-width:0.264583px;stroke-linecap:butt;stroke-linejoin:miter;stroke-opacity:1;marker-start:url(#marker39484);marker-end:url(#marker39516)"
       d="M 122.92356,105.46792 V 85.756204"
       id="path39480"
       sodipodi:nodetypes="cc" /><text
       xml:space="preserve"
       style="font-size:3.88056px;line-height:0.65;font-family:'EB Garamond';-inkscape-font-specification:'EB Garamond, Normal';text-align:end;letter-spacing:0.396875px;word-spacing:0px;text-anchor:end;stroke-width:0.264583"
       x="137.57257"
       y="74.942619"
       id="text43801"><tspan
         sodipodi:role="line"
         id="tspan43799"
         style="font-style:italic;font-size:3.88056px;stroke-width:0.264583"
         x="137.96945"
         y="74.942619">F</tspan></text><text
       xml:space="preserve"
       style="font-size:3.88056px;line-height:0.65;font-family:'EB Garamond';-inkscape-font-specification:'EB Garamond, Normal';text-align:end;letter-spacing:0px;word-spacing:0px;text-anchor:end;stroke-width:0.264583"
       x="179.64464"
       y="109.99404"
       id="text43805"><tspan
         sodipodi:role="line"
         id="tspan43803"
         style="font-style:italic;font-size:3.88056px;stroke-width:0.264583"
         x="179.64464"
         y="109.99404">v<tspan
   style="font-size:65%;baseline-shift:sub"
   id="tspan43807">x</tspan></tspan></text><text
       xml:space="preserve"
       style="font-size:3.88056px;line-height:0.65;font-family:'EB Garamond';-inkscape-font-specification:'EB Garamond, Normal';text-align:end;letter-spacing:0px;word-spacing:0px;text-anchor:end;stroke-width:0.264583"
       x="140.16525"
       y="110.78393"
       id="text43813"><tspan
         sodipodi:role="line"
         id="tspan43811"
         style="font-style:normal;font-size:3.88056px;stroke-width:0.264583"
         x="140.16525"
         y="110.78393">0</tspan></text></g></svg>
