<?xml version="1.0" encoding="UTF-8" standalone="no"?>
<!-- Created with Inkscape (http://www.inkscape.org/) -->

<svg
   width="90.725357mm"
   height="79.491173mm"
   viewBox="0 0 90.725357 79.491173"
   version="1.1"
   id="svg32535"
   xml:space="preserve"
   inkscape:version="1.2.2 (b0a8486, 2022-12-01)"
   sodipodi:docname="mendel-expt.svg"
   xmlns:inkscape="http://www.inkscape.org/namespaces/inkscape"
   xmlns:sodipodi="http://sodipodi.sourceforge.net/DTD/sodipodi-0.dtd"
   xmlns="http://www.w3.org/2000/svg"
   xmlns:svg="http://www.w3.org/2000/svg"><sodipodi:namedview
     id="namedview32537"
     pagecolor="#ffffff"
     bordercolor="#666666"
     borderopacity="1.0"
     inkscape:showpageshadow="2"
     inkscape:pageopacity="0.0"
     inkscape:pagecheckerboard="0"
     inkscape:deskcolor="#d1d1d1"
     inkscape:document-units="mm"
     showgrid="false"
     inkscape:zoom="4.5189909"
     inkscape:cx="54.215644"
     inkscape:cy="111.52932"
     inkscape:window-width="1309"
     inkscape:window-height="776"
     inkscape:window-x="0"
     inkscape:window-y="0"
     inkscape:window-maximized="0"
     inkscape:current-layer="layer1" /><defs
     id="defs32532" /><g
     inkscape:label="Layer 1"
     inkscape:groupmode="layer"
     id="layer1"
     transform="translate(-64.994532,-90.331846)"><rect
       style="font-variation-settings:normal;opacity:1;vector-effect:none;fill:#f9f9f9;fill-opacity:1;stroke:#333333;stroke-width:0.264583;stroke-linecap:butt;stroke-linejoin:miter;stroke-miterlimit:4;stroke-dasharray:none;stroke-dashoffset:0;stroke-opacity:1;-inkscape-stroke:none;paint-order:stroke markers fill;stop-color:#000000;stop-opacity:1"
       id="rect33329"
       width="90.460777"
       height="7.1676579"
       x="65.126823"
       y="97.875595" /><rect
       style="font-variation-settings:normal;opacity:1;vector-effect:none;fill:#f9f9f9;fill-opacity:1;stroke:#333333;stroke-width:0.264582;stroke-linecap:butt;stroke-linejoin:miter;stroke-miterlimit:4;stroke-dasharray:none;stroke-dashoffset:0;stroke-opacity:1;-inkscape-stroke:none;paint-order:stroke markers fill;stop-color:#000000;stop-opacity:1"
       id="rect33331"
       width="90.460777"
       height="12.852351"
       x="65.126823"
       y="108.45892" /><rect
       style="font-variation-settings:normal;opacity:1;vector-effect:none;fill:#f9f9f9;fill-opacity:1;stroke:#333333;stroke-width:0.264582;stroke-linecap:butt;stroke-linejoin:miter;stroke-miterlimit:4;stroke-dasharray:none;stroke-dashoffset:0;stroke-opacity:1;-inkscape-stroke:none;paint-order:stroke markers fill;stop-color:#000000;stop-opacity:1"
       id="rect33333"
       width="90.460777"
       height="12.852351"
       x="65.126823"
       y="124.86309" /><rect
       style="font-variation-settings:normal;opacity:1;vector-effect:none;fill:#f9f9f9;fill-opacity:1;stroke:#333333;stroke-width:0.264582;stroke-linecap:butt;stroke-linejoin:miter;stroke-miterlimit:4;stroke-dasharray:none;stroke-dashoffset:0;stroke-opacity:1;-inkscape-stroke:none;paint-order:stroke markers fill;stop-color:#000000;stop-opacity:1"
       id="rect33335"
       width="90.460777"
       height="28.42347"
       x="65.126823"
       y="141.26726" /><path
       style="fill:none;stroke:#d40000;stroke-width:0.5;stroke-linecap:round;stroke-linejoin:round;stroke-dasharray:none;stroke-opacity:1"
       d="m 104.76889,95.812384 4.03601,4.074155"
       id="path33626" /><path
       style="fill:none;stroke:#d40000;stroke-width:0.5;stroke-linecap:round;stroke-linejoin:round;stroke-dasharray:none;stroke-opacity:1"
       d="m 116.05781,95.812384 -4.03601,4.074155"
       id="path33628" /><path
       style="fill:none;stroke:#d40000;stroke-width:0.5;stroke-linecap:round;stroke-linejoin:round;stroke-dasharray:none;stroke-opacity:1"
       d="M 142.02386,113.51839 112.66379,102.51776"
       id="path33630"
       sodipodi:nodetypes="cc" /><path
       style="fill:none;stroke:#d40000;stroke-width:0.5;stroke-linecap:round;stroke-linejoin:round;stroke-dasharray:none;stroke-opacity:1"
       d="m 119.98684,113.26839 -8.26156,-9.81212"
       id="path33632"
       sodipodi:nodetypes="cc" /><path
       style="fill:none;stroke:#d40000;stroke-width:0.5;stroke-linecap:round;stroke-linejoin:round;stroke-dasharray:none;stroke-opacity:1"
       d="m 100.51262,113.24347 8.53025,-9.67843"
       id="path33634"
       sodipodi:nodetypes="cc" /><path
       style="fill:none;stroke:#d40000;stroke-width:0.5;stroke-linecap:round;stroke-linejoin:round;stroke-dasharray:none;stroke-opacity:1"
       d="M 78.323891,113.49347 108.16379,102.51776"
       id="path33636"
       sodipodi:nodetypes="cc" /><path
       style="font-variation-settings:normal;vector-effect:none;fill:none;fill-opacity:1;stroke:#d40000;stroke-width:0.5;stroke-linecap:round;stroke-linejoin:round;stroke-miterlimit:4;stroke-dasharray:none;stroke-dashoffset:0;stroke-opacity:1;-inkscape-stroke:none;stop-color:#000000"
       d="m 76.396156,117.13509 7.913986,11.90417"
       id="path33638" /><path
       style="font-variation-settings:normal;vector-effect:none;fill:none;fill-opacity:1;stroke:#d40000;stroke-width:0.5;stroke-linecap:round;stroke-linejoin:round;stroke-miterlimit:4;stroke-dasharray:none;stroke-dashoffset:0;stroke-opacity:1;-inkscape-stroke:none;stop-color:#000000"
       d="m 76.396156,117.13509 2.622322,11.90417"
       id="path33659"
       sodipodi:nodetypes="cc" /><path
       style="font-variation-settings:normal;vector-effect:none;fill:none;fill-opacity:1;stroke:#d40000;stroke-width:0.5;stroke-linecap:round;stroke-linejoin:round;stroke-miterlimit:4;stroke-dasharray:none;stroke-dashoffset:0;stroke-opacity:1;-inkscape-stroke:none;stop-color:#000000"
       d="m 76.396156,117.13509 -2.669342,11.90417"
       id="path33661"
       sodipodi:nodetypes="cc" /><path
       style="font-variation-settings:normal;vector-effect:none;fill:none;fill-opacity:1;stroke:#d40000;stroke-width:0.5;stroke-linecap:round;stroke-linejoin:round;stroke-miterlimit:4;stroke-dasharray:none;stroke-dashoffset:0;stroke-opacity:1;-inkscape-stroke:none;stop-color:#000000"
       d="M 76.396156,117.13509 68.43515,129.03926"
       id="path33663"
       sodipodi:nodetypes="cc" /><path
       style="font-variation-settings:normal;vector-effect:none;fill:none;fill-opacity:1;stroke:#d40000;stroke-width:0.5;stroke-linecap:round;stroke-linejoin:round;stroke-miterlimit:4;stroke-dasharray:none;stroke-dashoffset:0;stroke-opacity:1;-inkscape-stroke:none;stop-color:#000000"
       d="m 98.885723,117.13509 7.913987,11.90417"
       id="path33665" /><path
       style="font-variation-settings:normal;vector-effect:none;fill:none;fill-opacity:1;stroke:#d40000;stroke-width:0.5;stroke-linecap:round;stroke-linejoin:round;stroke-miterlimit:4;stroke-dasharray:none;stroke-dashoffset:0;stroke-opacity:1;-inkscape-stroke:none;stop-color:#000000"
       d="m 98.885723,117.13509 2.622327,11.90417"
       id="path33667"
       sodipodi:nodetypes="cc" /><path
       style="font-variation-settings:normal;vector-effect:none;fill:none;fill-opacity:1;stroke:#d40000;stroke-width:0.5;stroke-linecap:round;stroke-linejoin:round;stroke-miterlimit:4;stroke-dasharray:none;stroke-dashoffset:0;stroke-opacity:1;-inkscape-stroke:none;stop-color:#000000"
       d="m 98.885723,117.13509 -2.669342,11.90417"
       id="path33669"
       sodipodi:nodetypes="cc" /><path
       style="font-variation-settings:normal;vector-effect:none;fill:none;fill-opacity:1;stroke:#d40000;stroke-width:0.5;stroke-linecap:round;stroke-linejoin:round;stroke-miterlimit:4;stroke-dasharray:none;stroke-dashoffset:0;stroke-opacity:1;-inkscape-stroke:none;stop-color:#000000"
       d="m 98.885723,117.13509 -7.961006,11.90417"
       id="path33671"
       sodipodi:nodetypes="cc" /><path
       style="font-variation-settings:normal;vector-effect:none;fill:none;fill-opacity:1;stroke:#d40000;stroke-width:0.5;stroke-linecap:round;stroke-linejoin:round;stroke-miterlimit:4;stroke-dasharray:none;stroke-dashoffset:0;stroke-opacity:1;-inkscape-stroke:none;stop-color:#000000"
       d="m 121.59872,117.13509 7.91399,11.90417"
       id="path33673" /><path
       style="font-variation-settings:normal;vector-effect:none;fill:none;fill-opacity:1;stroke:#d40000;stroke-width:0.5;stroke-linecap:round;stroke-linejoin:round;stroke-miterlimit:4;stroke-dasharray:none;stroke-dashoffset:0;stroke-opacity:1;-inkscape-stroke:none;stop-color:#000000"
       d="m 121.59872,117.13509 2.62233,11.90417"
       id="path33675"
       sodipodi:nodetypes="cc" /><path
       style="font-variation-settings:normal;vector-effect:none;fill:none;fill-opacity:1;stroke:#d40000;stroke-width:0.5;stroke-linecap:round;stroke-linejoin:round;stroke-miterlimit:4;stroke-dasharray:none;stroke-dashoffset:0;stroke-opacity:1;-inkscape-stroke:none;stop-color:#000000"
       d="m 121.59872,117.13509 -2.66934,11.90417"
       id="path33677"
       sodipodi:nodetypes="cc" /><path
       style="font-variation-settings:normal;vector-effect:none;fill:none;fill-opacity:1;stroke:#d40000;stroke-width:0.5;stroke-linecap:round;stroke-linejoin:round;stroke-miterlimit:4;stroke-dasharray:none;stroke-dashoffset:0;stroke-opacity:1;-inkscape-stroke:none;stop-color:#000000"
       d="m 121.59872,117.13509 -7.961,11.90417"
       id="path33679"
       sodipodi:nodetypes="cc" /><path
       style="font-variation-settings:normal;vector-effect:none;fill:none;fill-opacity:1;stroke:#d40000;stroke-width:0.5;stroke-linecap:round;stroke-linejoin:round;stroke-miterlimit:4;stroke-dasharray:none;stroke-dashoffset:0;stroke-opacity:1;-inkscape-stroke:none;stop-color:#000000"
       d="m 143.86485,117.13509 7.91399,11.90417"
       id="path33681" /><path
       style="font-variation-settings:normal;vector-effect:none;fill:none;fill-opacity:1;stroke:#d40000;stroke-width:0.5;stroke-linecap:round;stroke-linejoin:round;stroke-miterlimit:4;stroke-dasharray:none;stroke-dashoffset:0;stroke-opacity:1;-inkscape-stroke:none;stop-color:#000000"
       d="m 143.86485,117.13509 2.62233,11.90417"
       id="path33683"
       sodipodi:nodetypes="cc" /><path
       style="font-variation-settings:normal;vector-effect:none;fill:none;fill-opacity:1;stroke:#d40000;stroke-width:0.5;stroke-linecap:round;stroke-linejoin:round;stroke-miterlimit:4;stroke-dasharray:none;stroke-dashoffset:0;stroke-opacity:1;-inkscape-stroke:none;stop-color:#000000"
       d="m 143.86485,117.13509 -2.66934,11.90417"
       id="path33685"
       sodipodi:nodetypes="cc" /><path
       style="font-variation-settings:normal;vector-effect:none;fill:none;fill-opacity:1;stroke:#d40000;stroke-width:0.5;stroke-linecap:round;stroke-linejoin:round;stroke-miterlimit:4;stroke-dasharray:none;stroke-dashoffset:0;stroke-opacity:1;-inkscape-stroke:none;stop-color:#000000"
       d="m 143.86485,117.13509 -7.961,11.90417"
       id="path33687"
       sodipodi:nodetypes="cc" /><g
       id="g34007"><path
         style="font-variation-settings:normal;vector-effect:none;fill:none;fill-opacity:1;stroke:#d40000;stroke-width:0.5;stroke-linecap:round;stroke-linejoin:round;stroke-miterlimit:4;stroke-dasharray:none;stroke-dashoffset:0;stroke-opacity:1;-inkscape-stroke:none;stop-color:#000000"
         d="m 68.43515,133.53926 v 10.31662"
         id="path33689" /><path
         style="font-variation-settings:normal;vector-effect:none;fill:none;fill-opacity:1;stroke:#d40000;stroke-width:0.5;stroke-linecap:round;stroke-linejoin:round;stroke-miterlimit:4;stroke-dasharray:none;stroke-dashoffset:0;stroke-opacity:1;-inkscape-stroke:none;stop-color:#000000"
         d="m 73.726817,133.53926 v 10.31662"
         id="path33696" /><path
         style="font-variation-settings:normal;vector-effect:none;fill:none;fill-opacity:1;stroke:#d40000;stroke-width:0.5;stroke-linecap:round;stroke-linejoin:round;stroke-miterlimit:4;stroke-dasharray:none;stroke-dashoffset:0;stroke-opacity:1;-inkscape-stroke:none;stop-color:#000000"
         d="m 73.726817,133.53926 v 10.31662"
         id="path33698" /><path
         style="font-variation-settings:normal;vector-effect:none;fill:none;fill-opacity:1;stroke:#d40000;stroke-width:0.5;stroke-linecap:round;stroke-linejoin:round;stroke-miterlimit:4;stroke-dasharray:none;stroke-dashoffset:0;stroke-opacity:1;-inkscape-stroke:none;stop-color:#000000"
         d="m 79.018484,133.53926 v 10.31662"
         id="path33700" /><path
         style="font-variation-settings:normal;vector-effect:none;fill:none;fill-opacity:1;stroke:#d40000;stroke-width:0.5;stroke-linecap:round;stroke-linejoin:round;stroke-miterlimit:4;stroke-dasharray:none;stroke-dashoffset:0;stroke-opacity:1;-inkscape-stroke:none;stop-color:#000000"
         d="m 84.310151,133.53926 v 10.31662"
         id="path33702" /></g><path
       style="font-variation-settings:normal;vector-effect:none;fill:none;fill-opacity:1;stroke:#d40000;stroke-width:0.5;stroke-linecap:round;stroke-linejoin:round;stroke-miterlimit:4;stroke-dasharray:none;stroke-dashoffset:0;stroke-opacity:1;-inkscape-stroke:none;stop-color:#000000"
       d="M 90.660141,133.53918 V 143.8558"
       id="path33704" /><path
       style="font-variation-settings:normal;vector-effect:none;fill:none;fill-opacity:1;stroke:#d40000;stroke-width:0.5;stroke-linecap:round;stroke-linejoin:round;stroke-miterlimit:4;stroke-dasharray:none;stroke-dashoffset:0;stroke-opacity:1;-inkscape-stroke:none;stop-color:#000000"
       d="m 95.834509,133.9351 v 10.31662"
       id="path33706" /><path
       style="font-variation-settings:normal;vector-effect:none;fill:none;fill-opacity:1;stroke:#d40000;stroke-width:0.5;stroke-linecap:round;stroke-linejoin:round;stroke-miterlimit:4;stroke-dasharray:none;stroke-dashoffset:0;stroke-opacity:1;-inkscape-stroke:none;stop-color:#000000"
       d="m 101.24345,133.53918 v 10.3167"
       id="path33710"
       sodipodi:nodetypes="cc" /><path
       style="font-variation-settings:normal;vector-effect:none;fill:none;fill-opacity:1;stroke:#d40000;stroke-width:0.5;stroke-linecap:round;stroke-linejoin:round;stroke-miterlimit:4;stroke-dasharray:none;stroke-dashoffset:0;stroke-opacity:1;-inkscape-stroke:none;stop-color:#000000"
       d="m 106.535,133.9351 v 10.31662"
       id="path33712" /><path
       style="font-variation-settings:normal;vector-effect:none;fill:none;fill-opacity:1;stroke:#d40000;stroke-width:0.5;stroke-linecap:round;stroke-linejoin:round;stroke-miterlimit:4;stroke-dasharray:none;stroke-dashoffset:0;stroke-opacity:1;-inkscape-stroke:none;stop-color:#000000"
       d="m 113.41433,133.53926 v 10.31662"
       id="path33714" /><path
       style="font-variation-settings:normal;vector-effect:none;fill:none;fill-opacity:1;stroke:#d40000;stroke-width:0.5;stroke-linecap:round;stroke-linejoin:round;stroke-miterlimit:4;stroke-dasharray:none;stroke-dashoffset:0;stroke-opacity:1;-inkscape-stroke:none;stop-color:#000000"
       d="m 118.706,133.53926 v 10.31662"
       id="path33716" /><path
       style="font-variation-settings:normal;vector-effect:none;fill:none;fill-opacity:1;stroke:#d40000;stroke-width:0.5;stroke-linecap:round;stroke-linejoin:round;stroke-miterlimit:4;stroke-dasharray:none;stroke-dashoffset:0;stroke-opacity:1;-inkscape-stroke:none;stop-color:#000000"
       d="m 118.706,133.53926 v 10.31662"
       id="path33718" /><path
       style="font-variation-settings:normal;vector-effect:none;fill:none;fill-opacity:1;stroke:#d40000;stroke-width:0.5;stroke-linecap:round;stroke-linejoin:round;stroke-miterlimit:4;stroke-dasharray:none;stroke-dashoffset:0;stroke-opacity:1;-inkscape-stroke:none;stop-color:#000000"
       d="m 123.99768,133.53926 v 10.31662"
       id="path33720" /><path
       style="font-variation-settings:normal;vector-effect:none;fill:none;fill-opacity:1;stroke:#d40000;stroke-width:0.5;stroke-linecap:round;stroke-linejoin:round;stroke-miterlimit:4;stroke-dasharray:none;stroke-dashoffset:0;stroke-opacity:1;-inkscape-stroke:none;stop-color:#000000"
       d="m 129.28935,133.53926 v 10.31662"
       id="path33722" /><path
       style="font-variation-settings:normal;vector-effect:none;fill:none;fill-opacity:1;stroke:#d40000;stroke-width:0.5;stroke-linecap:round;stroke-linejoin:round;stroke-miterlimit:4;stroke-dasharray:none;stroke-dashoffset:0;stroke-opacity:1;-inkscape-stroke:none;stop-color:#000000"
       d="m 136.16852,133.53926 v 10.31662"
       id="path33724" /><path
       style="font-variation-settings:normal;vector-effect:none;fill:none;fill-opacity:1;stroke:#d40000;stroke-width:0.5;stroke-linecap:round;stroke-linejoin:round;stroke-miterlimit:4;stroke-dasharray:none;stroke-dashoffset:0;stroke-opacity:1;-inkscape-stroke:none;stop-color:#000000"
       d="m 141.46019,133.53926 v 10.31662"
       id="path33726" /><path
       style="font-variation-settings:normal;vector-effect:none;fill:none;fill-opacity:1;stroke:#d40000;stroke-width:0.5;stroke-linecap:round;stroke-linejoin:round;stroke-miterlimit:4;stroke-dasharray:none;stroke-dashoffset:0;stroke-opacity:1;-inkscape-stroke:none;stop-color:#000000"
       d="m 141.46019,133.53926 v 10.31662"
       id="path33728" /><path
       style="font-variation-settings:normal;vector-effect:none;fill:none;fill-opacity:1;stroke:#d40000;stroke-width:0.5;stroke-linecap:round;stroke-linejoin:round;stroke-miterlimit:4;stroke-dasharray:none;stroke-dashoffset:0;stroke-opacity:1;-inkscape-stroke:none;stop-color:#000000"
       d="m 146.75187,133.53926 v 10.31662"
       id="path33730" /><path
       style="font-variation-settings:normal;vector-effect:none;fill:none;fill-opacity:1;stroke:#d40000;stroke-width:0.5;stroke-linecap:round;stroke-linejoin:round;stroke-miterlimit:4;stroke-dasharray:none;stroke-dashoffset:0;stroke-opacity:1;-inkscape-stroke:none;stop-color:#000000"
       d="m 152.04354,133.53926 v 10.31662"
       id="path33732" /><circle
       style="font-variation-settings:normal;opacity:1;fill:#fff6d5;fill-opacity:1;stroke:#333333;stroke-width:0.5;stroke-linecap:butt;stroke-linejoin:miter;stroke-miterlimit:4;stroke-dasharray:none;stroke-dashoffset:0;stroke-opacity:1;paint-order:stroke markers fill;stop-color:#000000;stop-opacity:1"
       id="path33337"
       cx="102.47629"
       cy="93.699554"
       r="3.1177087" /><circle
       style="font-variation-settings:normal;opacity:1;fill:#00aa88;fill-opacity:1;stroke:#333333;stroke-width:0.5;stroke-linecap:butt;stroke-linejoin:miter;stroke-miterlimit:4;stroke-dasharray:none;stroke-dashoffset:0;stroke-opacity:1;paint-order:stroke markers fill;stop-color:#000000;stop-opacity:1"
       id="circle33339"
       cx="118.35129"
       cy="93.699554"
       r="3.1177087" /><circle
       style="font-variation-settings:normal;opacity:1;vector-effect:none;fill:#fff6d5;fill-opacity:1;stroke:#333333;stroke-width:0.5;stroke-linecap:butt;stroke-linejoin:miter;stroke-miterlimit:4;stroke-dasharray:none;stroke-dashoffset:0;stroke-opacity:1;-inkscape-stroke:none;paint-order:stroke markers fill;stop-color:#000000;stop-opacity:1"
       id="circle33341"
       cx="110.41379"
       cy="101.45943"
       r="2.25" /><circle
       style="font-variation-settings:normal;opacity:1;vector-effect:none;fill:#00aa88;fill-opacity:1;stroke:#333333;stroke-width:0.5;stroke-linecap:butt;stroke-linejoin:miter;stroke-miterlimit:4;stroke-dasharray:none;stroke-dashoffset:0;stroke-opacity:1;-inkscape-stroke:none;paint-order:stroke markers fill;stop-color:#000000;stop-opacity:1"
       id="circle33343"
       cx="144.12947"
       cy="114.88509"
       r="2.25" /><circle
       style="font-variation-settings:normal;opacity:1;vector-effect:none;fill:#00aa88;fill-opacity:1;stroke:#333333;stroke-width:0.5;stroke-linecap:butt;stroke-linejoin:miter;stroke-miterlimit:4;stroke-dasharray:none;stroke-dashoffset:0;stroke-opacity:1;-inkscape-stroke:none;paint-order:stroke markers fill;stop-color:#000000;stop-opacity:1"
       id="circle33345"
       cx="121.5517"
       cy="114.88509"
       r="2.25" /><circle
       style="font-variation-settings:normal;opacity:1;vector-effect:none;fill:#fff6d5;fill-opacity:1;stroke:#333333;stroke-width:0.5;stroke-linecap:butt;stroke-linejoin:miter;stroke-miterlimit:4;stroke-dasharray:none;stroke-dashoffset:0;stroke-opacity:1;-inkscape-stroke:none;paint-order:stroke markers fill;stop-color:#000000;stop-opacity:1"
       id="circle33347"
       cx="98.97393"
       cy="114.88509"
       r="2.25" /><circle
       style="font-variation-settings:normal;opacity:1;vector-effect:none;fill:#fff6d5;fill-opacity:1;stroke:#333333;stroke-width:0.5;stroke-linecap:butt;stroke-linejoin:miter;stroke-miterlimit:4;stroke-dasharray:none;stroke-dashoffset:0;stroke-opacity:1;-inkscape-stroke:none;paint-order:stroke markers fill;stop-color:#000000;stop-opacity:1"
       id="circle33349"
       cx="76.396156"
       cy="114.88509"
       r="2.25" /><circle
       style="font-variation-settings:normal;opacity:1;vector-effect:none;fill:#fff6d5;fill-opacity:1;stroke:#333333;stroke-width:0.5;stroke-linecap:butt;stroke-linejoin:miter;stroke-miterlimit:4;stroke-dasharray:none;stroke-dashoffset:0;stroke-opacity:1;-inkscape-stroke:none;paint-order:stroke markers fill;stop-color:#000000;stop-opacity:1"
       id="circle33351"
       cx="68.43515"
       cy="131.28926"
       r="2.25" /><circle
       style="font-variation-settings:normal;opacity:1;fill:none;fill-opacity:1;stroke:#333333;stroke-width:0.5;stroke-linecap:butt;stroke-linejoin:miter;stroke-miterlimit:4;stroke-dasharray:none;stroke-dashoffset:0;stroke-opacity:1;paint-order:stroke markers fill;stop-color:#000000;stop-opacity:1"
       id="circle33353"
       cx="73.726814"
       cy="131.28926"
       r="2.25" /><circle
       style="font-variation-settings:normal;opacity:1;vector-effect:none;fill:#fff6d5;fill-opacity:1;stroke:#333333;stroke-width:0.5;stroke-linecap:butt;stroke-linejoin:miter;stroke-miterlimit:4;stroke-dasharray:none;stroke-dashoffset:0;stroke-opacity:1;-inkscape-stroke:none;paint-order:stroke markers fill;stop-color:#000000;stop-opacity:1"
       id="circle33355"
       cx="73.726814"
       cy="131.28926"
       r="2.25" /><circle
       style="font-variation-settings:normal;opacity:1;vector-effect:none;fill:#fff6d5;fill-opacity:1;stroke:#333333;stroke-width:0.5;stroke-linecap:butt;stroke-linejoin:miter;stroke-miterlimit:4;stroke-dasharray:none;stroke-dashoffset:0;stroke-opacity:1;-inkscape-stroke:none;paint-order:stroke markers fill;stop-color:#000000;stop-opacity:1"
       id="circle33392"
       cx="79.018478"
       cy="131.28926"
       r="2.25" /><circle
       style="font-variation-settings:normal;opacity:1;fill:none;fill-opacity:1;stroke:#333333;stroke-width:0.5;stroke-linecap:butt;stroke-linejoin:miter;stroke-miterlimit:4;stroke-dasharray:none;stroke-dashoffset:0;stroke-opacity:1;paint-order:stroke markers fill;stop-color:#000000;stop-opacity:1"
       id="circle33394"
       cx="84.310143"
       cy="131.28926"
       r="2.25" /><circle
       style="font-variation-settings:normal;opacity:1;vector-effect:none;fill:#fff6d5;fill-opacity:1;stroke:#333333;stroke-width:0.5;stroke-linecap:butt;stroke-linejoin:miter;stroke-miterlimit:4;stroke-dasharray:none;stroke-dashoffset:0;stroke-opacity:1;-inkscape-stroke:none;paint-order:stroke markers fill;stop-color:#000000;stop-opacity:1"
       id="circle33396"
       cx="84.310143"
       cy="131.28926"
       r="2.25" /><circle
       style="font-variation-settings:normal;opacity:1;vector-effect:none;fill:#fff6d5;fill-opacity:1;stroke:#333333;stroke-width:0.5;stroke-linecap:butt;stroke-linejoin:miter;stroke-miterlimit:4;stroke-dasharray:none;stroke-dashoffset:0;stroke-opacity:1;-inkscape-stroke:none;paint-order:stroke markers fill;stop-color:#000000;stop-opacity:1"
       id="circle33398"
       cx="90.660141"
       cy="131.28918"
       r="2.25" /><circle
       style="font-variation-settings:normal;opacity:1;vector-effect:none;fill:#fff6d5;fill-opacity:1;stroke:#333333;stroke-width:0.5;stroke-linecap:butt;stroke-linejoin:miter;stroke-miterlimit:4;stroke-dasharray:none;stroke-dashoffset:0;stroke-opacity:1;-inkscape-stroke:none;paint-order:stroke markers fill;stop-color:#000000;stop-opacity:1"
       id="circle33402"
       cx="95.951805"
       cy="131.28918"
       r="2.25" /><circle
       style="font-variation-settings:normal;opacity:1;vector-effect:none;fill:#fff6d5;fill-opacity:1;stroke:#333333;stroke-width:0.5;stroke-linecap:butt;stroke-linejoin:miter;stroke-miterlimit:4;stroke-dasharray:none;stroke-dashoffset:0;stroke-opacity:1;-inkscape-stroke:none;paint-order:stroke markers fill;stop-color:#000000;stop-opacity:1"
       id="circle33404"
       cx="101.24345"
       cy="131.28918"
       r="2.25" /><circle
       style="font-variation-settings:normal;opacity:1;vector-effect:none;fill:#00aa88;fill-opacity:1;stroke:#333333;stroke-width:0.5;stroke-linecap:butt;stroke-linejoin:miter;stroke-miterlimit:4;stroke-dasharray:none;stroke-dashoffset:0;stroke-opacity:1;-inkscape-stroke:none;paint-order:stroke markers fill;stop-color:#000000;stop-opacity:1"
       id="circle33408"
       cx="106.53513"
       cy="131.28918"
       r="2.25" /><circle
       style="font-variation-settings:normal;opacity:1;vector-effect:none;fill:#fff6d5;fill-opacity:1;stroke:#333333;stroke-width:0.5;stroke-linecap:butt;stroke-linejoin:miter;stroke-miterlimit:4;stroke-dasharray:none;stroke-dashoffset:0;stroke-opacity:1;-inkscape-stroke:none;paint-order:stroke markers fill;stop-color:#000000;stop-opacity:1"
       id="circle33410"
       cx="113.41428"
       cy="131.28926"
       r="2.25" /><circle
       style="font-variation-settings:normal;opacity:1;fill:none;fill-opacity:1;stroke:#333333;stroke-width:0.5;stroke-linecap:butt;stroke-linejoin:miter;stroke-miterlimit:4;stroke-dasharray:none;stroke-dashoffset:0;stroke-opacity:1;paint-order:stroke markers fill;stop-color:#000000;stop-opacity:1"
       id="circle33412"
       cx="118.70596"
       cy="131.28926"
       r="2.25" /><circle
       style="font-variation-settings:normal;opacity:1;vector-effect:none;fill:#fff6d5;fill-opacity:1;stroke:#333333;stroke-width:0.5;stroke-linecap:butt;stroke-linejoin:miter;stroke-miterlimit:4;stroke-dasharray:none;stroke-dashoffset:0;stroke-opacity:1;-inkscape-stroke:none;paint-order:stroke markers fill;stop-color:#000000;stop-opacity:1"
       id="circle33414"
       cx="118.70596"
       cy="131.28926"
       r="2.25" /><circle
       style="font-variation-settings:normal;opacity:1;vector-effect:none;fill:#fff6d5;fill-opacity:1;stroke:#333333;stroke-width:0.5;stroke-linecap:butt;stroke-linejoin:miter;stroke-miterlimit:4;stroke-dasharray:none;stroke-dashoffset:0;stroke-opacity:1;-inkscape-stroke:none;paint-order:stroke markers fill;stop-color:#000000;stop-opacity:1"
       id="circle33416"
       cx="123.9976"
       cy="131.28926"
       r="2.25" /><circle
       style="font-variation-settings:normal;opacity:1;fill:none;fill-opacity:1;stroke:#333333;stroke-width:0.5;stroke-linecap:butt;stroke-linejoin:miter;stroke-miterlimit:4;stroke-dasharray:none;stroke-dashoffset:0;stroke-opacity:1;paint-order:stroke markers fill;stop-color:#000000;stop-opacity:1"
       id="circle33418"
       cx="129.28928"
       cy="131.28926"
       r="2.25" /><circle
       style="font-variation-settings:normal;opacity:1;vector-effect:none;fill:#00aa88;fill-opacity:1;stroke:#333333;stroke-width:0.5;stroke-linecap:butt;stroke-linejoin:miter;stroke-miterlimit:4;stroke-dasharray:none;stroke-dashoffset:0;stroke-opacity:1;-inkscape-stroke:none;paint-order:stroke markers fill;stop-color:#000000;stop-opacity:1"
       id="circle33420"
       cx="129.28928"
       cy="131.28926"
       r="2.25" /><circle
       style="font-variation-settings:normal;opacity:1;vector-effect:none;fill:#00aa88;fill-opacity:1;stroke:#333333;stroke-width:0.5;stroke-linecap:butt;stroke-linejoin:miter;stroke-miterlimit:4;stroke-dasharray:none;stroke-dashoffset:0;stroke-opacity:1;-inkscape-stroke:none;paint-order:stroke markers fill;stop-color:#000000;stop-opacity:1"
       id="circle33422"
       cx="136.1685"
       cy="131.28926"
       r="2.25" /><circle
       style="font-variation-settings:normal;opacity:1;fill:none;fill-opacity:1;stroke:#333333;stroke-width:0.5;stroke-linecap:butt;stroke-linejoin:miter;stroke-miterlimit:4;stroke-dasharray:none;stroke-dashoffset:0;stroke-opacity:1;paint-order:stroke markers fill;stop-color:#000000;stop-opacity:1"
       id="circle33424"
       cx="141.46019"
       cy="131.28926"
       r="2.25" /><circle
       style="font-variation-settings:normal;opacity:1;vector-effect:none;fill:#00aa88;fill-opacity:1;stroke:#333333;stroke-width:0.5;stroke-linecap:butt;stroke-linejoin:miter;stroke-miterlimit:4;stroke-dasharray:none;stroke-dashoffset:0;stroke-opacity:1;-inkscape-stroke:none;paint-order:stroke markers fill;stop-color:#000000;stop-opacity:1"
       id="circle33426"
       cx="141.46019"
       cy="131.28926"
       r="2.25" /><circle
       style="font-variation-settings:normal;opacity:1;vector-effect:none;fill:#00aa88;fill-opacity:1;stroke:#333333;stroke-width:0.5;stroke-linecap:butt;stroke-linejoin:miter;stroke-miterlimit:4;stroke-dasharray:none;stroke-dashoffset:0;stroke-opacity:1;-inkscape-stroke:none;paint-order:stroke markers fill;stop-color:#000000;stop-opacity:1"
       id="circle33428"
       cx="146.75183"
       cy="131.28926"
       r="2.25" /><circle
       style="font-variation-settings:normal;opacity:1;fill:none;fill-opacity:1;stroke:#333333;stroke-width:0.5;stroke-linecap:butt;stroke-linejoin:miter;stroke-miterlimit:4;stroke-dasharray:none;stroke-dashoffset:0;stroke-opacity:1;paint-order:stroke markers fill;stop-color:#000000;stop-opacity:1"
       id="circle33430"
       cx="152.04352"
       cy="131.28926"
       r="2.25" /><circle
       style="font-variation-settings:normal;opacity:1;vector-effect:none;fill:#00aa88;fill-opacity:1;stroke:#333333;stroke-width:0.5;stroke-linecap:butt;stroke-linejoin:miter;stroke-miterlimit:4;stroke-dasharray:none;stroke-dashoffset:0;stroke-opacity:1;-inkscape-stroke:none;paint-order:stroke markers fill;stop-color:#000000;stop-opacity:1"
       id="circle33432"
       cx="152.04352"
       cy="131.28926"
       r="2.25" /><g
       id="g33948"><circle
         style="font-variation-settings:normal;opacity:1;vector-effect:none;fill:#fff6d5;fill-opacity:1;stroke:#333333;stroke-width:0.5;stroke-linecap:butt;stroke-linejoin:miter;stroke-miterlimit:4;stroke-dasharray:none;stroke-dashoffset:0;stroke-opacity:1;-inkscape-stroke:none;paint-order:stroke markers fill;stop-color:#000000;stop-opacity:1"
         id="circle33434"
         cx="68.43515"
         cy="146.10588"
         r="2.25" /><circle
         style="font-variation-settings:normal;opacity:1;vector-effect:none;fill:#fff6d5;fill-opacity:1;stroke:#333333;stroke-width:0.5;stroke-linecap:butt;stroke-linejoin:miter;stroke-miterlimit:4;stroke-dasharray:none;stroke-dashoffset:0;stroke-opacity:1;-inkscape-stroke:none;paint-order:stroke markers fill;stop-color:#000000;stop-opacity:1"
         id="circle33436"
         cx="73.726814"
         cy="146.10588"
         r="2.25" /><circle
         style="font-variation-settings:normal;opacity:1;vector-effect:none;fill:#fff6d5;fill-opacity:1;stroke:#333333;stroke-width:0.5;stroke-linecap:butt;stroke-linejoin:miter;stroke-miterlimit:4;stroke-dasharray:none;stroke-dashoffset:0;stroke-opacity:1;-inkscape-stroke:none;paint-order:stroke markers fill;stop-color:#000000;stop-opacity:1"
         id="circle33438"
         cx="73.726814"
         cy="146.10588"
         r="2.25" /><circle
         style="font-variation-settings:normal;opacity:1;vector-effect:none;fill:#fff6d5;fill-opacity:1;stroke:#333333;stroke-width:0.5;stroke-linecap:butt;stroke-linejoin:miter;stroke-miterlimit:4;stroke-dasharray:none;stroke-dashoffset:0;stroke-opacity:1;-inkscape-stroke:none;paint-order:stroke markers fill;stop-color:#000000;stop-opacity:1"
         id="circle33440"
         cx="79.018478"
         cy="146.10588"
         r="2.25" /><circle
         style="font-variation-settings:normal;opacity:1;vector-effect:none;fill:#fff6d5;fill-opacity:1;stroke:#333333;stroke-width:0.5;stroke-linecap:butt;stroke-linejoin:miter;stroke-miterlimit:4;stroke-dasharray:none;stroke-dashoffset:0;stroke-opacity:1;-inkscape-stroke:none;paint-order:stroke markers fill;stop-color:#000000;stop-opacity:1"
         id="circle33442"
         cx="84.310143"
         cy="146.10588"
         r="2.25" /><circle
         style="font-variation-settings:normal;opacity:1;vector-effect:none;fill:#fff6d5;fill-opacity:1;stroke:#333333;stroke-width:0.5;stroke-linecap:butt;stroke-linejoin:miter;stroke-miterlimit:4;stroke-dasharray:none;stroke-dashoffset:0;stroke-opacity:1;-inkscape-stroke:none;paint-order:stroke markers fill;stop-color:#000000;stop-opacity:1"
         id="circle33444"
         cx="84.310143"
         cy="146.10588"
         r="2.25" /><circle
         style="font-variation-settings:normal;opacity:1;vector-effect:none;fill:#fff6d5;fill-opacity:1;stroke:#333333;stroke-width:0.5;stroke-linecap:butt;stroke-linejoin:miter;stroke-miterlimit:4;stroke-dasharray:none;stroke-dashoffset:0;stroke-opacity:1;-inkscape-stroke:none;paint-order:stroke markers fill;stop-color:#000000;stop-opacity:1"
         id="circle33446"
         cx="68.43515"
         cy="151.39755"
         r="2.25" /><circle
         style="font-variation-settings:normal;opacity:1;vector-effect:none;fill:#fff6d5;fill-opacity:1;stroke:#333333;stroke-width:0.5;stroke-linecap:butt;stroke-linejoin:miter;stroke-miterlimit:4;stroke-dasharray:none;stroke-dashoffset:0;stroke-opacity:1;-inkscape-stroke:none;paint-order:stroke markers fill;stop-color:#000000;stop-opacity:1"
         id="circle33448"
         cx="73.726814"
         cy="151.39755"
         r="2.25" /><circle
         style="font-variation-settings:normal;opacity:1;vector-effect:none;fill:#fff6d5;fill-opacity:1;stroke:#333333;stroke-width:0.5;stroke-linecap:butt;stroke-linejoin:miter;stroke-miterlimit:4;stroke-dasharray:none;stroke-dashoffset:0;stroke-opacity:1;-inkscape-stroke:none;paint-order:stroke markers fill;stop-color:#000000;stop-opacity:1"
         id="circle33450"
         cx="73.726814"
         cy="151.39755"
         r="2.25" /><circle
         style="font-variation-settings:normal;opacity:1;vector-effect:none;fill:#fff6d5;fill-opacity:1;stroke:#333333;stroke-width:0.5;stroke-linecap:butt;stroke-linejoin:miter;stroke-miterlimit:4;stroke-dasharray:none;stroke-dashoffset:0;stroke-opacity:1;-inkscape-stroke:none;paint-order:stroke markers fill;stop-color:#000000;stop-opacity:1"
         id="circle33452"
         cx="79.018478"
         cy="151.39755"
         r="2.25" /><circle
         style="font-variation-settings:normal;opacity:1;vector-effect:none;fill:#fff6d5;fill-opacity:1;stroke:#333333;stroke-width:0.5;stroke-linecap:butt;stroke-linejoin:miter;stroke-miterlimit:4;stroke-dasharray:none;stroke-dashoffset:0;stroke-opacity:1;-inkscape-stroke:none;paint-order:stroke markers fill;stop-color:#000000;stop-opacity:1"
         id="circle33454"
         cx="84.310143"
         cy="151.39755"
         r="2.25" /><circle
         style="font-variation-settings:normal;opacity:1;vector-effect:none;fill:#fff6d5;fill-opacity:1;stroke:#333333;stroke-width:0.5;stroke-linecap:butt;stroke-linejoin:miter;stroke-miterlimit:4;stroke-dasharray:none;stroke-dashoffset:0;stroke-opacity:1;-inkscape-stroke:none;paint-order:stroke markers fill;stop-color:#000000;stop-opacity:1"
         id="circle33456"
         cx="84.310143"
         cy="151.39755"
         r="2.25" /><circle
         style="font-variation-settings:normal;opacity:1;vector-effect:none;fill:#fff6d5;fill-opacity:1;stroke:#333333;stroke-width:0.5;stroke-linecap:butt;stroke-linejoin:miter;stroke-miterlimit:4;stroke-dasharray:none;stroke-dashoffset:0;stroke-opacity:1;-inkscape-stroke:none;paint-order:stroke markers fill;stop-color:#000000;stop-opacity:1"
         id="circle33458"
         cx="68.43515"
         cy="156.68922"
         r="2.25" /><circle
         style="font-variation-settings:normal;opacity:1;vector-effect:none;fill:#fff6d5;fill-opacity:1;stroke:#333333;stroke-width:0.5;stroke-linecap:butt;stroke-linejoin:miter;stroke-miterlimit:4;stroke-dasharray:none;stroke-dashoffset:0;stroke-opacity:1;-inkscape-stroke:none;paint-order:stroke markers fill;stop-color:#000000;stop-opacity:1"
         id="circle33460"
         cx="73.726814"
         cy="156.68922"
         r="2.25" /><circle
         style="font-variation-settings:normal;opacity:1;vector-effect:none;fill:#fff6d5;fill-opacity:1;stroke:#333333;stroke-width:0.5;stroke-linecap:butt;stroke-linejoin:miter;stroke-miterlimit:4;stroke-dasharray:none;stroke-dashoffset:0;stroke-opacity:1;-inkscape-stroke:none;paint-order:stroke markers fill;stop-color:#000000;stop-opacity:1"
         id="circle33462"
         cx="73.726814"
         cy="156.68922"
         r="2.25" /><circle
         style="font-variation-settings:normal;opacity:1;vector-effect:none;fill:#fff6d5;fill-opacity:1;stroke:#333333;stroke-width:0.5;stroke-linecap:butt;stroke-linejoin:miter;stroke-miterlimit:4;stroke-dasharray:none;stroke-dashoffset:0;stroke-opacity:1;-inkscape-stroke:none;paint-order:stroke markers fill;stop-color:#000000;stop-opacity:1"
         id="circle33464"
         cx="79.018478"
         cy="156.68922"
         r="2.25" /><circle
         style="font-variation-settings:normal;opacity:1;vector-effect:none;fill:#fff6d5;fill-opacity:1;stroke:#333333;stroke-width:0.5;stroke-linecap:butt;stroke-linejoin:miter;stroke-miterlimit:4;stroke-dasharray:none;stroke-dashoffset:0;stroke-opacity:1;-inkscape-stroke:none;paint-order:stroke markers fill;stop-color:#000000;stop-opacity:1"
         id="circle33466"
         cx="84.310143"
         cy="156.68922"
         r="2.25" /><circle
         style="font-variation-settings:normal;opacity:1;vector-effect:none;fill:#fff6d5;fill-opacity:1;stroke:#333333;stroke-width:0.5;stroke-linecap:butt;stroke-linejoin:miter;stroke-miterlimit:4;stroke-dasharray:none;stroke-dashoffset:0;stroke-opacity:1;-inkscape-stroke:none;paint-order:stroke markers fill;stop-color:#000000;stop-opacity:1"
         id="circle33468"
         cx="84.310143"
         cy="156.68922"
         r="2.25" /><circle
         style="font-variation-settings:normal;opacity:1;vector-effect:none;fill:#fff6d5;fill-opacity:1;stroke:#333333;stroke-width:0.5;stroke-linecap:butt;stroke-linejoin:miter;stroke-miterlimit:4;stroke-dasharray:none;stroke-dashoffset:0;stroke-opacity:1;-inkscape-stroke:none;paint-order:stroke markers fill;stop-color:#000000;stop-opacity:1"
         id="circle33470"
         cx="68.43515"
         cy="161.9809"
         r="2.25" /><circle
         style="font-variation-settings:normal;opacity:1;vector-effect:none;fill:#fff6d5;fill-opacity:1;stroke:#333333;stroke-width:0.5;stroke-linecap:butt;stroke-linejoin:miter;stroke-miterlimit:4;stroke-dasharray:none;stroke-dashoffset:0;stroke-opacity:1;-inkscape-stroke:none;paint-order:stroke markers fill;stop-color:#000000;stop-opacity:1"
         id="circle33472"
         cx="73.726814"
         cy="161.9809"
         r="2.25" /><circle
         style="font-variation-settings:normal;opacity:1;vector-effect:none;fill:#fff6d5;fill-opacity:1;stroke:#333333;stroke-width:0.5;stroke-linecap:butt;stroke-linejoin:miter;stroke-miterlimit:4;stroke-dasharray:none;stroke-dashoffset:0;stroke-opacity:1;-inkscape-stroke:none;paint-order:stroke markers fill;stop-color:#000000;stop-opacity:1"
         id="circle33474"
         cx="73.726814"
         cy="161.9809"
         r="2.25" /><circle
         style="font-variation-settings:normal;opacity:1;vector-effect:none;fill:#fff6d5;fill-opacity:1;stroke:#333333;stroke-width:0.5;stroke-linecap:butt;stroke-linejoin:miter;stroke-miterlimit:4;stroke-dasharray:none;stroke-dashoffset:0;stroke-opacity:1;-inkscape-stroke:none;paint-order:stroke markers fill;stop-color:#000000;stop-opacity:1"
         id="circle33476"
         cx="79.018478"
         cy="161.9809"
         r="2.25" /><circle
         style="font-variation-settings:normal;opacity:1;vector-effect:none;fill:#fff6d5;fill-opacity:1;stroke:#333333;stroke-width:0.5;stroke-linecap:butt;stroke-linejoin:miter;stroke-miterlimit:4;stroke-dasharray:none;stroke-dashoffset:0;stroke-opacity:1;-inkscape-stroke:none;paint-order:stroke markers fill;stop-color:#000000;stop-opacity:1"
         id="circle33478"
         cx="84.310143"
         cy="161.9809"
         r="2.25" /><circle
         style="font-variation-settings:normal;opacity:1;vector-effect:none;fill:#fff6d5;fill-opacity:1;stroke:#333333;stroke-width:0.5;stroke-linecap:butt;stroke-linejoin:miter;stroke-miterlimit:4;stroke-dasharray:none;stroke-dashoffset:0;stroke-opacity:1;-inkscape-stroke:none;paint-order:stroke markers fill;stop-color:#000000;stop-opacity:1"
         id="circle33480"
         cx="84.310143"
         cy="161.9809"
         r="2.25" /></g><circle
       style="font-variation-settings:normal;vector-effect:none;fill:#fff6d5;fill-opacity:1;stroke:#333333;stroke-width:0.5;stroke-linecap:butt;stroke-linejoin:miter;stroke-miterlimit:4;stroke-dasharray:none;stroke-dashoffset:0;stroke-opacity:1;-inkscape-stroke:none;paint-order:stroke markers fill;stop-color:#000000"
       id="circle33482"
       cx="90.660141"
       cy="146.10588"
       r="2.25" /><circle
       style="font-variation-settings:normal;fill:none;fill-opacity:1;stroke:#333333;stroke-width:0.5;stroke-linecap:butt;stroke-linejoin:miter;stroke-miterlimit:4;stroke-dasharray:none;stroke-dashoffset:0;stroke-opacity:1;paint-order:stroke markers fill;stop-color:#000000"
       id="circle33484"
       cx="95.951805"
       cy="146.10588"
       r="2.25" /><circle
       style="font-variation-settings:normal;vector-effect:none;fill:#fff6d5;fill-opacity:1;stroke:#333333;stroke-width:0.5;stroke-linecap:butt;stroke-linejoin:miter;stroke-miterlimit:4;stroke-dasharray:none;stroke-dashoffset:0;stroke-opacity:1;-inkscape-stroke:none;paint-order:stroke markers fill;stop-color:#000000"
       id="circle33486"
       cx="95.951805"
       cy="146.10588"
       r="2.25" /><circle
       style="font-variation-settings:normal;vector-effect:none;fill:#fff6d5;fill-opacity:1;stroke:#333333;stroke-width:0.5;stroke-linecap:butt;stroke-linejoin:miter;stroke-miterlimit:4;stroke-dasharray:none;stroke-dashoffset:0;stroke-opacity:1;-inkscape-stroke:none;paint-order:stroke markers fill;stop-color:#000000"
       id="circle33488"
       cx="101.24345"
       cy="146.10588"
       r="2.25" /><circle
       style="font-variation-settings:normal;fill:none;fill-opacity:1;stroke:#333333;stroke-width:0.5;stroke-linecap:butt;stroke-linejoin:miter;stroke-miterlimit:4;stroke-dasharray:none;stroke-dashoffset:0;stroke-opacity:1;paint-order:stroke markers fill;stop-color:#000000"
       id="circle33490"
       cx="106.53513"
       cy="146.10588"
       r="2.25" /><circle
       style="font-variation-settings:normal;vector-effect:none;fill:#00aa88;fill-opacity:1;stroke:#333333;stroke-width:0.5;stroke-linecap:butt;stroke-linejoin:miter;stroke-miterlimit:4;stroke-dasharray:none;stroke-dashoffset:0;stroke-opacity:1;-inkscape-stroke:none;paint-order:stroke markers fill;stop-color:#000000"
       id="circle33492"
       cx="106.53513"
       cy="146.10588"
       r="2.25" /><circle
       style="font-variation-settings:normal;vector-effect:none;fill:#fff6d5;fill-opacity:1;stroke:#333333;stroke-width:0.5;stroke-linecap:butt;stroke-linejoin:miter;stroke-miterlimit:4;stroke-dasharray:none;stroke-dashoffset:0;stroke-opacity:1;-inkscape-stroke:none;paint-order:stroke markers fill;stop-color:#000000"
       id="circle33494"
       cx="90.660141"
       cy="151.39755"
       r="2.25" /><circle
       style="font-variation-settings:normal;fill:none;fill-opacity:1;stroke:#333333;stroke-width:0.5;stroke-linecap:butt;stroke-linejoin:miter;stroke-miterlimit:4;stroke-dasharray:none;stroke-dashoffset:0;stroke-opacity:1;paint-order:stroke markers fill;stop-color:#000000"
       id="circle33496"
       cx="95.951805"
       cy="151.39755"
       r="2.25" /><circle
       style="font-variation-settings:normal;vector-effect:none;fill:#fff6d5;fill-opacity:1;stroke:#333333;stroke-width:0.5;stroke-linecap:butt;stroke-linejoin:miter;stroke-miterlimit:4;stroke-dasharray:none;stroke-dashoffset:0;stroke-opacity:1;-inkscape-stroke:none;paint-order:stroke markers fill;stop-color:#000000"
       id="circle33498"
       cx="95.951805"
       cy="151.39755"
       r="2.25" /><circle
       style="font-variation-settings:normal;vector-effect:none;fill:#fff6d5;fill-opacity:1;stroke:#333333;stroke-width:0.5;stroke-linecap:butt;stroke-linejoin:miter;stroke-miterlimit:4;stroke-dasharray:none;stroke-dashoffset:0;stroke-opacity:1;-inkscape-stroke:none;paint-order:stroke markers fill;stop-color:#000000"
       id="circle33500"
       cx="101.24345"
       cy="151.39755"
       r="2.25" /><circle
       style="font-variation-settings:normal;fill:none;fill-opacity:1;stroke:#333333;stroke-width:0.5;stroke-linecap:butt;stroke-linejoin:miter;stroke-miterlimit:4;stroke-dasharray:none;stroke-dashoffset:0;stroke-opacity:1;paint-order:stroke markers fill;stop-color:#000000"
       id="circle33502"
       cx="106.53513"
       cy="151.39755"
       r="2.25" /><circle
       style="font-variation-settings:normal;vector-effect:none;fill:#00aa88;fill-opacity:1;stroke:#333333;stroke-width:0.5;stroke-linecap:butt;stroke-linejoin:miter;stroke-miterlimit:4;stroke-dasharray:none;stroke-dashoffset:0;stroke-opacity:1;-inkscape-stroke:none;paint-order:stroke markers fill;stop-color:#000000"
       id="circle33504"
       cx="106.53513"
       cy="151.39755"
       r="2.25" /><circle
       style="font-variation-settings:normal;vector-effect:none;fill:#fff6d5;fill-opacity:1;stroke:#333333;stroke-width:0.5;stroke-linecap:butt;stroke-linejoin:miter;stroke-miterlimit:4;stroke-dasharray:none;stroke-dashoffset:0;stroke-opacity:1;-inkscape-stroke:none;paint-order:stroke markers fill;stop-color:#000000"
       id="circle33506"
       cx="90.660141"
       cy="156.68922"
       r="2.25" /><circle
       style="font-variation-settings:normal;fill:none;fill-opacity:1;stroke:#333333;stroke-width:0.5;stroke-linecap:butt;stroke-linejoin:miter;stroke-miterlimit:4;stroke-dasharray:none;stroke-dashoffset:0;stroke-opacity:1;paint-order:stroke markers fill;stop-color:#000000"
       id="circle33508"
       cx="95.951805"
       cy="156.68922"
       r="2.25" /><circle
       style="font-variation-settings:normal;vector-effect:none;fill:#fff6d5;fill-opacity:1;stroke:#333333;stroke-width:0.5;stroke-linecap:butt;stroke-linejoin:miter;stroke-miterlimit:4;stroke-dasharray:none;stroke-dashoffset:0;stroke-opacity:1;-inkscape-stroke:none;paint-order:stroke markers fill;stop-color:#000000"
       id="circle33510"
       cx="95.951805"
       cy="156.68922"
       r="2.25" /><circle
       style="font-variation-settings:normal;vector-effect:none;fill:#fff6d5;fill-opacity:1;stroke:#333333;stroke-width:0.5;stroke-linecap:butt;stroke-linejoin:miter;stroke-miterlimit:4;stroke-dasharray:none;stroke-dashoffset:0;stroke-opacity:1;-inkscape-stroke:none;paint-order:stroke markers fill;stop-color:#000000"
       id="circle33512"
       cx="101.24345"
       cy="156.68922"
       r="2.25" /><circle
       style="font-variation-settings:normal;fill:none;fill-opacity:1;stroke:#333333;stroke-width:0.5;stroke-linecap:butt;stroke-linejoin:miter;stroke-miterlimit:4;stroke-dasharray:none;stroke-dashoffset:0;stroke-opacity:1;paint-order:stroke markers fill;stop-color:#000000"
       id="circle33514"
       cx="106.53513"
       cy="156.68922"
       r="2.25" /><circle
       style="font-variation-settings:normal;vector-effect:none;fill:#00aa88;fill-opacity:1;stroke:#333333;stroke-width:0.5;stroke-linecap:butt;stroke-linejoin:miter;stroke-miterlimit:4;stroke-dasharray:none;stroke-dashoffset:0;stroke-opacity:1;-inkscape-stroke:none;paint-order:stroke markers fill;stop-color:#000000"
       id="circle33516"
       cx="106.53513"
       cy="156.68922"
       r="2.25" /><circle
       style="font-variation-settings:normal;vector-effect:none;fill:#fff6d5;fill-opacity:1;stroke:#333333;stroke-width:0.5;stroke-linecap:butt;stroke-linejoin:miter;stroke-miterlimit:4;stroke-dasharray:none;stroke-dashoffset:0;stroke-opacity:1;-inkscape-stroke:none;paint-order:stroke markers fill;stop-color:#000000"
       id="circle33518"
       cx="90.660141"
       cy="161.9809"
       r="2.25" /><circle
       style="font-variation-settings:normal;fill:none;fill-opacity:1;stroke:#333333;stroke-width:0.5;stroke-linecap:butt;stroke-linejoin:miter;stroke-miterlimit:4;stroke-dasharray:none;stroke-dashoffset:0;stroke-opacity:1;paint-order:stroke markers fill;stop-color:#000000"
       id="circle33520"
       cx="95.951805"
       cy="161.9809"
       r="2.25" /><circle
       style="font-variation-settings:normal;vector-effect:none;fill:#00aa88;fill-opacity:1;stroke:#333333;stroke-width:0.5;stroke-linecap:butt;stroke-linejoin:miter;stroke-miterlimit:4;stroke-dasharray:none;stroke-dashoffset:0;stroke-opacity:1;-inkscape-stroke:none;paint-order:stroke markers fill;stop-color:#000000"
       id="circle33522"
       cx="95.951805"
       cy="161.9809"
       r="2.25" /><circle
       style="font-variation-settings:normal;vector-effect:none;fill:#00aa88;fill-opacity:1;stroke:#333333;stroke-width:0.5;stroke-linecap:butt;stroke-linejoin:miter;stroke-miterlimit:4;stroke-dasharray:none;stroke-dashoffset:0;stroke-opacity:1;-inkscape-stroke:none;paint-order:stroke markers fill;stop-color:#000000"
       id="circle33524"
       cx="101.24345"
       cy="161.9809"
       r="2.25" /><circle
       style="font-variation-settings:normal;fill:none;fill-opacity:1;stroke:#333333;stroke-width:0.5;stroke-linecap:butt;stroke-linejoin:miter;stroke-miterlimit:4;stroke-dasharray:none;stroke-dashoffset:0;stroke-opacity:1;paint-order:stroke markers fill;stop-color:#000000"
       id="circle33526"
       cx="106.53513"
       cy="161.9809"
       r="2.25" /><circle
       style="font-variation-settings:normal;vector-effect:none;fill:#00aa88;fill-opacity:1;stroke:#333333;stroke-width:0.5;stroke-linecap:butt;stroke-linejoin:miter;stroke-miterlimit:4;stroke-dasharray:none;stroke-dashoffset:0;stroke-opacity:1;-inkscape-stroke:none;paint-order:stroke markers fill;stop-color:#000000"
       id="circle33528"
       cx="106.53513"
       cy="161.9809"
       r="2.25" /><g
       id="g34287"><circle
         style="font-variation-settings:normal;vector-effect:none;fill:#fff6d5;fill-opacity:1;stroke:#333333;stroke-width:0.5;stroke-linecap:butt;stroke-linejoin:miter;stroke-miterlimit:4;stroke-dasharray:none;stroke-dashoffset:0;stroke-opacity:1;-inkscape-stroke:none;paint-order:stroke markers fill;stop-color:#000000"
         id="circle33530"
         cx="113.41428"
         cy="146.10588"
         r="2.25" /><circle
         style="font-variation-settings:normal;fill:none;fill-opacity:1;stroke:#333333;stroke-width:0.5;stroke-linecap:butt;stroke-linejoin:miter;stroke-miterlimit:4;stroke-dasharray:none;stroke-dashoffset:0;stroke-opacity:1;paint-order:stroke markers fill;stop-color:#000000"
         id="circle33532"
         cx="118.70596"
         cy="146.10588"
         r="2.25" /><circle
         style="font-variation-settings:normal;vector-effect:none;fill:#fff6d5;fill-opacity:1;stroke:#333333;stroke-width:0.5;stroke-linecap:butt;stroke-linejoin:miter;stroke-miterlimit:4;stroke-dasharray:none;stroke-dashoffset:0;stroke-opacity:1;-inkscape-stroke:none;paint-order:stroke markers fill;stop-color:#000000"
         id="circle33534"
         cx="118.70596"
         cy="146.10588"
         r="2.25" /><circle
         style="font-variation-settings:normal;vector-effect:none;fill:#fff6d5;fill-opacity:1;stroke:#333333;stroke-width:0.5;stroke-linecap:butt;stroke-linejoin:miter;stroke-miterlimit:4;stroke-dasharray:none;stroke-dashoffset:0;stroke-opacity:1;-inkscape-stroke:none;paint-order:stroke markers fill;stop-color:#000000"
         id="circle33536"
         cx="123.9976"
         cy="146.10588"
         r="2.25" /><circle
         style="font-variation-settings:normal;fill:none;fill-opacity:1;stroke:#333333;stroke-width:0.5;stroke-linecap:butt;stroke-linejoin:miter;stroke-miterlimit:4;stroke-dasharray:none;stroke-dashoffset:0;stroke-opacity:1;paint-order:stroke markers fill;stop-color:#000000"
         id="circle33538"
         cx="129.28928"
         cy="146.10588"
         r="2.25" /><circle
         style="font-variation-settings:normal;vector-effect:none;fill:#00aa88;fill-opacity:1;stroke:#333333;stroke-width:0.5;stroke-linecap:butt;stroke-linejoin:miter;stroke-miterlimit:4;stroke-dasharray:none;stroke-dashoffset:0;stroke-opacity:1;-inkscape-stroke:none;paint-order:stroke markers fill;stop-color:#000000"
         id="circle33540"
         cx="129.28928"
         cy="146.10588"
         r="2.25" /><circle
         style="font-variation-settings:normal;vector-effect:none;fill:#fff6d5;fill-opacity:1;stroke:#333333;stroke-width:0.5;stroke-linecap:butt;stroke-linejoin:miter;stroke-miterlimit:4;stroke-dasharray:none;stroke-dashoffset:0;stroke-opacity:1;-inkscape-stroke:none;paint-order:stroke markers fill;stop-color:#000000"
         id="circle33542"
         cx="113.41428"
         cy="151.39755"
         r="2.25" /><circle
         style="font-variation-settings:normal;fill:none;fill-opacity:1;stroke:#333333;stroke-width:0.5;stroke-linecap:butt;stroke-linejoin:miter;stroke-miterlimit:4;stroke-dasharray:none;stroke-dashoffset:0;stroke-opacity:1;paint-order:stroke markers fill;stop-color:#000000"
         id="circle33544"
         cx="118.70596"
         cy="151.39755"
         r="2.25" /><circle
         style="font-variation-settings:normal;vector-effect:none;fill:#fff6d5;fill-opacity:1;stroke:#333333;stroke-width:0.5;stroke-linecap:butt;stroke-linejoin:miter;stroke-miterlimit:4;stroke-dasharray:none;stroke-dashoffset:0;stroke-opacity:1;-inkscape-stroke:none;paint-order:stroke markers fill;stop-color:#000000"
         id="circle33546"
         cx="118.70596"
         cy="151.39755"
         r="2.25" /><circle
         style="font-variation-settings:normal;vector-effect:none;fill:#fff6d5;fill-opacity:1;stroke:#333333;stroke-width:0.5;stroke-linecap:butt;stroke-linejoin:miter;stroke-miterlimit:4;stroke-dasharray:none;stroke-dashoffset:0;stroke-opacity:1;-inkscape-stroke:none;paint-order:stroke markers fill;stop-color:#000000"
         id="circle33548"
         cx="123.9976"
         cy="151.39755"
         r="2.25" /><circle
         style="font-variation-settings:normal;fill:none;fill-opacity:1;stroke:#333333;stroke-width:0.5;stroke-linecap:butt;stroke-linejoin:miter;stroke-miterlimit:4;stroke-dasharray:none;stroke-dashoffset:0;stroke-opacity:1;paint-order:stroke markers fill;stop-color:#000000"
         id="circle33550"
         cx="129.28928"
         cy="151.39755"
         r="2.25" /><circle
         style="font-variation-settings:normal;vector-effect:none;fill:#00aa88;fill-opacity:1;stroke:#333333;stroke-width:0.5;stroke-linecap:butt;stroke-linejoin:miter;stroke-miterlimit:4;stroke-dasharray:none;stroke-dashoffset:0;stroke-opacity:1;-inkscape-stroke:none;paint-order:stroke markers fill;stop-color:#000000"
         id="circle33552"
         cx="129.28928"
         cy="151.39755"
         r="2.25" /><circle
         style="font-variation-settings:normal;vector-effect:none;fill:#fff6d5;fill-opacity:1;stroke:#333333;stroke-width:0.5;stroke-linecap:butt;stroke-linejoin:miter;stroke-miterlimit:4;stroke-dasharray:none;stroke-dashoffset:0;stroke-opacity:1;-inkscape-stroke:none;paint-order:stroke markers fill;stop-color:#000000"
         id="circle33554"
         cx="113.41428"
         cy="156.68922"
         r="2.25" /><circle
         style="font-variation-settings:normal;fill:none;fill-opacity:1;stroke:#333333;stroke-width:0.5;stroke-linecap:butt;stroke-linejoin:miter;stroke-miterlimit:4;stroke-dasharray:none;stroke-dashoffset:0;stroke-opacity:1;paint-order:stroke markers fill;stop-color:#000000"
         id="circle33556"
         cx="118.70596"
         cy="156.68922"
         r="2.25" /><circle
         style="font-variation-settings:normal;vector-effect:none;fill:#fff6d5;fill-opacity:1;stroke:#333333;stroke-width:0.5;stroke-linecap:butt;stroke-linejoin:miter;stroke-miterlimit:4;stroke-dasharray:none;stroke-dashoffset:0;stroke-opacity:1;-inkscape-stroke:none;paint-order:stroke markers fill;stop-color:#000000"
         id="circle33558"
         cx="118.70596"
         cy="156.68922"
         r="2.25" /><circle
         style="font-variation-settings:normal;vector-effect:none;fill:#fff6d5;fill-opacity:1;stroke:#333333;stroke-width:0.5;stroke-linecap:butt;stroke-linejoin:miter;stroke-miterlimit:4;stroke-dasharray:none;stroke-dashoffset:0;stroke-opacity:1;-inkscape-stroke:none;paint-order:stroke markers fill;stop-color:#000000"
         id="circle33560"
         cx="123.9976"
         cy="156.68922"
         r="2.25" /><circle
         style="font-variation-settings:normal;fill:none;fill-opacity:1;stroke:#333333;stroke-width:0.5;stroke-linecap:butt;stroke-linejoin:miter;stroke-miterlimit:4;stroke-dasharray:none;stroke-dashoffset:0;stroke-opacity:1;paint-order:stroke markers fill;stop-color:#000000"
         id="circle33562"
         cx="129.28928"
         cy="156.68922"
         r="2.25" /><circle
         style="font-variation-settings:normal;vector-effect:none;fill:#00aa88;fill-opacity:1;stroke:#333333;stroke-width:0.5;stroke-linecap:butt;stroke-linejoin:miter;stroke-miterlimit:4;stroke-dasharray:none;stroke-dashoffset:0;stroke-opacity:1;-inkscape-stroke:none;paint-order:stroke markers fill;stop-color:#000000"
         id="circle33564"
         cx="129.28928"
         cy="156.68922"
         r="2.25" /><circle
         style="font-variation-settings:normal;vector-effect:none;fill:#fff6d5;fill-opacity:1;stroke:#333333;stroke-width:0.5;stroke-linecap:butt;stroke-linejoin:miter;stroke-miterlimit:4;stroke-dasharray:none;stroke-dashoffset:0;stroke-opacity:1;-inkscape-stroke:none;paint-order:stroke markers fill;stop-color:#000000"
         id="circle33566"
         cx="113.41428"
         cy="161.9809"
         r="2.25" /><circle
         style="font-variation-settings:normal;fill:none;fill-opacity:1;stroke:#333333;stroke-width:0.5;stroke-linecap:butt;stroke-linejoin:miter;stroke-miterlimit:4;stroke-dasharray:none;stroke-dashoffset:0;stroke-opacity:1;paint-order:stroke markers fill;stop-color:#000000"
         id="circle33568"
         cx="118.70596"
         cy="161.9809"
         r="2.25" /><circle
         style="font-variation-settings:normal;vector-effect:none;fill:#00aa88;fill-opacity:1;stroke:#333333;stroke-width:0.5;stroke-linecap:butt;stroke-linejoin:miter;stroke-miterlimit:4;stroke-dasharray:none;stroke-dashoffset:0;stroke-opacity:1;-inkscape-stroke:none;paint-order:stroke markers fill;stop-color:#000000"
         id="circle33570"
         cx="118.70596"
         cy="161.9809"
         r="2.25" /><circle
         style="font-variation-settings:normal;vector-effect:none;fill:#00aa88;fill-opacity:1;stroke:#333333;stroke-width:0.5;stroke-linecap:butt;stroke-linejoin:miter;stroke-miterlimit:4;stroke-dasharray:none;stroke-dashoffset:0;stroke-opacity:1;-inkscape-stroke:none;paint-order:stroke markers fill;stop-color:#000000"
         id="circle33572"
         cx="123.9976"
         cy="161.9809"
         r="2.25" /><circle
         style="font-variation-settings:normal;fill:none;fill-opacity:1;stroke:#333333;stroke-width:0.5;stroke-linecap:butt;stroke-linejoin:miter;stroke-miterlimit:4;stroke-dasharray:none;stroke-dashoffset:0;stroke-opacity:1;paint-order:stroke markers fill;stop-color:#000000"
         id="circle33574"
         cx="129.28928"
         cy="161.9809"
         r="2.25" /><circle
         style="font-variation-settings:normal;vector-effect:none;fill:#00aa88;fill-opacity:1;stroke:#333333;stroke-width:0.5;stroke-linecap:butt;stroke-linejoin:miter;stroke-miterlimit:4;stroke-dasharray:none;stroke-dashoffset:0;stroke-opacity:1;-inkscape-stroke:none;paint-order:stroke markers fill;stop-color:#000000"
         id="circle33576"
         cx="129.28928"
         cy="161.9809"
         r="2.25" /></g><circle
       style="font-variation-settings:normal;vector-effect:none;fill:#00aa88;fill-opacity:1;stroke:#333333;stroke-width:0.5;stroke-linecap:butt;stroke-linejoin:miter;stroke-miterlimit:4;stroke-dasharray:none;stroke-dashoffset:0;stroke-opacity:1;-inkscape-stroke:none;paint-order:stroke markers fill;stop-color:#000000"
       id="circle33578"
       cx="136.1685"
       cy="146.10588"
       r="2.25" /><circle
       style="font-variation-settings:normal;vector-effect:none;fill:#00aa88;fill-opacity:1;stroke:#333333;stroke-width:0.5;stroke-linecap:butt;stroke-linejoin:miter;stroke-miterlimit:4;stroke-dasharray:none;stroke-dashoffset:0;stroke-opacity:1;-inkscape-stroke:none;paint-order:stroke markers fill;stop-color:#000000"
       id="circle33580"
       cx="141.46019"
       cy="146.10588"
       r="2.25" /><circle
       style="font-variation-settings:normal;vector-effect:none;fill:#00aa88;fill-opacity:1;stroke:#333333;stroke-width:0.5;stroke-linecap:butt;stroke-linejoin:miter;stroke-miterlimit:4;stroke-dasharray:none;stroke-dashoffset:0;stroke-opacity:1;-inkscape-stroke:none;paint-order:stroke markers fill;stop-color:#000000"
       id="circle33582"
       cx="141.46019"
       cy="146.10588"
       r="2.25" /><circle
       style="font-variation-settings:normal;vector-effect:none;fill:#00aa88;fill-opacity:1;stroke:#333333;stroke-width:0.5;stroke-linecap:butt;stroke-linejoin:miter;stroke-miterlimit:4;stroke-dasharray:none;stroke-dashoffset:0;stroke-opacity:1;-inkscape-stroke:none;paint-order:stroke markers fill;stop-color:#000000"
       id="circle33584"
       cx="146.75183"
       cy="146.10588"
       r="2.25" /><circle
       style="font-variation-settings:normal;vector-effect:none;fill:#00aa88;fill-opacity:1;stroke:#333333;stroke-width:0.5;stroke-linecap:butt;stroke-linejoin:miter;stroke-miterlimit:4;stroke-dasharray:none;stroke-dashoffset:0;stroke-opacity:1;-inkscape-stroke:none;paint-order:stroke markers fill;stop-color:#000000"
       id="circle33586"
       cx="152.04352"
       cy="146.10588"
       r="2.25" /><circle
       style="font-variation-settings:normal;vector-effect:none;fill:#00aa88;fill-opacity:1;stroke:#333333;stroke-width:0.5;stroke-linecap:butt;stroke-linejoin:miter;stroke-miterlimit:4;stroke-dasharray:none;stroke-dashoffset:0;stroke-opacity:1;-inkscape-stroke:none;paint-order:stroke markers fill;stop-color:#000000"
       id="circle33588"
       cx="152.04352"
       cy="146.10588"
       r="2.25" /><circle
       style="font-variation-settings:normal;vector-effect:none;fill:#00aa88;fill-opacity:1;stroke:#333333;stroke-width:0.5;stroke-linecap:butt;stroke-linejoin:miter;stroke-miterlimit:4;stroke-dasharray:none;stroke-dashoffset:0;stroke-opacity:1;-inkscape-stroke:none;paint-order:stroke markers fill;stop-color:#000000"
       id="circle33590"
       cx="136.1685"
       cy="151.39755"
       r="2.25" /><circle
       style="font-variation-settings:normal;vector-effect:none;fill:#00aa88;fill-opacity:1;stroke:#333333;stroke-width:0.5;stroke-linecap:butt;stroke-linejoin:miter;stroke-miterlimit:4;stroke-dasharray:none;stroke-dashoffset:0;stroke-opacity:1;-inkscape-stroke:none;paint-order:stroke markers fill;stop-color:#000000"
       id="circle33592"
       cx="141.46019"
       cy="151.39755"
       r="2.25" /><circle
       style="font-variation-settings:normal;vector-effect:none;fill:#00aa88;fill-opacity:1;stroke:#333333;stroke-width:0.5;stroke-linecap:butt;stroke-linejoin:miter;stroke-miterlimit:4;stroke-dasharray:none;stroke-dashoffset:0;stroke-opacity:1;-inkscape-stroke:none;paint-order:stroke markers fill;stop-color:#000000"
       id="circle33594"
       cx="141.46019"
       cy="151.39755"
       r="2.25" /><circle
       style="font-variation-settings:normal;vector-effect:none;fill:#00aa88;fill-opacity:1;stroke:#333333;stroke-width:0.5;stroke-linecap:butt;stroke-linejoin:miter;stroke-miterlimit:4;stroke-dasharray:none;stroke-dashoffset:0;stroke-opacity:1;-inkscape-stroke:none;paint-order:stroke markers fill;stop-color:#000000"
       id="circle33596"
       cx="146.75183"
       cy="151.39755"
       r="2.25" /><circle
       style="font-variation-settings:normal;vector-effect:none;fill:#00aa88;fill-opacity:1;stroke:#333333;stroke-width:0.5;stroke-linecap:butt;stroke-linejoin:miter;stroke-miterlimit:4;stroke-dasharray:none;stroke-dashoffset:0;stroke-opacity:1;-inkscape-stroke:none;paint-order:stroke markers fill;stop-color:#000000"
       id="circle33598"
       cx="152.04352"
       cy="151.39755"
       r="2.25" /><circle
       style="font-variation-settings:normal;vector-effect:none;fill:#00aa88;fill-opacity:1;stroke:#333333;stroke-width:0.5;stroke-linecap:butt;stroke-linejoin:miter;stroke-miterlimit:4;stroke-dasharray:none;stroke-dashoffset:0;stroke-opacity:1;-inkscape-stroke:none;paint-order:stroke markers fill;stop-color:#000000"
       id="circle33600"
       cx="152.04352"
       cy="151.39755"
       r="2.25" /><circle
       style="font-variation-settings:normal;vector-effect:none;fill:#00aa88;fill-opacity:1;stroke:#333333;stroke-width:0.5;stroke-linecap:butt;stroke-linejoin:miter;stroke-miterlimit:4;stroke-dasharray:none;stroke-dashoffset:0;stroke-opacity:1;-inkscape-stroke:none;paint-order:stroke markers fill;stop-color:#000000"
       id="circle33602"
       cx="136.1685"
       cy="156.68922"
       r="2.25" /><circle
       style="font-variation-settings:normal;vector-effect:none;fill:#00aa88;fill-opacity:1;stroke:#333333;stroke-width:0.5;stroke-linecap:butt;stroke-linejoin:miter;stroke-miterlimit:4;stroke-dasharray:none;stroke-dashoffset:0;stroke-opacity:1;-inkscape-stroke:none;paint-order:stroke markers fill;stop-color:#000000"
       id="circle33604"
       cx="141.46019"
       cy="156.68922"
       r="2.25" /><circle
       style="font-variation-settings:normal;vector-effect:none;fill:#00aa88;fill-opacity:1;stroke:#333333;stroke-width:0.5;stroke-linecap:butt;stroke-linejoin:miter;stroke-miterlimit:4;stroke-dasharray:none;stroke-dashoffset:0;stroke-opacity:1;-inkscape-stroke:none;paint-order:stroke markers fill;stop-color:#000000"
       id="circle33606"
       cx="141.46019"
       cy="156.68922"
       r="2.25" /><circle
       style="font-variation-settings:normal;vector-effect:none;fill:#00aa88;fill-opacity:1;stroke:#333333;stroke-width:0.5;stroke-linecap:butt;stroke-linejoin:miter;stroke-miterlimit:4;stroke-dasharray:none;stroke-dashoffset:0;stroke-opacity:1;-inkscape-stroke:none;paint-order:stroke markers fill;stop-color:#000000"
       id="circle33608"
       cx="146.75183"
       cy="156.68922"
       r="2.25" /><circle
       style="font-variation-settings:normal;vector-effect:none;fill:#00aa88;fill-opacity:1;stroke:#333333;stroke-width:0.5;stroke-linecap:butt;stroke-linejoin:miter;stroke-miterlimit:4;stroke-dasharray:none;stroke-dashoffset:0;stroke-opacity:1;-inkscape-stroke:none;paint-order:stroke markers fill;stop-color:#000000"
       id="circle33610"
       cx="152.04352"
       cy="156.68922"
       r="2.25" /><circle
       style="font-variation-settings:normal;vector-effect:none;fill:#00aa88;fill-opacity:1;stroke:#333333;stroke-width:0.5;stroke-linecap:butt;stroke-linejoin:miter;stroke-miterlimit:4;stroke-dasharray:none;stroke-dashoffset:0;stroke-opacity:1;-inkscape-stroke:none;paint-order:stroke markers fill;stop-color:#000000"
       id="circle33612"
       cx="152.04352"
       cy="156.68922"
       r="2.25" /><circle
       style="font-variation-settings:normal;vector-effect:none;fill:#00aa88;fill-opacity:1;stroke:#333333;stroke-width:0.5;stroke-linecap:butt;stroke-linejoin:miter;stroke-miterlimit:4;stroke-dasharray:none;stroke-dashoffset:0;stroke-opacity:1;-inkscape-stroke:none;paint-order:stroke markers fill;stop-color:#000000"
       id="circle33614"
       cx="136.1685"
       cy="161.9809"
       r="2.25" /><circle
       style="font-variation-settings:normal;vector-effect:none;fill:#00aa88;fill-opacity:1;stroke:#333333;stroke-width:0.5;stroke-linecap:butt;stroke-linejoin:miter;stroke-miterlimit:4;stroke-dasharray:none;stroke-dashoffset:0;stroke-opacity:1;-inkscape-stroke:none;paint-order:stroke markers fill;stop-color:#000000"
       id="circle33616"
       cx="141.46019"
       cy="161.9809"
       r="2.25" /><circle
       style="font-variation-settings:normal;vector-effect:none;fill:#00aa88;fill-opacity:1;stroke:#333333;stroke-width:0.5;stroke-linecap:butt;stroke-linejoin:miter;stroke-miterlimit:4;stroke-dasharray:none;stroke-dashoffset:0;stroke-opacity:1;-inkscape-stroke:none;paint-order:stroke markers fill;stop-color:#000000"
       id="circle33618"
       cx="141.46019"
       cy="161.9809"
       r="2.25" /><circle
       style="font-variation-settings:normal;vector-effect:none;fill:#00aa88;fill-opacity:1;stroke:#333333;stroke-width:0.5;stroke-linecap:butt;stroke-linejoin:miter;stroke-miterlimit:4;stroke-dasharray:none;stroke-dashoffset:0;stroke-opacity:1;-inkscape-stroke:none;paint-order:stroke markers fill;stop-color:#000000"
       id="circle33620"
       cx="146.75183"
       cy="161.9809"
       r="2.25" /><circle
       style="font-variation-settings:normal;vector-effect:none;fill:#00aa88;fill-opacity:1;stroke:#333333;stroke-width:0.5;stroke-linecap:butt;stroke-linejoin:miter;stroke-miterlimit:4;stroke-dasharray:none;stroke-dashoffset:0;stroke-opacity:1;-inkscape-stroke:none;paint-order:stroke markers fill;stop-color:#000000"
       id="circle33622"
       cx="152.04352"
       cy="161.9809"
       r="2.25" /><circle
       style="font-variation-settings:normal;vector-effect:none;fill:#00aa88;fill-opacity:1;stroke:#333333;stroke-width:0.5;stroke-linecap:butt;stroke-linejoin:miter;stroke-miterlimit:4;stroke-dasharray:none;stroke-dashoffset:0;stroke-opacity:1;-inkscape-stroke:none;paint-order:stroke markers fill;stop-color:#000000"
       id="circle33624"
       cx="152.04352"
       cy="161.9809"
       r="2.25" /><text
       xml:space="preserve"
       style="font-size:3.52778px;line-height:0.65;font-family:'EB Garamond';-inkscape-font-specification:'EB Garamond, Normal';text-align:end;letter-spacing:0.396875px;word-spacing:0px;text-anchor:end;stroke-width:0.264583"
       x="83.990189"
       y="94.969406"
       id="text34518"><tspan
         sodipodi:role="line"
         id="tspan34516"
         style="font-size:3.52778px;stroke-width:0.264583"
         x="84.387062"
         y="94.969406">PARENTS</tspan></text><text
       xml:space="preserve"
       style="font-size:3.175px;line-height:0.65;font-family:'EB Garamond';-inkscape-font-specification:'EB Garamond, Normal';text-align:end;letter-spacing:0px;word-spacing:0px;text-anchor:end;stroke-width:0.264583"
       x="86.163277"
       y="101.16193"
       id="text34522"><tspan
         sodipodi:role="line"
         id="tspan34520"
         style="font-size:3.175px;stroke-width:0.264583"
         x="86.163277"
         y="101.16193">First Generation</tspan></text><text
       xml:space="preserve"
       style="font-size:3.175px;line-height:0.65;font-family:'EB Garamond';-inkscape-font-specification:'EB Garamond, Normal';text-align:end;letter-spacing:0px;word-spacing:0px;text-anchor:end;stroke-width:0.264583"
       x="89.144592"
       y="167.71181"
       id="text34534"><tspan
         sodipodi:role="line"
         id="tspan34532"
         style="font-size:3.175px;stroke-width:0.264583"
         x="89.144592"
         y="167.71181">Fourth Generation</tspan></text><rect
       style="fill:#f9f9f9;fill-opacity:1;fill-rule:evenodd;stroke:none;stroke-width:0.317273;stroke-linecap:round;stop-color:#000000"
       id="rect646"
       width="23.091724"
       height="2.5"
       x="66.319565"
       y="108.85579" /><text
       xml:space="preserve"
       style="font-size:3.175px;line-height:0.65;font-family:'EB Garamond';-inkscape-font-specification:'EB Garamond, Normal';text-align:end;letter-spacing:0px;word-spacing:0px;text-anchor:end;stroke-width:0.264583"
       x="89.411293"
       y="111.09099"
       id="text34526"><tspan
         sodipodi:role="line"
         id="tspan34524"
         style="font-size:3.175px;stroke-width:0.264583"
         x="89.411293"
         y="111.09099">Second Generation</tspan></text><rect
       style="fill:#f9f9f9;fill-opacity:1;fill-rule:evenodd;stroke:none;stroke-width:0.335302;stroke-linecap:round;stop-color:#000000"
       id="rect907"
       width="21.574081"
       height="2.5"
       x="66.319565"
       y="125.25677" /><text
       xml:space="preserve"
       style="font-size:3.175px;line-height:0.65;font-family:'EB Garamond';-inkscape-font-specification:'EB Garamond, Normal';text-align:end;letter-spacing:0px;word-spacing:0px;text-anchor:end;stroke-width:0.264583"
       x="87.893646"
       y="127.49515"
       id="text34530"><tspan
         sodipodi:role="line"
         id="tspan34528"
         style="font-size:3.175px;stroke-width:0.264583"
         x="87.893646"
         y="127.49515">Third Generation</tspan></text></g></svg>
