<?xml version="1.0" encoding="UTF-8" standalone="no"?>
<!-- Created with Inkscape (http://www.inkscape.org/) -->

<svg
   width="80mm"
   height="42.885487mm"
   viewBox="0 0 80 42.885486"
   version="1.1"
   id="svg20593"
   xml:space="preserve"
   inkscape:version="1.2.2 (b0a8486, 2022-12-01)"
   sodipodi:docname="noise2.svg"
   xmlns:inkscape="http://www.inkscape.org/namespaces/inkscape"
   xmlns:sodipodi="http://sodipodi.sourceforge.net/DTD/sodipodi-0.dtd"
   xmlns:xlink="http://www.w3.org/1999/xlink"
   xmlns="http://www.w3.org/2000/svg"
   xmlns:svg="http://www.w3.org/2000/svg"
   xmlns:rdf="http://www.w3.org/1999/02/22-rdf-syntax-ns#"
   xmlns:cc="http://creativecommons.org/ns#"><sodipodi:namedview
     id="namedview20595"
     pagecolor="#ffffff"
     bordercolor="#666666"
     borderopacity="1.0"
     inkscape:showpageshadow="2"
     inkscape:pageopacity="0.0"
     inkscape:pagecheckerboard="0"
     inkscape:deskcolor="#d1d1d1"
     inkscape:document-units="mm"
     showgrid="false"
     inkscape:zoom="2.2721093"
     inkscape:cx="151.18111"
     inkscape:cy="81.202079"
     inkscape:window-width="1440"
     inkscape:window-height="875"
     inkscape:window-x="0"
     inkscape:window-y="0"
     inkscape:window-maximized="0"
     inkscape:current-layer="layer1" /><defs
     id="defs20590"><marker
       style="overflow:visible"
       id="Arrow1L"
       refX="0"
       refY="0"
       orient="auto-start-reverse"
       inkscape:stockid="Arrow1L"
       markerWidth="8.75"
       markerHeight="5"
       viewBox="0 0 8.75 5"
       inkscape:isstock="true"
       inkscape:collect="always"
       preserveAspectRatio="xMidYMid"><path
         style="fill:context-stroke;fill-rule:evenodd;stroke:none"
         d="M 0,0 5,-5 -12.5,0 5,5 Z"
         id="arrow1L"
         transform="scale(-0.5)" /></marker><g
       id="g20986"><symbol
         overflow="visible"
         id="glyph0-0"><path
           style="stroke:none"
           d="m 1.796875,0 h 14.34375 V -16.96875 H 1.796875 Z m 1.78125,-1.796875 v -13.375 H 14.34375 v 13.375 z m 0,0"
           id="path20980" /></symbol><symbol
         overflow="visible"
         id="glyph0-1"><path
           style="stroke:none"
           d="m 0.96875,0.171875 c 1.1875,0 2.71875,-0.203125 4.296875,-0.203125 1.328125,0 2.625,0.0625 3.265625,0.0625 0.609375,0 1.046875,-0.109375 1.046875,-0.390625 0,-0.328125 -0.359375,-0.5 -1.1875,-0.71875 -1.25,-0.328125 -2.46875,-1.21875 -2,-2.578125 L 11.9375,-19.4375 c 0.140625,-0.390625 0.21875,-0.609375 0.296875,-0.609375 0.09375,0 0.171875,0.21875 0.3125,0.640625 L 17.25,-3.765625 c 0.421875,1.546875 0.140625,2.1875 -1.6875,2.65625 C 14.921875,-0.9375 14.375,-0.71875 14.375,-0.390625 14.375,-0.109375 14.8125,0 15.421875,0 c 0.859375,0 2.15625,-0.03125 3.546875,-0.03125 1.609375,0 3.984375,0.203125 4.984375,0.203125 C 24.5625,0.171875 25,0.109375 25,-0.171875 25,-0.5 24.640625,-0.859375 23.8125,-1 22.375,-1.25 21.15625,-1.71875 20.1875,-4.59375 l -6.28125,-18.9375 c -0.09375,-0.3125 -0.171875,-0.5 -0.34375,-0.5 -0.1875,0 -0.46875,0.4375 -1.015625,0.6875 -0.390625,0.171875 -0.71875,0.390625 -1.140625,0.53125 -0.07813,0.04687 -0.03125,0.609375 -0.140625,1.015625 -0.109375,0.421875 -0.25,0.75 -0.359375,1.0625 L 4.203125,-3.875 c -0.71875,1.828125 -1.875,2.40625 -3.09375,2.765625 -0.78125,0.25 -1.1875,0.5 -1.1875,0.828125 0,0.28125 0.4375,0.453125 1.046875,0.453125 z m 0,0"
           id="path20983" /></symbol></g></defs><g
     inkscape:label="Layer 1"
     inkscape:groupmode="layer"
     id="layer1"
     transform="translate(-48.668248,-128.02382)"><rect
       style="fill:#d40000;fill-opacity:1;stroke:#000000;stroke-width:0.430661;stroke-linecap:square;stroke-dasharray:none;paint-order:stroke markers fill;stop-color:#000000"
       id="rect21371"
       width="9.1596069"
       height="10.520082"
       x="81.773262"
       y="131.81586" /><rect
       style="fill:#00ccff;fill-opacity:1;stroke:#000000;stroke-width:0.430661;stroke-linecap:square;stroke-dasharray:none;paint-order:stroke markers fill;stop-color:#000000"
       id="rect20615"
       width="19.758465"
       height="5.044714"
       x="56.250454"
       y="134.09776" /><use
       xlink:href="#glyph0-1"
       x="0.49520001"
       y="24.648199"
       id="use20990"
       style="fill:#000000;fill-opacity:1;stroke-width:2.41501"
       transform="matrix(0.1258194,0,0,0.1258194,84.813542,135.89488)" /><rect
       style="fill:none;fill-opacity:1;stroke:#d40000;stroke-width:0.430662;stroke-linecap:square;stroke-dasharray:none;stroke-opacity:1;paint-order:stroke markers fill;stop-color:#000000"
       id="rect21373"
       width="13.783928"
       height="37.740517"
       x="98.799164"
       y="128.23915" /><rect
       style="fill:none;fill-opacity:1;stroke:#00ccff;stroke-width:0.430662;stroke-linecap:square;stroke-dasharray:none;stroke-opacity:1;paint-order:stroke markers fill;stop-color:#000000"
       id="rect22272"
       width="13.783928"
       height="37.740517"
       x="114.66899"
       y="128.23915" /><circle
       style="fill:none;fill-opacity:1;stroke:#00ccff;stroke-width:0.43066;stroke-linecap:square;stroke-dasharray:none;stroke-opacity:1;paint-order:stroke markers fill;stop-color:#000000"
       id="path23842"
       cx="66.443253"
       cy="153.13858"
       r="7.7519007" /><circle
       style="fill:none;fill-opacity:1;stroke:#d40000;stroke-width:0.43066;stroke-linecap:square;stroke-dasharray:none;stroke-opacity:1;paint-order:stroke markers fill;stop-color:#000000"
       id="circle23844"
       cx="86.622108"
       cy="153.13858"
       r="7.7519007" /><path
       style="fill:none;stroke:#00ccff;stroke-width:0.227891px;stroke-linecap:round;stroke-linejoin:round;stroke-opacity:1"
       d="m 59.661948,153.45444 0.297263,-0.81747 0.33442,0.50161 0.817471,-2.3595 0.557369,2.86114 0.631683,-1.15188 0.408735,1.04041 1.263367,-4.23599 0.222946,6.09388 0.780314,-2.24806 0.408737,0.5388 0.371577,-0.5388 0.373856,0.61312 0.313567,-4.10554 0.352998,3.91975 0.66884,-1.07757 0.260105,0.65024 0.334421,-0.83603 0.111474,3.90156 0.817471,-5.38788 0.33442,2.86115 0.594526,-1.59779 0.52021,1.05899 0.408734,-0.61309 0.222949,0.37158 0.483051,-1.26336 0.743156,1.50487 0.408737,-0.61309 0.594525,0.61309"
       id="path24461"
       sodipodi:nodetypes="ccccccccccccccccccccccccccccc" /><path
       style="fill:none;stroke:#d40000;stroke-width:0.227891px;stroke-linecap:round;stroke-linejoin:round;stroke-opacity:1"
       d="m 81.55793,156.76148 c 0,0 1.518681,-0.0504 2.368078,-0.11147 0.849398,-0.0611 0.794998,-5.30475 1.114736,-7.91462 l 0.705999,7.58256 1.337682,-2.97498 c 0.157873,1.20969 0.52619,2.86486 0.846294,3.38136 0.320103,0.51649 3.217479,0.0743 3.217479,0.0743"
       id="path25153"
       sodipodi:nodetypes="czccczc" /><path
       style="fill:none;stroke:#d40000;stroke-width:0.258397;stroke-linecap:round;stroke-linejoin:round;stroke-dasharray:none;stroke-opacity:1"
       d="m 100.46125,157.0959 3.00977,-0.14863 1.22622,-24.2269 0.5202,24.00396 0.22296,-0.0743 0.66883,-8.21188 0.74316,8.32336 c 1.34685,0.39743 2.69895,0.46578 4.08736,0.52022"
       id="path25342"
       sodipodi:nodetypes="cccccccc" /><path
       style="fill:none;stroke:#00ccff;stroke-width:0.430661;stroke-linecap:round;stroke-linejoin:round;stroke-dasharray:none;stroke-opacity:1"
       d="m 116.95931,157.0959 2.26663,-0.18579 c 0.4828,-0.31141 0.46146,-1.44096 0.85463,-1.59778 0.61779,0.0776 0.52554,0.85449 0.59453,1.33768 l 0.48305,-0.11147 c 0,0 0.17979,-0.50431 0.4028,-0.55737 0.76198,-0.10912 0.93305,0.91064 1.41794,1.07757 0.25418,0.0706 0.70599,-0.22294 0.70599,-0.22294 1.36805,-0.11596 2.64329,0.28451 3.93873,0.66122"
       id="path31071"
       sodipodi:nodetypes="ccccccccc" /><path
       style="fill:none;stroke:#333333;stroke-width:0.227891px;stroke-linecap:round;stroke-linejoin:round;stroke-opacity:1;marker-end:url(#Arrow1L)"
       d="m 48.782193,136.62012 h 6.100912"
       id="path35477"
       sodipodi:nodetypes="cc" /><path
       style="fill:none;stroke:#333333;stroke-width:0.227891px;stroke-linecap:round;stroke-linejoin:round;stroke-opacity:1;marker-end:url(#Arrow1L)"
       d="m 76.129178,136.62012 h 4.27778"
       id="path36654"
       sodipodi:nodetypes="cc" /><path
       style="fill:none;stroke:#333333;stroke-width:0.227891px;stroke-linecap:round;stroke-linejoin:round;stroke-opacity:1;marker-end:url(#Arrow1L)"
       d="m 91.170017,136.62012 h 6.100891"
       id="path36658"
       sodipodi:nodetypes="cc" /><path
       style="fill:none;stroke:#333333;stroke-width:0.227891px;stroke-linecap:round;stroke-linejoin:round;stroke-opacity:1;marker-end:url(#Arrow1L)"
       d="m 86.353065,145.24635 v -1.54306"
       id="path36662"
       sodipodi:nodetypes="cc" /><path
       style="fill:none;stroke:#333333;stroke-width:0.227891px;stroke-linecap:round;stroke-linejoin:round;stroke-opacity:1;marker-end:url(#Arrow1L)"
       d="m 66.139206,145.05989 v -4.27777"
       id="path36666"
       sodipodi:nodetypes="cc" /><text
       xml:space="preserve"
       style="font-size:3.52777778px;line-height:0.65;font-family:'EB Garamond';-inkscape-font-specification:'EB Garamond, Normal';text-align:end;letter-spacing:0.341837px;word-spacing:0px;text-anchor:end;stroke-width:0.227891"
       x="75.301277"
       y="160.14284"
       id="text36672"><tspan
         sodipodi:role="line"
         id="tspan36670"
         style="font-style:italic;stroke-width:0.227891;font-size:3.52777778px"
         x="75.643112"
         y="160.14284">P</tspan></text><text
       xml:space="preserve"
       style="font-size:3.52777778px;line-height:0.65;font-family:'EB Garamond';-inkscape-font-specification:'EB Garamond, Normal';text-align:end;letter-spacing:0.341837px;word-spacing:0px;text-anchor:end;stroke-width:0.227891"
       x="95.443329"
       y="160.14284"
       id="text36676"><tspan
         sodipodi:role="line"
         id="tspan36674"
         style="font-style:italic;stroke-width:0.227891;font-size:3.52777778px"
         x="95.785164"
         y="160.14284">S</tspan></text><text
       xml:space="preserve"
       style="font-style:normal;font-variant:normal;font-weight:normal;font-stretch:normal;font-size:2.82222222px;line-height:0.65;font-family:'EB Garamond';-inkscape-font-specification:'EB Garamond';text-align:end;letter-spacing:0px;word-spacing:0px;text-anchor:end;stroke-width:0.227891"
       x="78.466866"
       y="170.32408"
       id="text36680"><tspan
         sodipodi:role="line"
         id="tspan36678"
         style="font-style:normal;font-variant:normal;font-weight:normal;font-stretch:normal;font-family:'EB Garamond';-inkscape-font-specification:'EB Garamond';stroke-width:0.227891;font-size:2.82222222px"
         x="78.466866"
         y="170.32408">(a)</tspan></text><text
       xml:space="preserve"
       style="font-style:normal;font-variant:normal;font-weight:normal;font-stretch:normal;font-size:2.82222222px;line-height:0.65;font-family:'EB Garamond';-inkscape-font-specification:'EB Garamond';text-align:end;letter-spacing:0px;word-spacing:0px;text-anchor:end;stroke-width:0.227891"
       x="107.16785"
       y="170.32408"
       id="text36684"><tspan
         sodipodi:role="line"
         id="tspan36682"
         style="font-style:normal;font-variant:normal;font-weight:normal;font-stretch:normal;font-family:'EB Garamond';-inkscape-font-specification:'EB Garamond';stroke-width:0.227891;font-size:2.82222222px"
         x="107.16785"
         y="170.32408">(b)</tspan></text><text
       xml:space="preserve"
       style="font-style:normal;font-variant:normal;font-weight:normal;font-stretch:normal;font-size:2.82222222px;line-height:0.65;font-family:'EB Garamond';-inkscape-font-specification:'EB Garamond';text-align:end;letter-spacing:0px;word-spacing:0px;text-anchor:end;stroke-width:0.227891"
       x="123.71076"
       y="170.32408"
       id="text36688"><tspan
         sodipodi:role="line"
         id="tspan36686"
         style="font-style:normal;font-variant:normal;font-weight:normal;font-stretch:normal;font-family:'EB Garamond';-inkscape-font-specification:'EB Garamond';stroke-width:0.227891;font-size:2.82222222px"
         x="123.71076"
         y="170.32408">(c)</tspan></text></g><metadata
     id="metadata37501"><rdf:RDF><cc:Work
         rdf:about=""><cc:license
           rdf:resource="http://creativecommons.org/licenses/by/4.0/" /></cc:Work><cc:License
         rdf:about="http://creativecommons.org/licenses/by/4.0/"><cc:permits
           rdf:resource="http://creativecommons.org/ns#Reproduction" /><cc:permits
           rdf:resource="http://creativecommons.org/ns#Distribution" /><cc:requires
           rdf:resource="http://creativecommons.org/ns#Notice" /><cc:requires
           rdf:resource="http://creativecommons.org/ns#Attribution" /><cc:permits
           rdf:resource="http://creativecommons.org/ns#DerivativeWorks" /></cc:License></rdf:RDF></metadata></svg>
