<?xml version="1.0" encoding="UTF-8" standalone="no"?>
<!-- Created with Inkscape (http://www.inkscape.org/) -->

<svg
   width="80mm"
   height="68.105194mm"
   viewBox="0 0 80 68.105194"
   version="1.1"
   id="svg5"
   xml:space="preserve"
   inkscape:version="1.2.2 (b0a8486, 2022-12-01)"
   sodipodi:docname="noise1.svg"
   xmlns:inkscape="http://www.inkscape.org/namespaces/inkscape"
   xmlns:sodipodi="http://sodipodi.sourceforge.net/DTD/sodipodi-0.dtd"
   xmlns="http://www.w3.org/2000/svg"
   xmlns:svg="http://www.w3.org/2000/svg"><sodipodi:namedview
     id="namedview7"
     pagecolor="#ffffff"
     bordercolor="#666666"
     borderopacity="1.0"
     inkscape:showpageshadow="2"
     inkscape:pageopacity="0.0"
     inkscape:pagecheckerboard="0"
     inkscape:deskcolor="#d1d1d1"
     inkscape:document-units="mm"
     showgrid="false"
     inkscape:zoom="1.091291"
     inkscape:cx="9.6216316"
     inkscape:cy="35.737489"
     inkscape:window-width="1411"
     inkscape:window-height="878"
     inkscape:window-x="0"
     inkscape:window-y="0"
     inkscape:window-maximized="0"
     inkscape:current-layer="layer1"
     showguides="true"><sodipodi:guide
       position="83.278629,36.223191"
       orientation="1,0"
       id="guide6845"
       inkscape:locked="false" /></sodipodi:namedview><defs
     id="defs2"><marker
       style="overflow:visible"
       id="Arrow1L"
       refX="0"
       refY="0"
       orient="auto-start-reverse"
       inkscape:stockid="Arrow1L"
       markerWidth="8.75"
       markerHeight="5"
       viewBox="0 0 8.75 5"
       inkscape:isstock="true"
       inkscape:collect="always"
       preserveAspectRatio="xMidYMid"><path
         style="fill:context-stroke;fill-rule:evenodd;stroke:none"
         d="M 0,0 5,-5 -12.5,0 5,5 Z"
         id="arrow1L"
         transform="scale(-0.5)" /></marker><g
       id="g20986"><symbol
         overflow="visible"
         id="glyph0-0"><path
           style="stroke:none"
           d="m 1.796875,0 h 14.34375 V -16.96875 H 1.796875 Z m 1.78125,-1.796875 v -13.375 H 14.34375 v 13.375 z m 0,0"
           id="path20980" /></symbol><symbol
         overflow="visible"
         id="glyph0-1"><path
           style="stroke:none"
           d="m 0.96875,0.171875 c 1.1875,0 2.71875,-0.203125 4.296875,-0.203125 1.328125,0 2.625,0.0625 3.265625,0.0625 0.609375,0 1.046875,-0.109375 1.046875,-0.390625 0,-0.328125 -0.359375,-0.5 -1.1875,-0.71875 -1.25,-0.328125 -2.46875,-1.21875 -2,-2.578125 L 11.9375,-19.4375 c 0.140625,-0.390625 0.21875,-0.609375 0.296875,-0.609375 0.09375,0 0.171875,0.21875 0.3125,0.640625 L 17.25,-3.765625 c 0.421875,1.546875 0.140625,2.1875 -1.6875,2.65625 C 14.921875,-0.9375 14.375,-0.71875 14.375,-0.390625 14.375,-0.109375 14.8125,0 15.421875,0 c 0.859375,0 2.15625,-0.03125 3.546875,-0.03125 1.609375,0 3.984375,0.203125 4.984375,0.203125 C 24.5625,0.171875 25,0.109375 25,-0.171875 25,-0.5 24.640625,-0.859375 23.8125,-1 22.375,-1.25 21.15625,-1.71875 20.1875,-4.59375 l -6.28125,-18.9375 c -0.09375,-0.3125 -0.171875,-0.5 -0.34375,-0.5 -0.1875,0 -0.46875,0.4375 -1.015625,0.6875 -0.390625,0.171875 -0.71875,0.390625 -1.140625,0.53125 -0.07813,0.04687 -0.03125,0.609375 -0.140625,1.015625 -0.109375,0.421875 -0.25,0.75 -0.359375,1.0625 L 4.203125,-3.875 c -0.71875,1.828125 -1.875,2.40625 -3.09375,2.765625 -0.78125,0.25 -1.1875,0.5 -1.1875,0.828125 0,0.28125 0.4375,0.453125 1.046875,0.453125 z m 0,0"
           id="path20983" /></symbol></g></defs><g
     inkscape:label="Layer 1"
     inkscape:groupmode="layer"
     id="layer1"
     transform="translate(-61.948822,-156.50151)"><text
       xml:space="preserve"
       style="font-size:3.175px;line-height:0.65;font-family:'EB Garamond';-inkscape-font-specification:'EB Garamond';text-align:end;letter-spacing:0px;word-spacing:0px;text-anchor:end;stroke-width:0.254466;font-weight:normal;font-style:normal;font-stretch:normal;font-variant:normal"
       x="103.84765"
       y="194.55157"
       id="text36680"><tspan
         sodipodi:role="line"
         id="tspan36678"
         style="font-style:normal;stroke-width:0.254466;-inkscape-font-specification:'EB Garamond';font-family:'EB Garamond';font-weight:normal;font-stretch:normal;font-variant:normal;font-size:3.175px"
         x="103.84765"
         y="194.55157">(a)</tspan></text><rect
       style="fill:none;fill-opacity:1;stroke:#d40000;stroke-width:0.480882;stroke-linecap:square;stroke-dasharray:none;stroke-opacity:1;paint-order:stroke markers fill;stop-color:#000000"
       id="rect21373"
       width="21.425388"
       height="19.943258"
       x="120.01869"
       y="199.07539" /><text
       xml:space="preserve"
       style="font-size:3.175px;line-height:0.65;font-family:'EB Garamond';-inkscape-font-specification:'EB Garamond';text-align:end;letter-spacing:0px;word-spacing:0px;text-anchor:end;stroke-width:0.254466;font-weight:normal;font-style:normal;font-stretch:normal;font-variant:normal"
       x="132.10854"
       y="223.94713"
       id="text820"><tspan
         sodipodi:role="line"
         id="tspan818"
         style="font-style:normal;stroke-width:0.254466;-inkscape-font-specification:'EB Garamond';font-family:'EB Garamond';font-weight:normal;font-stretch:normal;font-variant:normal;font-size:3.175px"
         x="132.10854"
         y="223.94713">(d)</tspan></text><path
       style="fill:none;stroke:#d40000;stroke-width:0.480881;stroke-linecap:round;stroke-linejoin:round;stroke-dasharray:none;stroke-opacity:1"
       d="m 125.19213,210.93766 c 1.15523,-0.34556 4.52555,-6.87998 4.87279,-6.90311 1.62063,0.23192 2.91951,5.01248 3.99297,5.01252 0.53849,2e-5 1.05776,-1.37005 1.2298,-1.04755 l 2.28943,4.29172 1.2182,1.75962"
       id="path991"
       sodipodi:nodetypes="ccsscc" /><text
       xml:space="preserve"
       style="font-size:3.175px;line-height:0.65;font-family:'EB Garamond';-inkscape-font-specification:'EB Garamond';text-align:end;letter-spacing:0px;word-spacing:0px;text-anchor:end;stroke-width:0.254466;font-weight:normal;font-style:normal;font-stretch:normal;font-variant:normal"
       x="74.898979"
       y="223.93721"
       id="text36684"><tspan
         sodipodi:role="line"
         id="tspan36682"
         style="font-style:normal;stroke-width:0.254466;-inkscape-font-specification:'EB Garamond';font-family:'EB Garamond';font-weight:normal;font-stretch:normal;font-variant:normal;font-size:3.175px"
         x="74.898979"
         y="223.93721">(b)</tspan></text><rect
       style="fill:none;fill-opacity:1;stroke:#d40000;stroke-width:0.480882;stroke-linecap:square;stroke-dasharray:none;stroke-opacity:1;paint-order:stroke markers fill;stop-color:#000000"
       id="rect3512"
       width="21.425388"
       height="19.943258"
       x="62.189262"
       y="199.07539" /><path
       style="fill:none;stroke:#d40000;stroke-width:0.480881;stroke-linecap:round;stroke-linejoin:round;stroke-dasharray:none;stroke-opacity:1"
       d="m 67.362715,210.93766 c 1.15523,-0.34556 4.525542,-6.87998 4.872786,-6.90311 1.620627,0.23192 2.919506,5.01248 3.992967,5.01252 0.53849,2e-5 1.057765,-1.37005 1.229805,-1.04755 l 2.289426,4.29172 1.218197,1.75962"
       id="path3514"
       sodipodi:nodetypes="ccsscc" /><rect
       style="fill:none;fill-opacity:1;stroke:#00ccff;stroke-width:0.480882;stroke-linecap:square;stroke-dasharray:none;stroke-opacity:1;paint-order:stroke markers fill;stop-color:#000000"
       id="rect22272"
       width="21.076197"
       height="19.943258"
       x="91.278572"
       y="199.07108" /><text
       xml:space="preserve"
       style="font-size:3.175px;line-height:0.65;font-family:'EB Garamond';-inkscape-font-specification:'EB Garamond';text-align:end;letter-spacing:0px;word-spacing:0px;text-anchor:end;stroke-width:0.254466;font-weight:normal;font-style:normal;font-stretch:normal;font-variant:normal"
       x="103.19382"
       y="223.94281"
       id="text36688"><tspan
         sodipodi:role="line"
         id="tspan36686"
         style="font-style:normal;stroke-width:0.254466;-inkscape-font-specification:'EB Garamond';font-family:'EB Garamond';font-weight:normal;font-stretch:normal;font-variant:normal;font-size:3.175px"
         x="103.19382"
         y="223.94281">(c)</tspan></text><path
       style="fill:none;stroke:#00ccff;stroke-width:0.288529;stroke-linecap:round;stroke-linejoin:round;stroke-dasharray:none;stroke-opacity:1"
       d="m 94.524797,213.00799 0.43389,-0.77138 0.458,0.0723 0.313371,-1.18117 0.55443,0.19284 0.843687,-2.43464 0.216954,3.39886 0.843686,-7.6655 0.168742,4.0738 0.361574,-1.7838 0.361584,-0.0241 0.409788,-1.49449 0.361584,-0.28927 0.265153,-2.41053 0.38569,4.79697 0.458,-2.02486 0.50621,1.3258 0.24106,-1.10885 0.38569,2.45875 0.4339,-1.25348 0.62674,5.64065 0.60263,-4.09791 0.77137,2.1936 0.36158,-0.31337 0.38569,0.19284 0.16873,-1.01243 0.53033,0.69906 0.57852,-2.50696 0.14463,3.71223 0.33748,0.69906 0.31337,-0.31338 0.458,2.2418 0.458,-0.62674 0.8437,2.00075"
       id="path5799" /><g
       id="g6837"
       transform="matrix(0.961762,0,0,0.961762,2.3687991,5.9843049)"><rect
         style="fill:#d40000;fill-opacity:1;stroke:#000000;stroke-width:0.5;stroke-linecap:square;stroke-dasharray:none;paint-order:stroke markers fill;stop-color:#000000"
         id="rect21371"
         width="10.634355"
         height="12.213875"
         x="125.45629"
         y="158.11165" /><rect
         style="fill:#00ccff;fill-opacity:1;stroke:#000000;stroke-width:0.499999;stroke-linecap:square;stroke-dasharray:none;paint-order:stroke markers fill;stop-color:#000000"
         id="rect20615"
         width="42.836216"
         height="6.4043717"
         x="71.020775"
         y="161.0164" /><path
         style="fill:none;stroke:#333333;stroke-width:0.264583px;stroke-linecap:round;stroke-linejoin:round;stroke-opacity:1;marker-end:url(#Arrow1L)"
         d="m 62.350081,164.21859 h 7.083193"
         id="path35477"
         sodipodi:nodetypes="cc" /><path
         style="fill:none;stroke:#333333;stroke-width:0.264583px;stroke-linecap:round;stroke-linejoin:round;stroke-opacity:1;marker-end:url(#Arrow1L)"
         d="m 113.9824,164.21859 h 9.84498"
         id="path36654"
         sodipodi:nodetypes="cc" /><path
         style="fill:none;stroke:#333333;stroke-width:0.264583px;stroke-linecap:round;stroke-linejoin:round;stroke-opacity:1;marker-end:url(#Arrow1L)"
         d="m 136.39267,164.21859 h 7.08317"
         id="path36658"
         sodipodi:nodetypes="cc" /><text
         xml:space="preserve"
         style="font-size:3.30123253px;line-height:0.65;font-family:'EB Garamond';-inkscape-font-specification:'EB Garamond, Normal';text-align:end;letter-spacing:0.396875px;word-spacing:0px;text-anchor:end;stroke-width:0.264583"
         x="72.906609"
         y="159.12477"
         id="text36672"><tspan
           sodipodi:role="line"
           id="tspan36670"
           style="font-style:italic;stroke-width:0.264583;font-size:3.30123253px"
           x="73.303482"
           y="159.12477">A</tspan></text><text
         xml:space="preserve"
         style="font-size:3.30123253px;line-height:0.65;font-family:'EB Garamond';-inkscape-font-specification:'EB Garamond, Normal';text-align:end;letter-spacing:0.396875px;word-spacing:0px;text-anchor:end;stroke-width:0.264583"
         x="112.47635"
         y="159.1209"
         id="text36676"><tspan
           sodipodi:role="line"
           id="tspan36674"
           style="font-style:italic;stroke-width:0.264583;font-size:3.30123253px"
           x="112.87322"
           y="159.1209">B</tspan></text><text
         xml:space="preserve"
         style="font-size:3.30123253px;line-height:0.65;font-family:'EB Garamond';-inkscape-font-specification:'EB Garamond, Normal';text-align:end;letter-spacing:0.396875px;word-spacing:0px;text-anchor:end;stroke-width:0.264583"
         x="105.99149"
         y="182.00674"
         id="text926"><tspan
           sodipodi:role="line"
           id="tspan924"
           style="font-style:italic;stroke-width:0.264583;font-size:3.30123253px"
           x="106.38837"
           y="182.00674">P</tspan></text><path
         style="fill:none;stroke:#333333;stroke-width:0.264583px;stroke-linecap:round;stroke-linejoin:round;stroke-opacity:1;marker-end:url(#Arrow1L)"
         d="m 92.68644,171.74362 v -2.32067"
         id="path4266"
         sodipodi:nodetypes="cc" /><path
         style="fill:none;stroke:#00ccff;stroke-width:0.3;stroke-linecap:round;stroke-linejoin:round;stroke-dasharray:none;stroke-opacity:1"
         d="m 84.954264,180.41779 0.42608,0.37595 0.6266,-0.52634 0.37596,0.40103 0.32583,-0.85217 0.32582,2.68182 0.80204,-4.98769 0.10026,4.38616 0.45115,-1.4537 0.67672,0.75191 0.57647,-0.97748 0.30076,0.45115 0.77698,-2.88234 0.85217,6.19075 0.62659,-3.78463 0.52634,0.92736 0.42608,-0.95242 0.42609,0.87723 0.2757,-0.77698 0.52634,4.06034 0.70178,-3.1831 0.52634,0.37595 0.65166,-1.30331 0.45115,1.40357 0.90229,-4.46135 0.47622,3.93501 0.576462,-0.72685 0.32583,1.20306 0.45115,-0.57647 0.40102,0.67673 0.576474,-0.50128"
         id="path6746" /><circle
         style="fill:none;fill-opacity:1;stroke:#00ccff;stroke-width:0.499999;stroke-linecap:square;stroke-dasharray:none;stroke-opacity:1;paint-order:stroke markers fill;stop-color:#000000"
         id="path23842"
         cx="92.68644"
         cy="180.74362"
         r="9" /><text
         xml:space="preserve"
         style="font-size:3.30123253px;line-height:0.65;font-family:'EB Garamond';-inkscape-font-specification:'EB Garamond, Normal';text-align:end;letter-spacing:0.396875px;word-spacing:0px;text-anchor:end;stroke-width:0.264583"
         x="131.65263"
         y="165.49335"
         id="text6819"><tspan
           sodipodi:role="line"
           id="tspan6817"
           style="font-style:italic;stroke-width:0.264583;font-size:3.30123253px"
           x="132.04951"
           y="165.49335">F</tspan></text></g></g></svg>
