<?xml version="1.0" encoding="UTF-8" standalone="no"?>
<!-- Created with Inkscape (http://www.inkscape.org/) -->

<svg
   width="80mm"
   height="76.13047mm"
   viewBox="0 0 283.46457 269.75363"
   id="svg4208"
   version="1.1"
   inkscape:version="1.2.2 (b0a8486, 2022-12-01)"
   sodipodi:docname="prob-meeting.svg"
   xml:space="preserve"
   xmlns:inkscape="http://www.inkscape.org/namespaces/inkscape"
   xmlns:sodipodi="http://sodipodi.sourceforge.net/DTD/sodipodi-0.dtd"
   xmlns="http://www.w3.org/2000/svg"
   xmlns:svg="http://www.w3.org/2000/svg"
   xmlns:rdf="http://www.w3.org/1999/02/22-rdf-syntax-ns#"
   xmlns:cc="http://creativecommons.org/ns#"
   xmlns:dc="http://purl.org/dc/elements/1.1/"><defs
     id="defs4210"><marker
   style="overflow:visible"
   id="marker10507"
   refX="0"
   refY="0"
   orient="auto-start-reverse"
   inkscape:stockid="Arrow1L"
   markerWidth="8.75"
   markerHeight="5"
   viewBox="0 0 8.75 5"
   inkscape:isstock="true"
   inkscape:collect="always"
   preserveAspectRatio="xMidYMid"><path
     style="fill:context-stroke;fill-rule:evenodd;stroke:none"
     d="M 0,0 5,-5 -12.5,0 5,5 Z"
     id="path10505"
     transform="scale(-0.5)" /></marker><marker
   style="overflow:visible"
   id="Arrow1L"
   refX="0"
   refY="0"
   orient="auto-start-reverse"
   inkscape:stockid="Arrow1L"
   markerWidth="8.75"
   markerHeight="5"
   viewBox="0 0 8.75 5"
   inkscape:isstock="true"
   inkscape:collect="always"
   preserveAspectRatio="xMidYMid"><path
     style="fill:context-stroke;fill-rule:evenodd;stroke:none"
     d="M 0,0 5,-5 -12.5,0 5,5 Z"
     id="arrow1L"
     transform="scale(-0.5)" /></marker><marker
   inkscape:isstock="true"
   style="overflow:visible"
   id="marker10436"
   refX="0"
   refY="0"
   orient="auto"
   inkscape:stockid="Arrow1Lend"><path
     inkscape:connector-curvature="0"
     transform="matrix(-0.8,0,0,-0.8,-10,0)"
     style="fill:#808080;fill-opacity:1;fill-rule:evenodd;stroke:#808080;stroke-width:1pt;stroke-opacity:1"
     d="M 0,0 5,-5 -12.5,0 5,5 Z"
     id="path10438" /></marker><marker
   inkscape:isstock="true"
   style="overflow:visible"
   id="marker10362"
   refX="0"
   refY="0"
   orient="auto"
   inkscape:stockid="Arrow1Lstart"><path
     inkscape:connector-curvature="0"
     transform="matrix(0.8,0,0,0.8,10,0)"
     style="fill:#808080;fill-opacity:1;fill-rule:evenodd;stroke:#808080;stroke-width:1pt;stroke-opacity:1"
     d="M 0,0 5,-5 -12.5,0 5,5 Z"
     id="path10364" /></marker><marker
   inkscape:isstock="true"
   style="overflow:visible"
   id="marker8967"
   refX="0"
   refY="0"
   orient="auto"
   inkscape:stockid="Arrow1Lend"><path
     inkscape:connector-curvature="0"
     transform="matrix(-0.8,0,0,-0.8,-10,0)"
     style="fill:#ff4500;fill-opacity:1;fill-rule:evenodd;stroke:#ff4500;stroke-width:1pt;stroke-opacity:1"
     d="M 0,0 5,-5 -12.5,0 5,5 Z"
     id="path8969" /></marker><marker
   inkscape:isstock="true"
   style="overflow:visible"
   id="marker8897"
   refX="0"
   refY="0"
   orient="auto"
   inkscape:stockid="Arrow1Lstart"><path
     inkscape:connector-curvature="0"
     transform="matrix(0.8,0,0,0.8,10,0)"
     style="fill:#ff4500;fill-opacity:1;fill-rule:evenodd;stroke:#ff4500;stroke-width:1pt;stroke-opacity:1"
     d="M 0,0 5,-5 -12.5,0 5,5 Z"
     id="path8899" /></marker><linearGradient
   id="linearGradient7796"
   inkscape:swatch="solid"><stop
     style="stop-color:#78b2c8;stop-opacity:1;"
     offset="0"
     id="stop7798" /></linearGradient><marker
   inkscape:isstock="true"
   style="overflow:visible"
   id="marker6268"
   refX="0"
   refY="0"
   orient="auto"
   inkscape:stockid="Arrow1Lend"><path
     inkscape:connector-curvature="0"
     transform="matrix(-0.8,0,0,-0.8,-10,0)"
     style="fill:#ff4500;fill-opacity:1;fill-rule:evenodd;stroke:#ff4500;stroke-width:1pt;stroke-opacity:1"
     d="M 0,0 5,-5 -12.5,0 5,5 Z"
     id="path6270" /></marker><marker
   inkscape:isstock="true"
   style="overflow:visible"
   id="marker6234"
   refX="0"
   refY="0"
   orient="auto"
   inkscape:stockid="Arrow1Lstart"><path
     inkscape:connector-curvature="0"
     transform="matrix(0.8,0,0,0.8,10,0)"
     style="fill:#ff4500;fill-opacity:1;fill-rule:evenodd;stroke:#ff4500;stroke-width:1pt;stroke-opacity:1"
     d="M 0,0 5,-5 -12.5,0 5,5 Z"
     id="path6236" /></marker><marker
   inkscape:isstock="true"
   style="overflow:visible"
   id="marker5497"
   refX="0"
   refY="0"
   orient="auto"
   inkscape:stockid="Arrow1Lstart"
   inkscape:collect="always"><path
     transform="matrix(0.8,0,0,0.8,10,0)"
     style="fill:#000000;fill-opacity:1;fill-rule:evenodd;stroke:#000000;stroke-width:1pt;stroke-opacity:1"
     d="M 0,0 5,-5 -12.5,0 5,5 Z"
     id="path5499"
     inkscape:connector-curvature="0" /></marker><marker
   inkscape:stockid="Arrow1Lstart"
   orient="auto"
   refY="0"
   refX="0"
   id="marker6247"
   style="overflow:visible"
   inkscape:isstock="true"><path
     id="path6249"
     d="M 0,0 5,-5 -12.5,0 5,5 Z"
     style="fill:#ff4500;fill-opacity:1;fill-rule:evenodd;stroke:#ff4500;stroke-width:1pt;stroke-opacity:1"
     transform="matrix(0.8,0,0,0.8,10,0)"
     inkscape:connector-curvature="0" /></marker><marker
   inkscape:stockid="Arrow1Lend"
   orient="auto"
   refY="0"
   refX="0"
   id="Arrow1Lend"
   style="overflow:visible"
   inkscape:isstock="true"><path
     id="path4652"
     d="M 0,0 5,-5 -12.5,0 5,5 Z"
     style="fill:#ff4500;fill-opacity:1;fill-rule:evenodd;stroke:#ff4500;stroke-width:1pt;stroke-opacity:1"
     transform="matrix(-0.8,0,0,-0.8,-10,0)"
     inkscape:connector-curvature="0" /></marker>

















</defs><sodipodi:namedview
     id="base"
     pagecolor="#ffffff"
     bordercolor="#666666"
     borderopacity="1.0"
     inkscape:pageopacity="0.0"
     inkscape:pageshadow="2"
     inkscape:zoom="1.5727196"
     inkscape:cx="112.86182"
     inkscape:cy="150.05853"
     inkscape:document-units="px"
     inkscape:current-layer="layer1"
     showgrid="false"
     inkscape:window-width="1309"
     inkscape:window-height="878"
     inkscape:window-x="0"
     inkscape:window-y="0"
     inkscape:window-maximized="0"
     fit-margin-top="0"
     fit-margin-left="0"
     fit-margin-right="0"
     fit-margin-bottom="0"
     inkscape:showpageshadow="2"
     inkscape:pagecheckerboard="0"
     inkscape:deskcolor="#d1d1d1" /><metadata
     id="metadata4213"><rdf:RDF><cc:Work
         rdf:about=""><dc:format>image/svg+xml</dc:format><dc:type
           rdf:resource="http://purl.org/dc/dcmitype/StillImage" /></cc:Work></rdf:RDF></metadata><g
     inkscape:label="Layer 1"
     inkscape:groupmode="layer"
     id="layer1"
     transform="translate(-81.911622,-239.33793)"><path
       sodipodi:nodetypes="ccccc"
       inkscape:connector-curvature="0"
       id="path5882"
       d="M 127.23058,286.39091 H 337.95702 V 434.43975 H 127.23058 Z"
       style="color:#000000;clip-rule:nonzero;display:inline;overflow:visible;visibility:visible;opacity:1;isolation:auto;mix-blend-mode:normal;color-interpolation:sRGB;color-interpolation-filters:linearRGB;solid-color:#000000;solid-opacity:1;fill:#ffaacc;fill-opacity:1;fill-rule:nonzero;stroke:none;stroke-width:1.62097;stroke-linecap:butt;stroke-linejoin:miter;stroke-miterlimit:4;stroke-dasharray:none;stroke-dashoffset:0;stroke-opacity:1;color-rendering:auto;image-rendering:auto;shape-rendering:auto;text-rendering:auto;enable-background:accumulate" /><path
       style="color:#000000;font-variation-settings:normal;clip-rule:nonzero;display:inline;overflow:visible;visibility:visible;opacity:1;isolation:auto;mix-blend-mode:normal;color-interpolation:sRGB;color-interpolation-filters:linearRGB;solid-color:#000000;solid-opacity:1;vector-effect:none;fill:#ffaacc;fill-opacity:1;fill-rule:nonzero;stroke:none;stroke-width:1.26638;stroke-linecap:round;stroke-linejoin:round;stroke-miterlimit:4;stroke-dasharray:none;stroke-dashoffset:0;stroke-opacity:1;-inkscape-stroke:none;color-rendering:auto;image-rendering:auto;shape-rendering:auto;text-rendering:auto;enable-background:accumulate;stop-color:#000000;stop-opacity:1"
       d="M 189.90819,475.26923 V 286.39091 h 148.04883 v 188.87832 z"
       id="path5884"
       inkscape:connector-curvature="0"
       sodipodi:nodetypes="ccccc" /><g
       id="g6223"
       style="font-style:normal;font-variant:normal;font-weight:normal;font-stretch:normal;font-size:84.7674px;line-height:125%;font-family:Alegreya;-inkscape-font-specification:Alegreya;text-align:start;letter-spacing:0px;word-spacing:0px;writing-mode:lr-tb;text-anchor:start;fill:#000000;fill-opacity:1;stroke:none;stroke-width:1px;stroke-linecap:butt;stroke-linejoin:miter;stroke-opacity:1"
       transform="matrix(0.18265707,0,0,0.18265707,-239.19181,205.26716)" /><g
       id="g3835"
       transform="matrix(0.67540527,0,0,0.67540527,-180.80018,215.92191)" /><g
       id="g3847"
       transform="matrix(0.67540527,0,0,0.67540527,-195.92926,215.92191)" /><text
       xml:space="preserve"
       style="font-style:italic;font-variant:normal;font-weight:normal;font-stretch:normal;font-size:10px;line-height:0%;font-family:'EB Garamond';-inkscape-font-specification:'EB Garamond, Italic';font-variant-ligatures:normal;font-variant-caps:normal;font-variant-numeric:normal;font-variant-east-asian:normal;text-align:start;letter-spacing:0px;word-spacing:0px;writing-mode:lr-tb;text-anchor:start;fill:#000000;fill-opacity:1;stroke:none;stroke-width:0.540322px;stroke-linecap:butt;stroke-linejoin:miter;stroke-opacity:1"
       x="348.24921"
       y="488.64044"
       id="text6153"><tspan
         sodipodi:role="line"
         id="tspan6155"
         x="348.24921"
         y="488.64044"
         style="font-style:italic;font-variant:normal;font-weight:normal;font-stretch:normal;font-size:10px;line-height:1.25;font-family:'EB Garamond';-inkscape-font-specification:'EB Garamond, Italic';font-variant-ligatures:normal;font-variant-caps:normal;font-variant-numeric:normal;font-variant-east-asian:normal;stroke-width:0.540322px"
         dx="0 0 0 0.18819574">x, h</tspan></text><g
       id="g5054"
       transform="matrix(0.54032422,0,0,0.54032422,288.94402,133.24645)"><g
         transform="matrix(1.25,0,0,1.25,-404.2998,196.00094)"
         id="g3819"><path
           sodipodi:nodetypes="cc"
           inkscape:connector-curvature="0"
           id="path3821"
           style="fill:none;stroke:#000000;stroke-width:1;stroke-linecap:butt;stroke-linejoin:miter;stroke-miterlimit:4;stroke-dasharray:none;stroke-opacity:1"
           d="M 30.382513,381.004 H 432.698" /></g><path
         sodipodi:nodetypes="cc"
         d="m -183.1773,672.25594 v -8.99875"
         style="fill:none;stroke:#000000;stroke-width:1;stroke-linecap:butt;stroke-linejoin:miter;stroke-miterlimit:4;stroke-dasharray:none;stroke-opacity:1"
         id="path3833"
         inkscape:connector-curvature="0" /><g
         transform="matrix(1.25,0,0,1.25,-404.2998,196.00094)"
         id="g3843"><path
           sodipodi:nodetypes="cc"
           inkscape:connector-curvature="0"
           id="path3845"
           style="fill:none;stroke:#000000;stroke-width:0.8;stroke-linecap:butt;stroke-linejoin:miter;stroke-miterlimit:4;stroke-dasharray:none;stroke-opacity:1"
           d="m 396.738,381.004 v -7.199" /></g></g><g
       id="g3855"
       transform="matrix(-0.67540527,0,0,-0.67540527,53.52941,239.15051)"><path
         d="m -449.898,-381.004 4,-4 -14,4 14,4 z"
         style="fill:#000000;fill-opacity:1;fill-rule:evenodd;stroke:#000000;stroke-width:1;stroke-linecap:butt;stroke-linejoin:miter;stroke-miterlimit:4;stroke-dasharray:none;stroke-opacity:1"
         id="path3857"
         inkscape:connector-curvature="0" /></g><path
       style="fill:none;fill-rule:evenodd;stroke:#333333;stroke-width:0.685476;stroke-linecap:butt;stroke-linejoin:miter;stroke-miterlimit:4;stroke-dasharray:none;stroke-opacity:1"
       d="m 113.63661,434.56165 h 77.47078"
       id="path6185-8"
       inkscape:connector-curvature="0"
       sodipodi:nodetypes="cc" /><text
       id="text6083-6"
       y="290.1951"
       x="80.979561"
       style="font-style:normal;font-variant:normal;font-weight:normal;font-stretch:normal;font-size:9.99999978px;line-height:0%;font-family:'EB Garamond';-inkscape-font-specification:'EB Garamond, Normal';font-variant-ligatures:normal;font-variant-caps:normal;font-variant-numeric:normal;font-variant-east-asian:normal;text-align:start;letter-spacing:0px;word-spacing:0px;writing-mode:lr-tb;text-anchor:start;fill:#000000;fill-opacity:1;stroke:none;stroke-width:0.540322px;stroke-linecap:butt;stroke-linejoin:miter;stroke-opacity:1"
       xml:space="preserve"><tspan
         y="290.1951"
         x="80.979561"
         id="tspan6085-8"
         sodipodi:role="line"
         style="font-style:normal;font-variant:normal;font-weight:normal;font-stretch:normal;line-height:1.25;font-family:'EB Garamond';-inkscape-font-specification:'EB Garamond, Normal';font-variant-ligatures:normal;font-variant-caps:normal;font-variant-numeric:normal;font-variant-east-asian:normal;stroke-width:0.540322px;font-size:9.99999978px">10</tspan></text><text
       id="text6107-5"
       y="434.28726"
       x="82.060204"
       style="font-style:normal;font-variant:normal;font-weight:normal;font-stretch:normal;font-size:9.99999978px;line-height:0%;font-family:'EB Garamond';-inkscape-font-specification:'EB Garamond, Normal';font-variant-ligatures:normal;font-variant-caps:normal;font-variant-numeric:normal;font-variant-east-asian:normal;text-align:start;letter-spacing:0px;word-spacing:0px;writing-mode:lr-tb;text-anchor:start;fill:#000000;fill-opacity:1;stroke:none;stroke-width:0.540322px;stroke-linecap:butt;stroke-linejoin:miter;stroke-opacity:1"
       xml:space="preserve"><tspan
         y="434.28726"
         x="82.060204"
         id="tspan6109-6"
         sodipodi:role="line"
         style="font-style:normal;font-variant:normal;font-weight:normal;font-stretch:normal;line-height:1.25;font-family:'EB Garamond';-inkscape-font-specification:'EB Garamond, Normal';font-variant-ligatures:normal;font-variant-caps:normal;font-variant-numeric:normal;font-variant-east-asian:normal;stroke-width:0.540322px;font-size:9.99999978px">9</tspan></text><path
       style="fill:none;fill-rule:evenodd;stroke:#000000;stroke-width:0.685476;stroke-linecap:butt;stroke-linejoin:miter;stroke-miterlimit:4;stroke-dasharray:none;stroke-opacity:1;marker-start:url(#marker5497)"
       d="M 94.185187,240.66861 91.362506,496.15948"
       id="path5263"
       inkscape:connector-curvature="0"
       sodipodi:nodetypes="cc" /><path
       inkscape:connector-curvature="0"
       id="path6087-5"
       d="m 93.946634,287.1464 h 5.223617"
       style="fill:none;fill-rule:evenodd;stroke:#000000;stroke-width:0.456984;stroke-linecap:butt;stroke-linejoin:miter;stroke-miterlimit:4;stroke-dasharray:none;stroke-opacity:1" /><path
       sodipodi:nodetypes="cc"
       inkscape:connector-curvature="0"
       id="path6111-1"
       d="m 91.857189,435.02174 h 5.223617"
       style="fill:none;fill-rule:evenodd;stroke:#000000;stroke-width:0.456984;stroke-linecap:butt;stroke-linejoin:miter;stroke-miterlimit:4;stroke-dasharray:none;stroke-opacity:1" /><text
       xml:space="preserve"
       style="font-style:normal;font-variant:normal;font-weight:normal;font-stretch:normal;font-size:9.99999978px;line-height:0%;font-family:'EB Garamond';-inkscape-font-specification:'EB Garamond, Normal';font-variant-ligatures:normal;font-variant-caps:normal;font-variant-numeric:normal;font-variant-east-asian:normal;text-align:start;letter-spacing:0px;word-spacing:0px;writing-mode:lr-tb;text-anchor:start;fill:#000000;fill-opacity:1;stroke:none;stroke-width:0.540322px;stroke-linecap:butt;stroke-linejoin:miter;stroke-opacity:1"
       x="187.54155"
       y="508.77753"
       id="text6161"><tspan
         sodipodi:role="line"
         id="tspan6163"
         x="187.54155"
         y="508.77753"
         style="font-style:normal;font-variant:normal;font-weight:normal;font-stretch:normal;line-height:1.25;font-family:'EB Garamond';-inkscape-font-specification:'EB Garamond, Normal';font-variant-ligatures:normal;font-variant-caps:normal;font-variant-numeric:normal;font-variant-east-asian:normal;stroke-width:0.540322px;font-size:9.99999978px">9</tspan></text><text
       id="text6173"
       y="508.77753"
       x="333.01047"
       style="font-style:normal;font-variant:normal;font-weight:normal;font-stretch:normal;font-size:9.99999978px;line-height:0%;font-family:'EB Garamond';-inkscape-font-specification:'EB Garamond, Normal';font-variant-ligatures:normal;font-variant-caps:normal;font-variant-numeric:normal;font-variant-east-asian:normal;text-align:start;letter-spacing:0px;word-spacing:0px;writing-mode:lr-tb;text-anchor:start;fill:#000000;fill-opacity:1;stroke:none;stroke-width:0.540322px;stroke-linecap:butt;stroke-linejoin:miter;stroke-opacity:1"
       xml:space="preserve"><tspan
         y="508.77753"
         x="333.01047"
         id="tspan6175"
         sodipodi:role="line"
         style="font-style:normal;font-variant:normal;font-weight:normal;font-stretch:normal;line-height:1.25;font-family:'EB Garamond';-inkscape-font-specification:'EB Garamond, Normal';font-variant-ligatures:normal;font-variant-caps:normal;font-variant-numeric:normal;font-variant-east-asian:normal;stroke-width:0.540322px;font-size:9.99999978px">10</tspan></text><path
       style="fill:#808080;fill-rule:evenodd;stroke:#4d4d4d;stroke-width:0.885827;stroke-linecap:butt;stroke-linejoin:miter;stroke-miterlimit:4;stroke-dasharray:none;stroke-opacity:1;marker-start:url(#marker10507);marker-end:url(#Arrow1L)"
       d="M 127.35916,292.13696 V 428.6352"
       id="path6187"
       inkscape:connector-curvature="0"
       sodipodi:nodetypes="cc" /><path
       style="color:#000000;clip-rule:nonzero;display:inline;overflow:visible;visibility:visible;opacity:1;isolation:auto;mix-blend-mode:normal;color-interpolation:sRGB;color-interpolation-filters:linearRGB;solid-color:#000000;solid-opacity:1;fill:#ffffff;fill-opacity:1;fill-rule:nonzero;stroke:#ff0000;stroke-width:0;stroke-linecap:round;stroke-linejoin:round;stroke-miterlimit:4;stroke-dasharray:none;stroke-dashoffset:0;stroke-opacity:1;color-rendering:auto;image-rendering:auto;shape-rendering:auto;text-rendering:auto;enable-background:accumulate"
       d="m 94.921779,460.9233 -1.152809,1.40702 -0.265915,0.0694 c -0.896712,0 -3.221424,-0.74422 -3.985286,-0.74422 -0.58428,0.31648 -1.086984,0.87868 -1.510551,1.40546 v 3.17982 l 1.261471,-1.53987 0.265533,-0.0694 c 0.896708,0 3.221807,0.7442 3.985669,0.7442 0.601289,-0.27197 1.090018,-0.84987 1.401888,-1.42342 z"
       id="rect6208"
       inkscape:connector-curvature="0"
       sodipodi:nodetypes="ccccccccccc" /><path
       style="font-style:normal;font-variant:normal;font-weight:normal;font-stretch:normal;font-size:medium;line-height:125%;font-family:Alegreya;-inkscape-font-specification:Alegreya;text-align:start;letter-spacing:0px;word-spacing:0px;writing-mode:lr-tb;text-anchor:start;fill:#000000;fill-opacity:1;stroke:none;stroke-width:0.540324px;stroke-linecap:butt;stroke-linejoin:miter;stroke-opacity:1"
       d="m 88.472179,466.50011 c 0,0 0.647622,-0.91332 1.04616,-0.91332 0.763862,0 3.088658,0.71406 3.985369,0.71406 l 0.265694,-0.0664 1.26203,-1.47793 v -0.083 l -0.365324,-0.34872 h -0.09964 c 0,0 -0.647622,0.91332 -1.046159,0.91332 -0.763862,0 -3.088662,-0.71405 -3.98537,-0.71405 l -0.265692,0.0664 -1.262033,1.47792 v 0.083 l 0.365325,0.34872 z m 0,-3.91798 c 0,0 0.647622,-0.91332 1.04616,-0.91332 0.763862,0 3.088658,0.71406 3.985369,0.71406 l 0.265694,-0.0664 1.26203,-1.47792 v -0.083 l -0.365324,-0.34872 h -0.09964 c 0,0 -0.647622,0.91332 -1.046159,0.91332 -0.763862,0 -3.088662,-0.71405 -3.98537,-0.71405 l -0.265692,0.0664 -1.262033,1.47792 v 0.083 l 0.365325,0.34872 z"
       id="path6198"
       inkscape:connector-curvature="0" /><path
       sodipodi:nodetypes="ccccccccccc"
       inkscape:connector-curvature="0"
       id="path5041"
       d="m 121.40863,492.47041 1.40703,1.15281 0.0694,0.26591 c 0,0.89671 -0.74422,3.22143 -0.74422,3.98529 0.31648,0.58428 0.87869,1.08698 1.40546,1.51055 h 3.17982 l -1.53986,-1.26147 -0.0694,-0.26553 c 0,-0.89671 0.7442,-3.22181 0.7442,-3.98567 -0.27197,-0.60129 -0.84987,-1.09002 -1.42343,-1.40189 z"
       style="color:#000000;clip-rule:nonzero;display:inline;overflow:visible;visibility:visible;opacity:1;isolation:auto;mix-blend-mode:normal;color-interpolation:sRGB;color-interpolation-filters:linearRGB;solid-color:#000000;solid-opacity:1;fill:#ffffff;fill-opacity:1;fill-rule:nonzero;stroke:#ff0000;stroke-width:0;stroke-linecap:round;stroke-linejoin:round;stroke-miterlimit:4;stroke-dasharray:none;stroke-dashoffset:0;stroke-opacity:1;color-rendering:auto;image-rendering:auto;shape-rendering:auto;text-rendering:auto;enable-background:accumulate" /><path
       style="font-style:normal;font-variant:normal;font-weight:normal;font-stretch:normal;font-size:medium;line-height:125%;font-family:Alegreya;-inkscape-font-specification:Alegreya;text-align:start;letter-spacing:0px;word-spacing:0px;writing-mode:lr-tb;text-anchor:start;fill:#000000;fill-opacity:1;stroke:none;stroke-width:0.540324px;stroke-linecap:butt;stroke-linejoin:miter;stroke-opacity:1"
       inkscape:connector-curvature="0"
       id="path5047"
       d="m 126.98545,498.92001 c 0,0 -0.91332,-0.64762 -0.91332,-1.04616 0,-0.76386 0.71405,-3.08866 0.71405,-3.98537 l -0.0664,-0.2657 -1.47792,-1.26202 h -0.083 l -0.34872,0.36532 v 0.0996 c 0,0 0.91332,0.64763 0.91332,1.04616 0,0.76387 -0.71405,3.08867 -0.71405,3.98538 l 0.0664,0.26568 1.47792,1.26204 h 0.083 l 0.34872,-0.36532 z m -3.91798,0 c 0,0 -0.91332,-0.64762 -0.91332,-1.04616 0,-0.76386 0.71405,-3.08866 0.71405,-3.98537 l -0.0664,-0.2657 -1.47792,-1.26202 h -0.083 l -0.34872,0.36532 v 0.0996 c 0,0 0.91332,0.64763 0.91332,1.04616 0,0.76387 -0.71406,3.08867 -0.71406,3.98538 l 0.0664,0.26568 1.47793,1.26204 h 0.083 l 0.34872,-0.36532 z" /><path
       inkscape:connector-curvature="0"
       id="path5886"
       d="m 113.63661,286.48892 h 77.47078"
       style="fill:none;fill-rule:evenodd;stroke:#333333;stroke-width:0.685476;stroke-linecap:butt;stroke-linejoin:miter;stroke-miterlimit:4;stroke-dasharray:none;stroke-opacity:1"
       sodipodi:nodetypes="cc" /><path
       sodipodi:nodetypes="cc"
       inkscape:connector-curvature="0"
       id="path5888"
       d="M 189.70296,307.1934 V 481.92254"
       style="fill:none;fill-rule:evenodd;stroke:#333333;stroke-width:0.685476;stroke-linecap:butt;stroke-linejoin:miter;stroke-miterlimit:4;stroke-dasharray:none;stroke-opacity:1" /><path
       sodipodi:nodetypes="cc"
       style="fill:none;fill-rule:evenodd;stroke:#333333;stroke-width:0.685476;stroke-linecap:butt;stroke-linejoin:miter;stroke-miterlimit:4;stroke-dasharray:none;stroke-opacity:1"
       d="m 338.16225,295.64554 v 186.277"
       id="path5890"
       inkscape:connector-curvature="0" /><path
       style="fill:#80e5ff;fill-opacity:1;fill-rule:evenodd;stroke:none;stroke-width:0.810486;stroke-linecap:butt;stroke-linejoin:miter;stroke-miterlimit:4;stroke-dasharray:none;stroke-opacity:1"
       d="M 302.54307,286.38348 190.02649,399.22612 v 35.22108 h 36.35363 L 337.5762,322.39712 v -36.01105 z"
       id="path6342"
       inkscape:connector-curvature="0"
       sodipodi:nodetypes="ccccccc" /><path
       sodipodi:nodetypes="cc"
       style="fill:none;fill-rule:evenodd;stroke:#333333;stroke-width:0.685476;stroke-linecap:butt;stroke-linejoin:miter;stroke-miterlimit:4;stroke-dasharray:none;stroke-opacity:1"
       d="m 149.88002,398.48407 h 40.88152"
       id="path9547"
       inkscape:connector-curvature="0" /><path
       inkscape:connector-curvature="0"
       id="path9549"
       d="m 226.5478,434.27033 v 32.16973"
       style="fill:none;fill-rule:evenodd;stroke:#333333;stroke-width:0.685476;stroke-linecap:butt;stroke-linejoin:miter;stroke-miterlimit:4;stroke-dasharray:none;stroke-opacity:1"
       sodipodi:nodetypes="cc" /><path
       style="color:#000000;clip-rule:nonzero;display:inline;overflow:visible;visibility:visible;opacity:1;isolation:auto;mix-blend-mode:normal;color-interpolation:sRGB;color-interpolation-filters:linearRGB;solid-color:#000000;solid-opacity:1;fill:none;fill-opacity:1;fill-rule:nonzero;stroke:#ff5555;stroke-width:1.08065;stroke-linecap:butt;stroke-linejoin:miter;stroke-miterlimit:4;stroke-dasharray:none;stroke-dashoffset:0;stroke-opacity:1;color-rendering:auto;image-rendering:auto;shape-rendering:auto;text-rendering:auto;enable-background:accumulate"
       d="M 189.90819,286.39091 H 337.95702 V 434.43975 H 189.90819 Z"
       id="rect5061"
       inkscape:connector-curvature="0"
       sodipodi:nodetypes="ccccc" /><path
       sodipodi:nodetypes="cc"
       inkscape:connector-curvature="0"
       id="path6232"
       d="M 332.21097,475.3758 H 195.71274"
       style="color:#000000;clip-rule:nonzero;display:inline;overflow:visible;visibility:visible;opacity:1;isolation:auto;mix-blend-mode:normal;color-interpolation:sRGB;color-interpolation-filters:linearRGB;solid-color:#000000;solid-opacity:1;fill:#808080;fill-opacity:1;fill-rule:evenodd;stroke:#4d4d4d;stroke-width:0.885827;stroke-linecap:butt;stroke-linejoin:miter;stroke-miterlimit:4;stroke-dasharray:none;stroke-dashoffset:0;stroke-opacity:1;marker-start:url(#marker10507);marker-end:url(#Arrow1L);color-rendering:auto;image-rendering:auto;shape-rendering:auto;text-rendering:auto;enable-background:accumulate" /><path
       style="color:#000000;clip-rule:nonzero;display:inline;overflow:visible;visibility:visible;opacity:1;isolation:auto;mix-blend-mode:normal;color-interpolation:sRGB;color-interpolation-filters:linearRGB;solid-color:#000000;solid-opacity:1;fill:#808080;fill-opacity:1;fill-rule:evenodd;stroke:#4d4d4d;stroke-width:0.885827;stroke-linecap:butt;stroke-linejoin:miter;stroke-miterlimit:4;stroke-dasharray:none;stroke-dashoffset:0;stroke-opacity:1;marker-start:url(#marker10507);marker-end:url(#Arrow1L);color-rendering:auto;image-rendering:auto;shape-rendering:auto;text-rendering:auto;enable-background:accumulate"
       d="M 221.63933,454.84348 H 195.71274"
       id="path8483"
       inkscape:connector-curvature="0"
       sodipodi:nodetypes="cc" /><path
       sodipodi:nodetypes="cc"
       inkscape:connector-curvature="0"
       id="path8895"
       d="M 158.93453,428.6121 V 404.70903"
       style="color:#000000;clip-rule:nonzero;display:inline;overflow:visible;visibility:visible;opacity:1;isolation:auto;mix-blend-mode:normal;color-interpolation:sRGB;color-interpolation-filters:linearRGB;solid-color:#000000;solid-opacity:1;fill:#808080;fill-opacity:1;fill-rule:evenodd;stroke:#4d4d4d;stroke-width:0.885827;stroke-linecap:butt;stroke-linejoin:miter;stroke-miterlimit:4;stroke-dasharray:none;stroke-dashoffset:0;stroke-opacity:1;marker-start:url(#marker10507);marker-end:url(#Arrow1L);color-rendering:auto;image-rendering:auto;shape-rendering:auto;text-rendering:auto;enable-background:accumulate" /><text
       id="text9791"
       y="471.35022"
       x="252.03853"
       style="font-style:normal;font-variant:normal;font-weight:normal;font-stretch:normal;font-size:9.99999978px;line-height:0%;font-family:'EB Garamond';-inkscape-font-specification:'EB Garamond, Normal';font-variant-ligatures:normal;font-variant-caps:normal;font-variant-numeric:normal;font-variant-east-asian:normal;text-align:start;letter-spacing:0px;word-spacing:0px;writing-mode:lr-tb;text-anchor:start;fill:#000000;fill-opacity:1;stroke:none;stroke-width:0.540322px;stroke-linecap:butt;stroke-linejoin:miter;stroke-opacity:1"
       xml:space="preserve"><tspan
         y="471.35022"
         x="252.03853"
         id="tspan9793"
         sodipodi:role="line"
         style="font-style:normal;font-variant:normal;font-weight:normal;font-stretch:normal;line-height:1.25;font-family:'EB Garamond';-inkscape-font-specification:'EB Garamond, Normal';font-variant-ligatures:normal;font-variant-caps:normal;font-variant-numeric:normal;font-variant-east-asian:normal;stroke-width:0.540322px;font-size:9.99999978px">1 hour</tspan></text><text
       xml:space="preserve"
       style="font-style:normal;font-variant:normal;font-weight:normal;font-stretch:normal;font-size:9.99999978px;line-height:0%;font-family:'EB Garamond';-inkscape-font-specification:'EB Garamond, Normal';font-variant-ligatures:normal;font-variant-caps:normal;font-variant-numeric:normal;font-variant-east-asian:normal;text-align:start;letter-spacing:0px;word-spacing:0px;writing-mode:lr-tb;text-anchor:start;fill:#000000;fill-opacity:1;stroke:none;stroke-width:0.540324px;stroke-linecap:butt;stroke-linejoin:miter;stroke-opacity:1"
       x="-372.31119"
       y="123.71934"
       id="text9795"
       transform="matrix(0,-0.9999952,1.0000048,0,0,0)"><tspan
         sodipodi:role="line"
         id="tspan9797"
         x="-372.31119"
         y="123.71934"
         style="font-style:normal;font-variant:normal;font-weight:normal;font-stretch:normal;line-height:1.25;font-family:'EB Garamond';-inkscape-font-specification:'EB Garamond, Normal';font-variant-ligatures:normal;font-variant-caps:normal;font-variant-numeric:normal;font-variant-east-asian:normal;stroke-width:0.540324px;font-size:9.99999978px">1 hour</tspan></text><text
       xml:space="preserve"
       style="font-style:normal;font-variant:normal;font-weight:normal;font-stretch:normal;font-size:9.99999978px;line-height:0%;font-family:'EB Garamond';-inkscape-font-specification:'EB Garamond, Normal';font-variant-ligatures:normal;font-variant-caps:normal;font-variant-numeric:normal;font-variant-east-asian:normal;text-align:start;letter-spacing:0px;word-spacing:0px;writing-mode:lr-tb;text-anchor:start;fill:#000000;fill-opacity:1;stroke:none;stroke-width:0.540322px;stroke-linecap:butt;stroke-linejoin:miter;stroke-opacity:1"
       x="198.0061"
       y="449.73749"
       id="text9847"><tspan
         sodipodi:role="line"
         id="tspan9849"
         x="198.0061"
         y="449.73749"
         style="font-style:normal;font-variant:normal;font-weight:normal;font-stretch:normal;line-height:1.25;font-family:'EB Garamond';-inkscape-font-specification:'EB Garamond, Normal';font-variant-ligatures:normal;font-variant-caps:normal;font-variant-numeric:normal;font-variant-east-asian:normal;stroke-width:0.540322px;font-size:9.99999978px">1 /4</tspan></text><text
       id="text9851"
       y="419.57739"
       x="137.70369"
       style="font-style:normal;font-variant:normal;font-weight:normal;font-stretch:normal;font-size:9.99999978px;line-height:0%;font-family:'EB Garamond';-inkscape-font-specification:'EB Garamond, Normal';font-variant-ligatures:normal;font-variant-caps:normal;font-variant-numeric:normal;font-variant-east-asian:normal;text-align:start;letter-spacing:0px;word-spacing:0px;writing-mode:lr-tb;text-anchor:start;fill:#000000;fill-opacity:1;stroke:none;stroke-width:0.540324px;stroke-linecap:butt;stroke-linejoin:miter;stroke-opacity:1"
       xml:space="preserve"><tspan
         y="419.57739"
         x="137.70369"
         id="tspan9853"
         sodipodi:role="line"
         style="font-style:normal;font-variant:normal;font-weight:normal;font-stretch:normal;line-height:1.25;font-family:'EB Garamond';-inkscape-font-specification:'EB Garamond, Normal';font-variant-ligatures:normal;font-variant-caps:normal;font-variant-numeric:normal;font-variant-east-asian:normal;stroke-width:0.540324px;font-size:9.99999978px">1 /4</tspan></text><text
       id="text9863"
       y="261.70651"
       x="101.86139"
       style="font-style:italic;font-variant:normal;font-weight:normal;font-stretch:normal;font-size:10px;line-height:0%;font-family:'EB Garamond';-inkscape-font-specification:'EB Garamond, Italic';font-variant-ligatures:normal;font-variant-caps:normal;font-variant-numeric:normal;font-variant-east-asian:normal;text-align:start;letter-spacing:0px;word-spacing:0px;writing-mode:lr-tb;text-anchor:start;fill:#000000;fill-opacity:1;stroke:none;stroke-width:0.540322px;stroke-linecap:butt;stroke-linejoin:miter;stroke-opacity:1"
       xml:space="preserve"><tspan
         y="261.70651"
         x="101.86139"
         id="tspan9865"
         sodipodi:role="line"
         style="font-style:italic;font-variant:normal;font-weight:normal;font-stretch:normal;font-size:10px;line-height:1.25;font-family:'EB Garamond';-inkscape-font-specification:'EB Garamond, Italic';font-variant-ligatures:normal;font-variant-caps:normal;font-variant-numeric:normal;font-variant-east-asian:normal;stroke-width:0.540322px"
         dx="0 0 0 0.25092763">y, h</tspan></text><g
       id="g6223-3"
       style="font-style:normal;font-variant:normal;font-weight:normal;font-stretch:normal;font-size:84.7674px;line-height:125%;font-family:Alegreya;-inkscape-font-specification:Alegreya;text-align:start;letter-spacing:0px;word-spacing:0px;writing-mode:lr-tb;text-anchor:start;fill:#000000;fill-opacity:1;stroke:none;stroke-width:1px;stroke-linecap:butt;stroke-linejoin:miter;stroke-opacity:1"
       transform="matrix(0.17124102,0,0,0.17124102,-94.615852,-59.071754)" /><g
       style="font-style:normal;font-variant:normal;font-weight:normal;font-stretch:normal;font-size:84.7674px;line-height:125%;font-family:Alegreya;-inkscape-font-specification:Alegreya;text-align:start;letter-spacing:0px;word-spacing:0px;writing-mode:lr-tb;text-anchor:start;fill:#000000;fill-opacity:1;stroke:none;stroke-width:1px;stroke-linecap:butt;stroke-linejoin:miter;stroke-opacity:1"
       id="text6189"
       transform="matrix(0.14127207,0,0,0.14127344,-84.897553,0.69277812)" /><g
       id="g3847-9"
       transform="matrix(0.63319249,0,0,0.63319249,-54.057209,-49.082926)" /></g></svg>
