<?xml version="1.0" encoding="UTF-8" standalone="no"?>
<!-- Created with Inkscape (http://www.inkscape.org/) -->

<svg
   width="49.747601mm"
   height="46.848267mm"
   viewBox="0 0 176.27103 165.99779"
   id="svg2"
   version="1.1"
   inkscape:version="1.2.2 (b0a8486, 2022-12-01)"
   sodipodi:docname="roulette.svg"
   xml:space="preserve"
   xmlns:inkscape="http://www.inkscape.org/namespaces/inkscape"
   xmlns:sodipodi="http://sodipodi.sourceforge.net/DTD/sodipodi-0.dtd"
   xmlns:xlink="http://www.w3.org/1999/xlink"
   xmlns="http://www.w3.org/2000/svg"
   xmlns:svg="http://www.w3.org/2000/svg"
   xmlns:rdf="http://www.w3.org/1999/02/22-rdf-syntax-ns#"
   xmlns:cc="http://creativecommons.org/ns#"
   xmlns:dc="http://purl.org/dc/elements/1.1/"><defs
     id="defs4"><marker
       style="overflow:visible"
       id="marker4269"
       refX="0"
       refY="0"
       orient="auto-start-reverse"
       inkscape:stockid="Arrow1L"
       markerWidth="8.75"
       markerHeight="5"
       viewBox="0 0 8.75 5"
       inkscape:isstock="true"
       inkscape:collect="always"
       preserveAspectRatio="xMidYMid"><path
         style="fill:context-stroke;fill-rule:evenodd;stroke:none"
         d="M 0,0 5,-5 -12.5,0 5,5 Z"
         id="path4267"
         transform="scale(-0.5)" /></marker><marker
       style="overflow:visible"
       id="Arrow1L"
       refX="0"
       refY="0"
       orient="auto-start-reverse"
       inkscape:stockid="Arrow1L"
       markerWidth="8.75"
       markerHeight="5"
       viewBox="0 0 8.75 5"
       inkscape:isstock="true"
       inkscape:collect="always"
       preserveAspectRatio="xMidYMid"><path
         style="fill:context-stroke;fill-rule:evenodd;stroke:none"
         d="M 0,0 5,-5 -12.5,0 5,5 Z"
         id="arrow1L"
         transform="scale(-0.5)" /></marker><marker
       inkscape:isstock="true"
       style="overflow:visible"
       id="marker6588"
       refX="0"
       refY="0"
       orient="auto"
       inkscape:stockid="Arrow1Mstart"><path
         inkscape:connector-curvature="0"
         transform="matrix(0.4,0,0,0.4,4,0)"
         style="fill:#ff4500;fill-opacity:1;fill-rule:evenodd;stroke:#ff4500;stroke-width:1pt;stroke-opacity:1"
         d="M 0,0 5,-5 -12.5,0 5,5 Z"
         id="path6590" /></marker><marker
       inkscape:isstock="true"
       style="overflow:visible"
       id="marker6230"
       refX="0"
       refY="0"
       orient="auto"
       inkscape:stockid="Arrow1Mend"><path
         transform="matrix(-0.4,0,0,-0.4,-4,0)"
         style="fill:#ff4500;fill-opacity:1;fill-rule:evenodd;stroke:#ff4500;stroke-width:1pt;stroke-opacity:1"
         d="M 0,0 5,-5 -12.5,0 5,5 Z"
         id="path6232"
         inkscape:connector-curvature="0" /></marker><marker
       inkscape:isstock="true"
       style="overflow:visible"
       id="marker5264"
       refX="0"
       refY="0"
       orient="auto"
       inkscape:stockid="Arrow1Mend"><path
         transform="matrix(-0.4,0,0,-0.4,-4,0)"
         style="fill:#ff4500;fill-opacity:1;fill-rule:evenodd;stroke:#ff4500;stroke-width:1pt;stroke-opacity:1"
         d="M 0,0 5,-5 -12.5,0 5,5 Z"
         id="path5266"
         inkscape:connector-curvature="0" /></marker><marker
       inkscape:stockid="Arrow2Lend"
       orient="auto"
       refY="0"
       refX="0"
       id="marker5150"
       style="overflow:visible"
       inkscape:isstock="true"><path
         id="path5152"
         style="fill:#000000;fill-opacity:1;fill-rule:evenodd;stroke:#000000;stroke-width:0.625;stroke-linejoin:round;stroke-opacity:1"
         d="M 8.7185878,4.0337352 -2.2072895,0.01601326 8.7185884,-4.0017078 c -1.7454984,2.3720609 -1.7354408,5.6174519 -6e-7,8.035443 z"
         transform="matrix(-1.1,0,0,-1.1,-1.1,0)"
         inkscape:connector-curvature="0" /></marker><marker
       inkscape:stockid="Arrow2Lend"
       orient="auto"
       refY="0"
       refX="0"
       id="Arrow2Lend"
       style="overflow:visible"
       inkscape:isstock="true"><path
         id="path4595"
         style="fill:#000000;fill-opacity:1;fill-rule:evenodd;stroke:#000000;stroke-width:0.625;stroke-linejoin:round;stroke-opacity:1"
         d="M 8.7185878,4.0337352 -2.2072895,0.01601326 8.7185884,-4.0017078 c -1.7454984,2.3720609 -1.7354408,5.6174519 -6e-7,8.035443 z"
         transform="matrix(-1.1,0,0,-1.1,-1.1,0)"
         inkscape:connector-curvature="0" /></marker><marker
       inkscape:stockid="Arrow1Lend"
       orient="auto"
       refY="0"
       refX="0"
       id="Arrow1Lend"
       style="overflow:visible"
       inkscape:isstock="true"><path
         id="path4577"
         d="M 0,0 5,-5 -12.5,0 5,5 Z"
         style="fill:#000000;fill-opacity:1;fill-rule:evenodd;stroke:#000000;stroke-width:1pt;stroke-opacity:1"
         transform="matrix(-0.8,0,0,-0.8,-10,0)"
         inkscape:connector-curvature="0" /></marker><linearGradient
       inkscape:collect="always"
       id="linearGradient4430"><stop
         style="stop-color:#c71585;stop-opacity:1"
         offset="0"
         id="stop4432" /><stop
         style="stop-color:#8b008b;stop-opacity:1"
         offset="1"
         id="stop4434" /></linearGradient><radialGradient
       inkscape:collect="always"
       xlink:href="#linearGradient4430"
       id="radialGradient4436-3"
       cx="506.87045"
       cy="715.19287"
       fx="506.87045"
       fy="715.19287"
       r="228.98969"
       gradientTransform="matrix(0.95052287,-0.01236925,0.00449768,0.34562749,-256.01899,-161.76887)"
       gradientUnits="userSpaceOnUse" /><g
       id="g8655"><symbol
         overflow="visible"
         id="glyph0-0"><path
           style="stroke:none"
           d="m 1.75,0 h 14 v -16.546875 h -14 z M 3.5,-1.75 V -14.796875 H 14 V -1.75 Z m 0,0"
           id="path8643" /></symbol><symbol
         overflow="visible"
         id="glyph0-1"><path
           style="stroke:none"
           d="M 1.671875,0 H 21.03125 c 0.3125,0 0.515625,-0.34375 0.515625,-0.703125 0,-0.09375 0,-0.171875 -0.03125,-0.234375 L 13.1875,-22.953125 c -0.109375,-0.3125 -0.171875,-0.484375 -0.34375,-0.484375 -0.171875,0 -0.53125,0.875 -1.046875,1.125 -0.390625,0.171875 -0.640625,0.203125 -1.0625,0.34375 -0.0625,0.03125 -0.03125,0.59375 -0.140625,0.984375 C 10.5,-20.578125 10.390625,-20.25 10.25,-19.9375 l -9.03125,19 C 1.1875,-0.84375 1.15625,-0.734375 1.15625,-0.59375 1.15625,-0.28125 1.296875,0 1.671875,0 Z M 5.28125,-1.921875 c -0.65625,0 -1.265625,-0.03125 -1.265625,-0.671875 0,-0.234375 0.109375,-0.5625 0.328125,-1.046875 l 6.890625,-15.25 c 0.171875,-0.390625 0.28125,-0.59375 0.34375,-0.59375 0.109375,0 0.171875,0.203125 0.3125,0.625 L 17,-4.203125 c 0.3125,0.921875 0.5625,1.515625 0.5625,1.859375 0,0.28125 -0.171875,0.421875 -0.59375,0.421875 z m 0,0"
           id="path8646" /></symbol><symbol
         overflow="visible"
         id="glyph1-0"><path
           style="stroke:none"
           d="M 2.140625,0 H 16.125 V -16.546875 H 2.140625 Z m 1.75,-1.75 V -14.796875 H 14.375 V -1.75 Z m 0,0"
           id="path8649" /></symbol><symbol
         overflow="visible"
         id="glyph1-1"><path
           style="stroke:none"
           d="m 0.84375,0.484375 c 0.828125,0 1.609375,-0.28125 2.578125,-1.421875 1.15625,-1.375 2.28125,-2.90625 3.40625,-4.3125 0.28125,-0.34375 0.40625,-0.34375 0.546875,0.21875 0.25,0.96875 0.53125,2.203125 0.78125,3.171875 0.421875,1.546875 0.90625,2.34375 2.203125,2.34375 2.03125,0 3.640625,-3.3125 3.640625,-4.609375 0,-0.703125 -0.140625,-0.765625 -0.328125,-0.765625 -0.171875,0 -0.3125,0.125 -0.453125,0.484375 -0.6875,1.71875 -1.640625,2.796875 -2.296875,2.796875 -0.25,0 -0.5625,-0.203125 -0.734375,-0.84375 L 8.984375,-6.75 C 8.8125,-7.34375 8.890625,-7.703125 9.0625,-7.96875 c 0.875,-1.34375 1.640625,-2.25 2.3125,-3.015625 0.796875,-0.984375 1.421875,-1.46875 1.984375,-1.46875 0.3125,0 0.53125,0.171875 0.78125,0.796875 0.140625,0.359375 0.34375,0.59375 0.625,0.59375 0.59375,0 1.46875,-1.390625 1.4375,-1.921875 -0.04687,-0.546875 -0.875,-1.5 -1.796875,-1.5 -1.25,0 -2.4375,1.078125 -3.140625,2.0625 l -2.453125,3.5 c -0.234375,0.3125 -0.421875,0.28125 -0.484375,-0.0625 l -0.875,-3.71875 c -0.3125,-1.21875 -0.734375,-1.78125 -1.46875,-1.78125 -1.546875,0 -3.75,2.625 -3.75,3.984375 0,0.359375 0.078125,0.59375 0.25,0.59375 0.3125,0 0.484375,-0.421875 0.59375,-0.546875 0.875,-1.265625 1.609375,-1.828125 1.953125,-1.828125 0.28125,0 0.390625,0.07813 0.53125,0.59375 l 1.328125,4.90625 c 0.078125,0.203125 0.078125,0.453125 -0.109375,0.625 -1.46875,1.671875 -2.234375,2.6875 -3.625,4.125 C 2.875,-1.75 2.515625,-1.578125 2.203125,-1.609375 c -0.28125,0 -0.53125,-0.25 -0.65625,-0.796875 -0.078125,-0.328125 -0.21875,-0.640625 -0.5625,-0.640625 -0.59375,0 -1.578125,1.40625 -1.578125,2.203125 0,0.90625 0.734375,1.328125 1.4375,1.328125 z m 0,0"
           id="path8652" /></symbol></g><clipPath
       id="clip1"><path
         d="M 0.492188,0.175781 H 21 V 24.558594 H 0.492188 Z m 0,0"
         id="path8657" /></clipPath><clipPath
       id="clip2"><path
         d="M 22,9 H 39.507812 V 24.558594 H 22 Z m 0,0"
         id="path8660" /></clipPath></defs><sodipodi:namedview
     id="base"
     pagecolor="#ffffff"
     bordercolor="#666666"
     borderopacity="1.0"
     inkscape:pageopacity="0.0"
     inkscape:pageshadow="2"
     inkscape:zoom="1.2759765"
     inkscape:cx="164.18797"
     inkscape:cy="161.83683"
     inkscape:document-units="px"
     inkscape:current-layer="layer1"
     showgrid="false"
     inkscape:window-width="1309"
     inkscape:window-height="843"
     inkscape:window-x="0"
     inkscape:window-y="0"
     inkscape:window-maximized="0"
     inkscape:snap-grids="true"
     fit-margin-top="0"
     fit-margin-left="0"
     fit-margin-right="0"
     fit-margin-bottom="0"
     inkscape:showpageshadow="2"
     inkscape:pagecheckerboard="0"
     inkscape:deskcolor="#d1d1d1"><inkscape:grid
       type="xygrid"
       id="grid4566"
       originx="-711.71265"
       originy="-608.92474" /></sodipodi:namedview><metadata
     id="metadata7"><rdf:RDF><cc:Work
         rdf:about=""><dc:format>image/svg+xml</dc:format><dc:type
           rdf:resource="http://purl.org/dc/dcmitype/StillImage" /></cc:Work></rdf:RDF></metadata><g
     inkscape:label="Layer 1"
     inkscape:groupmode="layer"
     id="layer1"
     transform="translate(-711.7126,-156.50071)"><text
       id="text17541"
       y="286.81668"
       x="881.03674"
       style="font-style:italic;font-variant:normal;font-weight:normal;font-stretch:normal;font-size:15px;line-height:0%;font-family:'EB Garamond';-inkscape-font-specification:'EB Garamond, Italic';font-variant-ligatures:normal;font-variant-caps:normal;font-variant-numeric:normal;font-variant-east-asian:normal;text-align:start;letter-spacing:0px;word-spacing:0px;writing-mode:lr-tb;text-anchor:start;fill:#000000;fill-opacity:1;stroke:none;stroke-width:1.37111px;stroke-linecap:round;stroke-linejoin:round;stroke-opacity:1"
       xml:space="preserve"><tspan
         y="286.81668"
         x="881.03674"
         id="tspan17543"
         sodipodi:role="line"
         style="font-style:italic;font-variant:normal;font-weight:normal;font-stretch:normal;font-size:15px;line-height:1.25;font-family:'EB Garamond';-inkscape-font-specification:'EB Garamond, Italic';font-variant-ligatures:normal;font-variant-caps:normal;font-variant-numeric:normal;font-variant-east-asian:normal;fill:#000000;fill-opacity:1;stroke-width:1.37111px;stroke-linecap:round;stroke-linejoin:round">x<tspan
   id="tspan17633"
   style="font-style:italic;font-variant:normal;font-weight:normal;font-stretch:normal;font-size:15px;line-height:125%;font-family:'EB Garamond';-inkscape-font-specification:'EB Garamond, Italic';font-variant-ligatures:normal;font-variant-caps:normal;font-variant-numeric:normal;font-variant-east-asian:normal;text-align:start;writing-mode:lr-tb;text-anchor:start;fill:#000000;fill-opacity:1;stroke-width:1.37111px;stroke-linecap:round;stroke-linejoin:round" /></tspan></text><path
       d="m 867.4425,228.5054 a 70.313286,70.313286 0 0 1 -13.42865,41.32911 L 797.12921,228.5054 Z"
       sodipodi:end="0.62831853"
       sodipodi:start="0"
       sodipodi:ry="70.313286"
       sodipodi:rx="70.313286"
       sodipodi:cy="228.5054"
       sodipodi:cx="797.12921"
       sodipodi:type="arc"
       style="color:#000000;clip-rule:nonzero;display:inline;overflow:visible;visibility:visible;isolation:auto;mix-blend-mode:normal;color-interpolation:sRGB;color-interpolation-filters:linearRGB;solid-color:#000000;solid-opacity:1;fill:#fff6d5;fill-opacity:1;fill-rule:nonzero;stroke:#000000;stroke-width:1.68756;stroke-linecap:round;stroke-linejoin:round;stroke-miterlimit:4;stroke-dasharray:none;stroke-dashoffset:0;stroke-opacity:1;color-rendering:auto;image-rendering:auto;shape-rendering:auto;text-rendering:auto;enable-background:accumulate"
       id="ellipse3347"
       sodipodi:arc-type="slice" /><path
       d="m 854.01385,269.83451 a 70.313286,70.313286 0 0 1 -35.15664,25.5428 l -21.728,-66.87191 z"
       sodipodi:end="1.2566371"
       sodipodi:start="0.62831853"
       sodipodi:ry="70.313286"
       sodipodi:rx="70.313286"
       sodipodi:cy="228.5054"
       sodipodi:cx="797.12921"
       sodipodi:type="arc"
       id="path6530"
       style="color:#000000;clip-rule:nonzero;display:inline;overflow:visible;visibility:visible;isolation:auto;mix-blend-mode:normal;color-interpolation:sRGB;color-interpolation-filters:linearRGB;solid-color:#000000;solid-opacity:1;fill:#ffd700;fill-opacity:1;fill-rule:nonzero;stroke:#333333;stroke-width:1.68756;stroke-linecap:round;stroke-linejoin:round;stroke-miterlimit:4;stroke-dasharray:none;stroke-dashoffset:0;stroke-opacity:1;color-rendering:auto;image-rendering:auto;shape-rendering:auto;text-rendering:auto;enable-background:accumulate"
       sodipodi:arc-type="slice" /><path
       d="m 818.85721,295.37731 a 70.313286,70.313286 0 0 1 -43.456,0 l 21.728,-66.87191 z"
       sodipodi:end="1.8849556"
       sodipodi:start="1.2566371"
       sodipodi:ry="70.313286"
       sodipodi:rx="70.313286"
       sodipodi:cy="228.5054"
       sodipodi:cx="797.12921"
       sodipodi:type="arc"
       style="color:#000000;clip-rule:nonzero;display:inline;overflow:visible;visibility:visible;isolation:auto;mix-blend-mode:normal;color-interpolation:sRGB;color-interpolation-filters:linearRGB;solid-color:#000000;solid-opacity:1;fill:none;fill-opacity:1;fill-rule:nonzero;stroke:#333333;stroke-width:1.68756;stroke-linecap:round;stroke-linejoin:round;stroke-miterlimit:4;stroke-dasharray:none;stroke-dashoffset:0;stroke-opacity:1;color-rendering:auto;image-rendering:auto;shape-rendering:auto;text-rendering:auto;enable-background:accumulate"
       id="path6532"
       sodipodi:arc-type="slice" /><path
       d="M 775.40121,295.37731 A 70.313286,70.313286 0 0 1 740.24457,269.83452 L 797.12921,228.5054 Z"
       sodipodi:end="2.5132741"
       sodipodi:start="1.8849556"
       sodipodi:ry="70.313286"
       sodipodi:rx="70.313286"
       sodipodi:cy="228.5054"
       sodipodi:cx="797.12921"
       sodipodi:type="arc"
       id="path6534"
       style="color:#000000;clip-rule:nonzero;display:inline;overflow:visible;visibility:visible;isolation:auto;mix-blend-mode:normal;color-interpolation:sRGB;color-interpolation-filters:linearRGB;solid-color:#000000;solid-opacity:1;fill:none;fill-opacity:1;fill-rule:nonzero;stroke:#333333;stroke-width:1.68756;stroke-linecap:round;stroke-linejoin:round;stroke-miterlimit:4;stroke-dasharray:none;stroke-dashoffset:0;stroke-opacity:1;color-rendering:auto;image-rendering:auto;shape-rendering:auto;text-rendering:auto;enable-background:accumulate"
       sodipodi:arc-type="slice" /><path
       d="M 740.24457,269.83452 A 70.313286,70.313286 0 0 1 726.81593,228.5054 h 70.31328 z"
       sodipodi:end="3.1415927"
       sodipodi:start="2.5132741"
       sodipodi:ry="70.313286"
       sodipodi:rx="70.313286"
       sodipodi:cy="228.5054"
       sodipodi:cx="797.12921"
       sodipodi:type="arc"
       style="color:#000000;clip-rule:nonzero;display:inline;overflow:visible;visibility:visible;opacity:1;isolation:auto;mix-blend-mode:normal;color-interpolation:sRGB;color-interpolation-filters:linearRGB;solid-color:#000000;solid-opacity:1;fill:none;fill-opacity:1;fill-rule:nonzero;stroke:#333333;stroke-width:1.68756;stroke-linecap:round;stroke-linejoin:round;stroke-miterlimit:4;stroke-dasharray:none;stroke-dashoffset:0;stroke-opacity:1;color-rendering:auto;image-rendering:auto;shape-rendering:auto;text-rendering:auto;enable-background:accumulate"
       id="path6536"
       sodipodi:arc-type="slice" /><path
       transform="scale(1,-1)"
       id="path6547"
       style="color:#000000;clip-rule:nonzero;display:inline;overflow:visible;visibility:visible;isolation:auto;mix-blend-mode:normal;color-interpolation:sRGB;color-interpolation-filters:linearRGB;solid-color:#000000;solid-opacity:1;fill:#fff6d5;fill-opacity:1;fill-rule:nonzero;stroke:#333333;stroke-width:1.68756;stroke-linecap:round;stroke-linejoin:round;stroke-miterlimit:4;stroke-dasharray:none;stroke-dashoffset:0;stroke-opacity:1;color-rendering:auto;image-rendering:auto;shape-rendering:auto;text-rendering:auto;enable-background:accumulate"
       sodipodi:type="arc"
       sodipodi:cx="797.12921"
       sodipodi:cy="-228.37428"
       sodipodi:rx="70.313286"
       sodipodi:ry="70.313286"
       sodipodi:start="0"
       sodipodi:end="0.62831853"
       d="m 867.4425,-228.37428 a 70.313286,70.313286 0 0 1 -13.42865,41.32911 l -56.88464,-41.32911 z"
       sodipodi:arc-type="slice" /><path
       transform="scale(1,-1)"
       style="color:#000000;clip-rule:nonzero;display:inline;overflow:visible;visibility:visible;isolation:auto;mix-blend-mode:normal;color-interpolation:sRGB;color-interpolation-filters:linearRGB;solid-color:#000000;solid-opacity:1;fill:#fff6d5;fill-opacity:1;fill-rule:nonzero;stroke:#333333;stroke-width:1.68756;stroke-linecap:round;stroke-linejoin:round;stroke-miterlimit:4;stroke-dasharray:none;stroke-dashoffset:0;stroke-opacity:1;color-rendering:auto;image-rendering:auto;shape-rendering:auto;text-rendering:auto;enable-background:accumulate"
       id="path6549"
       sodipodi:type="arc"
       sodipodi:cx="797.12921"
       sodipodi:cy="-228.37428"
       sodipodi:rx="70.313286"
       sodipodi:ry="70.313286"
       sodipodi:start="0.62831853"
       sodipodi:end="1.2566371"
       d="m 854.01385,-187.04517 a 70.313286,70.313286 0 0 1 -35.15664,25.5428 l -21.728,-66.87191 z"
       sodipodi:arc-type="slice" /><path
       transform="scale(1,-1)"
       id="path6551"
       style="color:#000000;clip-rule:nonzero;display:inline;overflow:visible;visibility:visible;isolation:auto;mix-blend-mode:normal;color-interpolation:sRGB;color-interpolation-filters:linearRGB;solid-color:#000000;solid-opacity:1;fill:#fff6d5;fill-opacity:1;fill-rule:nonzero;stroke:#333333;stroke-width:1.68756;stroke-linecap:round;stroke-linejoin:round;stroke-miterlimit:4;stroke-dasharray:none;stroke-dashoffset:0;stroke-opacity:1;color-rendering:auto;image-rendering:auto;shape-rendering:auto;text-rendering:auto;enable-background:accumulate"
       sodipodi:type="arc"
       sodipodi:cx="797.12921"
       sodipodi:cy="-228.37428"
       sodipodi:rx="70.313286"
       sodipodi:ry="70.313286"
       sodipodi:start="1.2566371"
       sodipodi:end="1.8849556"
       d="m 818.85721,-161.50237 a 70.313286,70.313286 0 0 1 -43.456,0 l 21.728,-66.87191 z"
       sodipodi:arc-type="slice" /><path
       transform="scale(1,-1)"
       style="color:#000000;clip-rule:nonzero;display:inline;overflow:visible;visibility:visible;isolation:auto;mix-blend-mode:normal;color-interpolation:sRGB;color-interpolation-filters:linearRGB;solid-color:#000000;solid-opacity:1;fill:#fff6d5;fill-opacity:1;fill-rule:nonzero;stroke:#333333;stroke-width:1.68756;stroke-linecap:round;stroke-linejoin:round;stroke-miterlimit:4;stroke-dasharray:none;stroke-dashoffset:0;stroke-opacity:1;color-rendering:auto;image-rendering:auto;shape-rendering:auto;text-rendering:auto;enable-background:accumulate"
       id="path6553"
       sodipodi:type="arc"
       sodipodi:cx="797.12921"
       sodipodi:cy="-228.37428"
       sodipodi:rx="70.313286"
       sodipodi:ry="70.313286"
       sodipodi:start="1.8849556"
       sodipodi:end="2.5132741"
       d="m 775.40121,-161.50237 a 70.313286,70.313286 0 0 1 -35.15664,-25.5428 l 56.88464,-41.32911 z"
       sodipodi:arc-type="slice" /><path
       transform="scale(1,-1)"
       id="path6555"
       style="color:#000000;clip-rule:nonzero;display:inline;overflow:visible;visibility:visible;opacity:1;isolation:auto;mix-blend-mode:normal;color-interpolation:sRGB;color-interpolation-filters:linearRGB;solid-color:#000000;solid-opacity:1;fill:none;fill-opacity:1;fill-rule:nonzero;stroke:#333333;stroke-width:1.68756;stroke-linecap:round;stroke-linejoin:round;stroke-miterlimit:4;stroke-dasharray:none;stroke-dashoffset:0;stroke-opacity:1;color-rendering:auto;image-rendering:auto;shape-rendering:auto;text-rendering:auto;enable-background:accumulate"
       sodipodi:type="arc"
       sodipodi:cx="797.12921"
       sodipodi:cy="-228.37428"
       sodipodi:rx="70.313286"
       sodipodi:ry="70.313286"
       sodipodi:start="2.5132741"
       sodipodi:end="3.1415927"
       d="m 740.24457,-187.04517 a 70.313286,70.313286 0 0 1 -13.42864,-41.32911 h 70.31328 z"
       sodipodi:arc-type="slice" /><path
       sodipodi:nodetypes="ccssc"
       inkscape:connector-curvature="0"
       id="path6567"
       d="M 797.12917,228.50542 H 726.8159 c 0,-35.98767 27.17303,-66.16638 62.96354,-69.92811 35.79051,-3.76172 68.64426,20.1079 76.12651,55.30916 7.48226,35.20123 -11.96307,70.1245 -46.18938,81.2453"
       style="color:#000000;clip-rule:nonzero;display:inline;overflow:visible;visibility:visible;isolation:auto;mix-blend-mode:normal;color-interpolation:sRGB;color-interpolation-filters:linearRGB;solid-color:#000000;solid-opacity:1;fill:none;fill-opacity:1;fill-rule:nonzero;stroke:#ff6347;stroke-width:3.37513;stroke-linecap:square;stroke-linejoin:round;stroke-miterlimit:4;stroke-dasharray:none;stroke-dashoffset:0;stroke-opacity:1;color-rendering:auto;image-rendering:auto;shape-rendering:auto;text-rendering:auto;enable-background:accumulate" /><path
       sodipodi:nodetypes="ccc"
       inkscape:connector-curvature="0"
       id="path6569"
       d="m 827.59294,321.65473 -30.80002,-93.14931 78.65728,56.39914"
       style="color:#000000;clip-rule:nonzero;display:inline;overflow:visible;visibility:visible;isolation:auto;mix-blend-mode:normal;color-interpolation:sRGB;color-interpolation-filters:linearRGB;solid-color:#000000;solid-opacity:1;fill:none;fill-opacity:1;fill-rule:nonzero;stroke:#333333;stroke-width:1.68756;stroke-linecap:round;stroke-linejoin:round;stroke-miterlimit:4;stroke-dasharray:none;stroke-dashoffset:0;stroke-opacity:1;color-rendering:auto;image-rendering:auto;shape-rendering:auto;text-rendering:auto;enable-background:accumulate" /><circle
       style="color:#000000;clip-rule:nonzero;display:inline;overflow:visible;visibility:visible;isolation:auto;mix-blend-mode:normal;color-interpolation:sRGB;color-interpolation-filters:linearRGB;solid-color:#000000;solid-opacity:1;fill:#ff6600;fill-opacity:1;fill-rule:nonzero;stroke:#333333;stroke-width:1.68756;stroke-linecap:round;stroke-linejoin:round;stroke-miterlimit:4;stroke-dasharray:none;stroke-dashoffset:0;stroke-opacity:1;color-rendering:auto;image-rendering:auto;shape-rendering:auto;text-rendering:auto;enable-background:accumulate"
       id="circle6575"
       cx="854.48541"
       cy="269.75897"
       r="3.375128" /><circle
       cy="229.25743"
       cx="726.23053"
       id="circle6577"
       style="color:#000000;clip-rule:nonzero;display:inline;overflow:visible;visibility:visible;isolation:auto;mix-blend-mode:normal;color-interpolation:sRGB;color-interpolation-filters:linearRGB;solid-color:#000000;solid-opacity:1;fill:#ff6600;fill-opacity:1;fill-rule:nonzero;stroke:#333333;stroke-width:1.68756;stroke-linecap:round;stroke-linejoin:round;stroke-miterlimit:4;stroke-dasharray:none;stroke-dashoffset:0;stroke-opacity:1;color-rendering:auto;image-rendering:auto;shape-rendering:auto;text-rendering:auto;enable-background:accumulate"
       r="3.375128" /><path
       sodipodi:nodetypes="cc"
       inkscape:connector-curvature="0"
       id="path6579"
       d="m 864.88519,284.26803 c -9.92644,16.36218 -18.2172,19.94673 -34.36735,25.18786"
       style="color:#000000;clip-rule:nonzero;display:inline;overflow:visible;visibility:visible;isolation:auto;mix-blend-mode:normal;color-interpolation:sRGB;color-interpolation-filters:linearRGB;solid-color:#000000;solid-opacity:1;fill:none;fill-opacity:1;fill-rule:nonzero;stroke:#333333;stroke-width:0.971654;stroke-linecap:round;stroke-linejoin:round;stroke-miterlimit:4;stroke-dasharray:none;stroke-dashoffset:0;stroke-opacity:1;marker-start:url(#Arrow1L);marker-end:url(#marker4269);color-rendering:auto;image-rendering:auto;shape-rendering:auto;text-rendering:auto;enable-background:accumulate" /><path
       sodipodi:nodetypes="ccccc"
       inkscape:connector-curvature="0"
       id="path9049"
       d="m 832.69704,277.38407 -25.14064,-40.66916 -7.55542,-4.33315 1.68517,8.59814 z"
       style="fill:#ff6347;fill-rule:evenodd;stroke:none;stroke-width:0.221902px;stroke-linecap:round;stroke-linejoin:round;stroke-opacity:1" /><circle
       cy="228.95532"
       cx="797.14758"
       id="path6572"
       style="color:#000000;clip-rule:nonzero;display:inline;overflow:visible;visibility:visible;isolation:auto;mix-blend-mode:normal;color-interpolation:sRGB;color-interpolation-filters:linearRGB;solid-color:#000000;solid-opacity:1;fill:#f0e68c;fill-opacity:1;fill-rule:nonzero;stroke:#333333;stroke-width:1.68756;stroke-linecap:round;stroke-linejoin:round;stroke-miterlimit:4;stroke-dasharray:none;stroke-dashoffset:0;stroke-opacity:1;color-rendering:auto;image-rendering:auto;shape-rendering:auto;text-rendering:auto;enable-background:accumulate"
       r="6.7502561" /><g
       id="surface1"
       transform="matrix(0.42565836,0,0,0.42565836,854.94441,302.00189)"
       style="stroke-linecap:round;stroke-linejoin:round"><g
         clip-path="url(#clip1)"
         clip-rule="nonzero"
         id="g8669"
         style="stroke-linecap:round;stroke-linejoin:round"><g
           style="fill:#000000;fill-opacity:1;stroke-linecap:round;stroke-linejoin:round"
           id="g8667"><use
             xlink:href="#glyph0-1"
             x="-0.57359302"
             y="24.063713"
             id="use8665"
             style="stroke-linecap:round;stroke-linejoin:round" /></g></g><g
         clip-path="url(#clip2)"
         clip-rule="nonzero"
         id="g8675"
         style="stroke-linecap:round;stroke-linejoin:round"><g
           style="fill:#000000;fill-opacity:1;stroke-linecap:round;stroke-linejoin:round"
           id="g8673"><use
             xlink:href="#glyph1-1"
             x="23.075583"
             y="24.063713"
             id="use8671"
             style="stroke-linecap:round;stroke-linejoin:round" /></g></g></g><text
       id="text9123"
       y="232.13403"
       x="711.0376"
       style="font-style:italic;font-variant:normal;font-weight:normal;font-stretch:normal;font-size:15px;line-height:0%;font-family:'EB Garamond';-inkscape-font-specification:'EB Garamond, Italic';font-variant-ligatures:normal;font-variant-caps:normal;font-variant-numeric:normal;font-variant-east-asian:normal;text-align:start;letter-spacing:0px;word-spacing:0px;writing-mode:lr-tb;text-anchor:start;fill:#000000;fill-opacity:1;stroke:none;stroke-width:1.37111px;stroke-linecap:round;stroke-linejoin:round;stroke-opacity:1"
       xml:space="preserve"><tspan
         y="232.13403"
         x="711.0376"
         id="tspan9121"
         sodipodi:role="line"
         style="font-style:normal;font-variant:normal;font-weight:normal;font-stretch:normal;font-size:15px;line-height:1.25;font-family:'EB Garamond';-inkscape-font-specification:'EB Garamond, Italic';font-variant-ligatures:normal;font-variant-caps:normal;font-variant-numeric:normal;font-variant-east-asian:normal;fill:#000000;fill-opacity:1;stroke-width:1.37111px;stroke-linecap:round;stroke-linejoin:round">0</tspan></text></g></svg>
