<?xml version="1.0" encoding="UTF-8" standalone="no"?>
<!-- Created with Inkscape (http://www.inkscape.org/) -->

<svg
   width="90.732109mm"
   height="105.70752mm"
   viewBox="0 0 90.732109 105.70752"
   version="1.1"
   id="svg14914"
   xml:space="preserve"
   inkscape:version="1.2.2 (b0a8486, 2022-12-01)"
   sodipodi:docname="spont-fission.svg"
   xmlns:inkscape="http://www.inkscape.org/namespaces/inkscape"
   xmlns:sodipodi="http://sodipodi.sourceforge.net/DTD/sodipodi-0.dtd"
   xmlns="http://www.w3.org/2000/svg"
   xmlns:svg="http://www.w3.org/2000/svg"><sodipodi:namedview
     id="namedview14916"
     pagecolor="#ffffff"
     bordercolor="#666666"
     borderopacity="1.0"
     inkscape:showpageshadow="2"
     inkscape:pageopacity="0.0"
     inkscape:pagecheckerboard="0"
     inkscape:deskcolor="#d1d1d1"
     inkscape:document-units="mm"
     showgrid="false"
     inkscape:zoom="0.80247564"
     inkscape:cx="274.15162"
     inkscape:cy="199.383"
     inkscape:window-width="1440"
     inkscape:window-height="878"
     inkscape:window-x="0"
     inkscape:window-y="0"
     inkscape:window-maximized="1"
     inkscape:current-layer="layer1"
     showguides="false" /><defs
     id="defs14911"><marker
       style="overflow:visible"
       id="marker16088"
       refX="0"
       refY="0"
       orient="auto-start-reverse"
       inkscape:stockid="Arrow1L"
       markerWidth="8.75"
       markerHeight="5"
       viewBox="0 0 8.75 5"
       inkscape:isstock="true"
       inkscape:collect="always"
       preserveAspectRatio="xMidYMid"><path
         style="fill:context-stroke;fill-rule:evenodd;stroke:none"
         d="M 0,0 5,-5 -12.5,0 5,5 Z"
         id="path16086"
         transform="scale(-0.5)" /></marker><marker
       style="overflow:visible"
       id="Arrow1L"
       refX="0"
       refY="0"
       orient="auto-start-reverse"
       inkscape:stockid="Arrow1L"
       markerWidth="8.75"
       markerHeight="5"
       viewBox="0 0 8.75 5"
       inkscape:isstock="true"
       inkscape:collect="always"
       preserveAspectRatio="xMidYMid"><path
         style="fill:context-stroke;fill-rule:evenodd;stroke:none"
         d="M 0,0 5,-5 -12.5,0 5,5 Z"
         id="arrow1L"
         transform="scale(-0.5)" /></marker></defs><g
     inkscape:label="Layer 1"
     inkscape:groupmode="layer"
     id="layer1"
     transform="translate(-81.137166,-76.526962)"><g
       id="g20089"><path
         style="fill:#ffff00;stroke:none;stroke-width:0.264583px;stroke-linecap:butt;stroke-linejoin:miter;stroke-opacity:1"
         d="m 100.19406,146.11927 -12.289945,10.40391 6.938722,0.0929 12.651493,-10.55483 z"
         id="path18180"
         sodipodi:nodetypes="ccccc" /><path
         style="fill:#fff6d5;stroke:none;stroke-width:0.264583px;stroke-linecap:butt;stroke-linejoin:miter;stroke-opacity:1"
         d="m 162.96094,177.76731 0.18578,-91.749222 -12.94019,10.125242 6.68824,-0.278678 -25.9169,20.343368 7.43137,-0.0929 -37.15685,30.00415 5.90858,0.27868 -12.318131,10.21813 -6.409555,-0.0929 0.185786,21.08651 z"
         id="path17696"
         sodipodi:nodetypes="cccccccccccc" /><g
         id="g17672"><path
           style="font-variation-settings:normal;opacity:1;vector-effect:none;fill:none;fill-opacity:1;stroke:#00ccff;stroke-width:0.529167;stroke-linecap:round;stroke-linejoin:round;stroke-miterlimit:4;stroke-dasharray:none;stroke-dashoffset:0;stroke-opacity:1;-inkscape-stroke:none;marker-end:url(#Arrow1L);stop-color:#000000;stop-opacity:1"
           d="m 163.13911,86.174121 -8.41757,6.561832"
           id="path15213"
           sodipodi:nodetypes="cc" /><path
           style="font-variation-settings:normal;opacity:1;vector-effect:none;fill:none;fill-opacity:1;stroke:#00ccff;stroke-width:0.529167;stroke-linecap:round;stroke-linejoin:round;stroke-miterlimit:4;stroke-dasharray:none;stroke-dashoffset:0;stroke-opacity:1;-inkscape-stroke:none;marker-end:url(#Arrow1L);stop-color:#000000;stop-opacity:1"
           d="M 155.90489,97.008423 148.3698,103.0129"
           id="path16056"
           sodipodi:nodetypes="cc" /><path
           style="font-variation-settings:normal;opacity:1;vector-effect:none;fill:none;fill-opacity:1;stroke:#00ccff;stroke-width:0.529167;stroke-linecap:round;stroke-linejoin:round;stroke-miterlimit:4;stroke-dasharray:none;stroke-dashoffset:0;stroke-opacity:1;-inkscape-stroke:none;marker-end:url(#Arrow1L);stop-color:#000000;stop-opacity:1"
           d="m 144.12085,105.84693 -8.13889,6.74762"
           id="path16060"
           sodipodi:nodetypes="cc" /><path
           style="font-variation-settings:normal;opacity:1;vector-effect:none;fill:none;fill-opacity:1;stroke:#00ccff;stroke-width:0.529167;stroke-linecap:round;stroke-linejoin:round;stroke-miterlimit:4;stroke-dasharray:none;stroke-dashoffset:0;stroke-opacity:1;-inkscape-stroke:none;marker-end:url(#Arrow1L);stop-color:#000000;stop-opacity:1"
           d="m 137.63856,116.29184 -7.39576,6.23671"
           id="path16064"
           sodipodi:nodetypes="cc" /><path
           style="font-variation-settings:normal;opacity:1;vector-effect:none;fill:none;fill-opacity:1;stroke:#00ccff;stroke-width:0.529167;stroke-linecap:round;stroke-linejoin:round;stroke-miterlimit:4;stroke-dasharray:none;stroke-dashoffset:0;stroke-opacity:1;-inkscape-stroke:none;marker-end:url(#Arrow1L);stop-color:#000000;stop-opacity:1"
           d="m 125.99686,125.81684 -8.51046,7.30497"
           id="path16068"
           sodipodi:nodetypes="cc" /><path
           style="font-variation-settings:normal;opacity:1;vector-effect:none;fill:none;fill-opacity:1;stroke:#00ccff;stroke-width:0.529167;stroke-linecap:round;stroke-linejoin:round;stroke-miterlimit:4;stroke-dasharray:none;stroke-dashoffset:0;stroke-opacity:1;-inkscape-stroke:none;marker-end:url(#Arrow1L);stop-color:#000000;stop-opacity:1"
           d="m 113.3501,135.82716 -7.90666,6.70117"
           id="path16072"
           sodipodi:nodetypes="cc" /><path
           style="font-variation-settings:normal;opacity:1;vector-effect:none;fill:none;fill-opacity:1;stroke:#00ccff;stroke-width:0.529167;stroke-linecap:round;stroke-linejoin:round;stroke-miterlimit:4;stroke-dasharray:none;stroke-dashoffset:0;stroke-opacity:1;-inkscape-stroke:none;marker-end:url(#Arrow1L);stop-color:#000000;stop-opacity:1"
           d="m 107.47593,145.92517 -8.324675,7.11919"
           id="path16076"
           sodipodi:nodetypes="cc" /><path
           style="font-variation-settings:normal;opacity:1;vector-effect:none;fill:none;fill-opacity:1;stroke:#00ccff;stroke-width:0.529167;stroke-linecap:round;stroke-linejoin:round;stroke-miterlimit:4;stroke-dasharray:none;stroke-dashoffset:0;stroke-opacity:1;-inkscape-stroke:none;marker-end:url(#Arrow1L);stop-color:#000000;stop-opacity:1"
           d="m 100.29906,145.92517 -7.906662,6.88696"
           id="path16080"
           sodipodi:nodetypes="cc" /></g><path
         style="fill:none;stroke:#cccccc;stroke-width:0.264583;stroke-linecap:round;stroke-linejoin:round;stroke-dasharray:0.793749, 0.793749;stroke-dashoffset:0;stroke-opacity:1"
         d="M 94.908242,177.66226 V 155.06724"
         id="path14991"
         sodipodi:nodetypes="cc" /><path
         style="fill:none;stroke:#cccccc;stroke-width:0.264583;stroke-linecap:round;stroke-linejoin:round;stroke-dasharray:0.793749, 0.793749;stroke-dashoffset:0;stroke-opacity:1"
         d="M 101.25825,177.62502 V 148.66953"
         id="path15005"
         sodipodi:nodetypes="cc" /><path
         style="fill:none;stroke:#cccccc;stroke-width:0.264582;stroke-linecap:round;stroke-linejoin:round;stroke-dasharray:0.793746, 0.793746;stroke-dashoffset:0;stroke-opacity:1"
         d="M 107.49433,177.61338 V 146.06125"
         id="path15007"
         sodipodi:nodetypes="cc" /><path
         style="fill:none;stroke:#cccccc;stroke-width:0.264583;stroke-linecap:round;stroke-linejoin:round;stroke-dasharray:0.793749, 0.793749;stroke-dashoffset:0;stroke-opacity:1"
         d="M 126.12912,177.53889 V 125.95807"
         id="path15009"
         sodipodi:nodetypes="cc" /><path
         style="fill:none;stroke:#cccccc;stroke-width:0.264584;stroke-linecap:round;stroke-linejoin:round;stroke-dasharray:0.793752, 0.793752;stroke-dashoffset:0;stroke-opacity:1"
         d="M 131.94995,177.51351 V 116.09252"
         id="path15020"
         sodipodi:nodetypes="cc" /><path
         style="fill:none;stroke:#cccccc;stroke-width:0.264584;stroke-linecap:round;stroke-linejoin:round;stroke-dasharray:0.793752, 0.793752;stroke-dashoffset:0;stroke-opacity:1"
         d="M 138.29999,177.51825 V 118.17343"
         id="path15022"
         sodipodi:nodetypes="cc" /><path
         style="fill:none;stroke:#cccccc;stroke-width:0.264584;stroke-linecap:round;stroke-linejoin:round;stroke-dasharray:0.793752, 0.793752;stroke-dashoffset:0;stroke-opacity:1"
         d="M 144.12085,177.49131 V 105.84693"
         id="path15024"
         sodipodi:nodetypes="cc" /><path
         style="fill:none;stroke:#cccccc;stroke-width:0.264584;stroke-linecap:round;stroke-linejoin:round;stroke-dasharray:0.793752, 0.793752;stroke-dashoffset:0;stroke-opacity:1"
         d="M 151.21794,177.47564 V 97.607845"
         id="path15026"
         sodipodi:nodetypes="cc" /><path
         style="fill:none;stroke:#cccccc;stroke-width:0.264584;stroke-linecap:round;stroke-linejoin:round;stroke-dasharray:0.793752, 0.793752;stroke-dashoffset:0;stroke-opacity:1"
         d="M 156.82086,177.47714 V 98.501254"
         id="path15028"
         sodipodi:nodetypes="cc" /><path
         style="fill:none;stroke:#cccccc;stroke-width:0.264584;stroke-linecap:round;stroke-linejoin:round;stroke-dasharray:0.793752, 0.793752;stroke-dashoffset:0;stroke-opacity:1"
         d="M 163.27428,177.45561 V 85.205282"
         id="path15030"
         sodipodi:nodetypes="cc" /><path
         style="fill:none;stroke:#cccccc;stroke-width:0.264584;stroke-linecap:round;stroke-linejoin:round;stroke-dasharray:0.793752, 0.793752;stroke-dashoffset:0;stroke-opacity:1"
         d="M 161.94849,84.938707 H 88.986203"
         id="path15032"
         sodipodi:nodetypes="cc" /><path
         style="fill:none;stroke:#cccccc;stroke-width:0.264584;stroke-linecap:round;stroke-linejoin:round;stroke-dasharray:0.793752, 0.793752;stroke-dashoffset:0;stroke-opacity:1"
         d="M 149.81738,94.99288 H 88.992109"
         id="path15139"
         sodipodi:nodetypes="cc" /><path
         style="fill:none;stroke:#cccccc;stroke-width:0.264584;stroke-linecap:round;stroke-linejoin:round;stroke-dasharray:0.793752, 0.793752;stroke-dashoffset:0;stroke-opacity:1"
         d="M 142.84507,105.57621 H 88.986203"
         id="path15141"
         sodipodi:nodetypes="cc" /><path
         style="fill:none;stroke:#cccccc;stroke-width:0.264584;stroke-linecap:round;stroke-linejoin:round;stroke-dasharray:0.793752, 0.793752;stroke-dashoffset:0;stroke-opacity:1"
         d="M 130.72379,115.63038 H 88.986203"
         id="path15143"
         sodipodi:nodetypes="cc" /><path
         style="fill:none;stroke:#cccccc;stroke-width:0.264584;stroke-linecap:round;stroke-linejoin:round;stroke-dasharray:0.793752, 0.793752;stroke-dashoffset:0;stroke-opacity:1"
         d="M 125.17296,125.68455 H 88.986203"
         id="path15145"
         sodipodi:nodetypes="cc" /><path
         style="fill:none;stroke:#cccccc;stroke-width:0.264584;stroke-linecap:round;stroke-linejoin:round;stroke-dasharray:0.793752, 0.793752;stroke-dashoffset:0;stroke-opacity:1"
         d="M 112.24507,135.73872 H 88.986203"
         id="path15147"
         sodipodi:nodetypes="cc" /><path
         style="fill:none;stroke:#cccccc;stroke-width:0.264583;stroke-linecap:round;stroke-linejoin:round;stroke-dasharray:0.793749, 0.793749;stroke-dashoffset:0;stroke-opacity:1"
         d="M 113.4291,177.56452 V 135.97767"
         id="path15149"
         sodipodi:nodetypes="cc" /><path
         style="fill:none;stroke:#cccccc;stroke-width:0.264584;stroke-linecap:round;stroke-linejoin:round;stroke-dasharray:0.793752, 0.793752;stroke-dashoffset:0;stroke-opacity:1"
         d="M 106.4871,145.79289 H 88.986203"
         id="path15151"
         sodipodi:nodetypes="cc" /><ellipse
         style="font-variation-settings:normal;opacity:1;fill:#d40000;fill-opacity:1;stroke:#1a1a1a;stroke-width:0.264582;stroke-linecap:round;stroke-linejoin:round;stroke-miterlimit:4;stroke-dasharray:none;stroke-dashoffset:0;stroke-opacity:1;stop-color:#000000;stop-opacity:1"
         id="path15205"
         cx="163.40369"
         cy="85.909538"
         rx="1.8677089"
         ry="1.8677093" /><ellipse
         style="font-variation-settings:normal;opacity:1;fill:#d40000;fill-opacity:1;stroke:#1a1a1a;stroke-width:0.264582;stroke-linecap:round;stroke-linejoin:round;stroke-miterlimit:4;stroke-dasharray:none;stroke-dashoffset:0;stroke-opacity:1;stop-color:#000000;stop-opacity:1"
         id="ellipse16023"
         cx="156.74756"
         cy="95.905304"
         rx="1.8677089"
         ry="1.8677093" /><ellipse
         style="font-variation-settings:normal;opacity:1;fill:#d40000;fill-opacity:1;stroke:#1a1a1a;stroke-width:0.264582;stroke-linecap:round;stroke-linejoin:round;stroke-miterlimit:4;stroke-dasharray:none;stroke-dashoffset:0;stroke-opacity:1;stop-color:#000000;stop-opacity:1"
         id="ellipse16025"
         cx="150.60315"
         cy="95.905304"
         rx="1.8677089"
         ry="1.8677093" /><ellipse
         style="font-variation-settings:normal;opacity:1;fill:#d40000;fill-opacity:1;stroke:#1a1a1a;stroke-width:0.264582;stroke-linecap:round;stroke-linejoin:round;stroke-miterlimit:4;stroke-dasharray:none;stroke-dashoffset:0;stroke-opacity:1;stop-color:#000000;stop-opacity:1"
         id="ellipse16027"
         cx="144.20885"
         cy="105.91126"
         rx="1.8677089"
         ry="1.8677093" /><ellipse
         style="font-variation-settings:normal;opacity:1;fill:#d40000;fill-opacity:1;stroke:#1a1a1a;stroke-width:0.264582;stroke-linecap:round;stroke-linejoin:round;stroke-miterlimit:4;stroke-dasharray:none;stroke-dashoffset:0;stroke-opacity:1;stop-color:#000000;stop-opacity:1"
         id="ellipse16029"
         cx="138.16771"
         cy="115.96023"
         rx="1.8677089"
         ry="1.8677093" /><ellipse
         style="font-variation-settings:normal;opacity:1;fill:#d40000;fill-opacity:1;stroke:#1a1a1a;stroke-width:0.264582;stroke-linecap:round;stroke-linejoin:round;stroke-miterlimit:4;stroke-dasharray:none;stroke-dashoffset:0;stroke-opacity:1;stop-color:#000000;stop-opacity:1"
         id="ellipse16031"
         cx="131.81766"
         cy="115.96023"
         rx="1.8677089"
         ry="1.8677093" /><ellipse
         style="font-variation-settings:normal;opacity:1;fill:#d40000;fill-opacity:1;stroke:#1a1a1a;stroke-width:0.264582;stroke-linecap:round;stroke-linejoin:round;stroke-miterlimit:4;stroke-dasharray:none;stroke-dashoffset:0;stroke-opacity:1;stop-color:#000000;stop-opacity:1"
         id="ellipse16033"
         cx="125.99683"
         cy="125.82578"
         rx="1.8677089"
         ry="1.8677093" /><ellipse
         style="font-variation-settings:normal;opacity:1;fill:#d40000;fill-opacity:1;stroke:#1a1a1a;stroke-width:0.264582;stroke-linecap:round;stroke-linejoin:round;stroke-miterlimit:4;stroke-dasharray:none;stroke-dashoffset:0;stroke-opacity:1;stop-color:#000000;stop-opacity:1"
         id="ellipse16035"
         cx="113.3021"
         cy="136.30801"
         rx="1.8677089"
         ry="1.8677093" /><ellipse
         style="font-variation-settings:normal;opacity:1;fill:#d40000;fill-opacity:1;stroke:#1a1a1a;stroke-width:0.264582;stroke-linecap:round;stroke-linejoin:round;stroke-miterlimit:4;stroke-dasharray:none;stroke-dashoffset:0;stroke-opacity:1;stop-color:#000000;stop-opacity:1"
         id="ellipse16037"
         cx="107.93157"
         cy="146.5"
         rx="1.8677089"
         ry="1.8677093" /><ellipse
         style="font-variation-settings:normal;opacity:1;fill:#d40000;fill-opacity:1;stroke:#1a1a1a;stroke-width:0.264582;stroke-linecap:round;stroke-linejoin:round;stroke-miterlimit:4;stroke-dasharray:none;stroke-dashoffset:0;stroke-opacity:1;stop-color:#000000;stop-opacity:1"
         id="ellipse16039"
         cx="101.54037"
         cy="145.97084"
         rx="1.8677089"
         ry="1.8677093" /><ellipse
         style="font-variation-settings:normal;opacity:1;fill:#d40000;fill-opacity:1;stroke:#1a1a1a;stroke-width:0.264582;stroke-linecap:round;stroke-linejoin:round;stroke-miterlimit:4;stroke-dasharray:none;stroke-dashoffset:0;stroke-opacity:1;stop-color:#000000;stop-opacity:1"
         id="ellipse16041"
         cx="101.54037"
         cy="156.55418"
         rx="1.8677089"
         ry="1.8677093" /><path
         style="fill:none;stroke:#d400aa;stroke-width:0.25;stroke-linecap:butt;stroke-linejoin:miter;stroke-dasharray:none;stroke-opacity:1;marker-end:url(#marker16088)"
         d="m 149.59831,88.554173 c 1.68646,-0.235934 2.20231,-0.202234 3.29861,-0.110281 1.04383,0.08755 1.53907,0.371319 3.07936,0.62672"
         id="path16084"
         sodipodi:nodetypes="cac" /><path
         style="fill:none;stroke:#d400aa;stroke-width:0.25;stroke-linecap:butt;stroke-linejoin:miter;stroke-dasharray:none;stroke-opacity:1;marker-end:url(#marker16088)"
         d="m 141.71279,99.181269 c 1.70112,-0.07734 2.21157,0.0044 3.29448,0.198386 1.03109,0.184691 1.49765,0.513489 3.00734,0.911675"
         id="path16134"
         sodipodi:nodetypes="cac" /><path
         style="fill:none;stroke:#d400aa;stroke-width:0.25;stroke-linecap:butt;stroke-linejoin:miter;stroke-dasharray:none;stroke-opacity:1;marker-end:url(#marker16088)"
         d="m 132.90274,108.38526 c 1.79314,-0.20901 3.23366,0.61115 4.69023,1.00258"
         id="path16138"
         sodipodi:nodetypes="cc" /><path
         style="fill:none;stroke:#d400aa;stroke-width:0.25;stroke-linecap:butt;stroke-linejoin:miter;stroke-dasharray:none;stroke-opacity:1;marker-end:url(#marker16088)"
         d="m 126.24132,118.53904 c 2.16507,0.41043 2.13001,0.64326 3.57634,1.6114"
         id="path16948"
         sodipodi:nodetypes="cc" /><path
         style="fill:none;stroke:#d400aa;stroke-width:0.25;stroke-linecap:butt;stroke-linejoin:miter;stroke-dasharray:none;stroke-opacity:1;marker-end:url(#marker16088)"
         d="m 117.56577,128.17862 c 1.44204,0.0571 1.0216,-0.19216 2.59922,0.54289"
         id="path16954"
         sodipodi:nodetypes="cc" /><path
         style="fill:none;stroke:#d400aa;stroke-width:0.25;stroke-linecap:butt;stroke-linejoin:miter;stroke-dasharray:none;stroke-opacity:1;marker-end:url(#marker16088)"
         d="m 116.55311,144.09954 c -1.44204,-0.0571 -3.84616,-2.49852 -4.78382,-3.73026"
         id="path16960"
         sodipodi:nodetypes="cc" /><path
         style="fill:none;stroke:#d400aa;stroke-width:0.25;stroke-linecap:butt;stroke-linejoin:miter;stroke-dasharray:none;stroke-opacity:1;marker-end:url(#marker16088)"
         d="m 110.63609,152.73052 c -1.44204,-0.0571 -4.27592,-1.03018 -5.21358,-2.26192"
         id="path16964"
         sodipodi:nodetypes="cc" /><path
         style="fill:none;stroke:#d400aa;stroke-width:0.25;stroke-linecap:butt;stroke-linejoin:miter;stroke-dasharray:none;stroke-opacity:1;marker-end:url(#marker16088)"
         d="m 94.403637,140.21789 c 1.44204,0.0571 4.27592,1.03018 5.21358,2.26192"
         id="path16968"
         sodipodi:nodetypes="cc" /><path
         style="fill:none;stroke:#d400aa;stroke-width:0.25;stroke-linecap:butt;stroke-linejoin:miter;stroke-dasharray:none;stroke-opacity:1;marker-end:url(#marker16088)"
         d="m 103.31654,161.09905 c -1.44204,-0.0571 -2.81936,-1.59964 -4.543276,-2.54487"
         id="path16972"
         sodipodi:nodetypes="cc" /><ellipse
         style="font-variation-settings:normal;opacity:1;fill:#d40000;fill-opacity:1;stroke:#1a1a1a;stroke-width:0.264582;stroke-linecap:round;stroke-linejoin:round;stroke-miterlimit:4;stroke-dasharray:none;stroke-dashoffset:0;stroke-opacity:1;stop-color:#000000;stop-opacity:1"
         id="ellipse16976"
         cx="95.190369"
         cy="156.55418"
         rx="1.8677089"
         ry="1.8677093" /><path
         style="fill:none;stroke:#d400aa;stroke-width:0.25;stroke-linecap:butt;stroke-linejoin:miter;stroke-dasharray:none;stroke-opacity:1;marker-end:url(#marker16088)"
         d="m 90.910811,163.42815 c 0,0 0.07651,-1.92333 0,-3.84188"
         id="path16982"
         sodipodi:nodetypes="cc" /><path
         id="rect17100"
         style="font-variation-settings:normal;opacity:1;fill:#d40000;fill-opacity:1;stroke:none;stroke-width:0.25;stroke-linecap:round;stroke-linejoin:round;stroke-miterlimit:4;stroke-dasharray:none;stroke-dashoffset:0;stroke-opacity:1;stop-color:#000000;stop-opacity:1"
         d="m 104.84486,145.51715 v 0.56559 h -1.66041 v 0.30514 h 1.66041 v 0.5653 l 1.23785,-0.71787 z" /><path
         id="path17164"
         style="font-variation-settings:normal;opacity:1;fill:#d40000;fill-opacity:1;stroke:none;stroke-width:0.25;stroke-linecap:round;stroke-linejoin:round;stroke-miterlimit:4;stroke-dasharray:none;stroke-dashoffset:0;stroke-opacity:1;stop-color:#000000;stop-opacity:1"
         d="m 98.294526,155.90413 v 0.56559 h -1.66041 v 0.30514 h 1.66041 v 0.5653 l 1.23785,-0.71787 z" /><path
         id="path17166"
         style="font-variation-settings:normal;opacity:1;fill:#d40000;fill-opacity:1;stroke:none;stroke-width:0.25;stroke-linecap:round;stroke-linejoin:round;stroke-miterlimit:4;stroke-dasharray:none;stroke-dashoffset:0;stroke-opacity:1;stop-color:#000000;stop-opacity:1"
         d="m 92.190365,155.83617 v 0.56559 h -1.66041 v 0.30514 h 1.66041 v 0.5653 l 1.23785,-0.71787 z" /><path
         id="path17168"
         style="font-variation-settings:normal;opacity:1;fill:#d40000;fill-opacity:1;stroke:none;stroke-width:0.25;stroke-linecap:round;stroke-linejoin:round;stroke-miterlimit:4;stroke-dasharray:none;stroke-dashoffset:0;stroke-opacity:1;stop-color:#000000;stop-opacity:1"
         d="m 135.06215,115.24207 v 0.56559 h -1.66041 v 0.30514 h 1.66041 v 0.5653 L 136.3,115.96023 Z" /><path
         id="path17170"
         style="font-variation-settings:normal;opacity:1;fill:#d40000;fill-opacity:1;stroke:none;stroke-width:0.25;stroke-linecap:round;stroke-linejoin:round;stroke-miterlimit:4;stroke-dasharray:none;stroke-dashoffset:0;stroke-opacity:1;stop-color:#000000;stop-opacity:1"
         d="m 153.642,95.187144 v 0.56559 h -1.66041 v 0.30514 h 1.66041 v 0.5653 l 1.23785,-0.71787 z" /><path
         style="fill:none;stroke:#d400aa;stroke-width:0.25;stroke-linecap:butt;stroke-linejoin:miter;stroke-dasharray:none;stroke-opacity:1;marker-end:url(#marker16088)"
         d="m 139.1038,123.82578 c -2.16507,-0.41043 -4.54303,-3.59937 -5.28614,-5.01758"
         id="path17174"
         sodipodi:nodetypes="cc" /><path
         style="fill:none;stroke:#d400aa;stroke-width:0.25;stroke-linecap:butt;stroke-linejoin:miter;stroke-dasharray:none;stroke-opacity:1;marker-end:url(#marker16088)"
         d="m 158.10867,103.87566 c -2.16507,-0.41043 -4.54303,-3.59937 -5.28614,-5.01758"
         id="path17178"
         sodipodi:nodetypes="cc" /><path
         style="fill:none;stroke:#333333;stroke-width:0.529167;stroke-linecap:round;stroke-linejoin:round;stroke-dasharray:none;stroke-opacity:1;marker-end:url(#Arrow1L)"
         d="M 88.636408,177.66225 H 168.56198"
         id="path14951"
         sodipodi:nodetypes="cc" /><path
         style="fill:none;stroke:#333333;stroke-width:0.529167;stroke-linecap:round;stroke-linejoin:round;stroke-dasharray:none;stroke-opacity:1;marker-end:url(#Arrow1L)"
         d="M 88.6122,177.57095 V 79.834256"
         id="path14971"
         sodipodi:nodetypes="cc" /><ellipse
         style="font-variation-settings:normal;opacity:1;fill:#d40000;fill-opacity:1;stroke:#1a1a1a;stroke-width:0.264582;stroke-linecap:round;stroke-linejoin:round;stroke-miterlimit:4;stroke-dasharray:none;stroke-dashoffset:0;stroke-opacity:1;stop-color:#000000;stop-opacity:1"
         id="ellipse16043"
         cx="88.840378"
         cy="156.55418"
         rx="1.8677089"
         ry="1.8677093" /><text
         xml:space="preserve"
         style="font-size:3.175px;line-height:0.65;font-family:'EB Garamond';-inkscape-font-specification:'EB Garamond, Normal';text-align:end;letter-spacing:0px;word-spacing:0px;text-anchor:end;stroke-width:0.264583"
         x="-165.603"
         y="87.295547"
         id="text17251"
         transform="rotate(-90)"><tspan
           sodipodi:role="line"
           id="tspan17249"
           style="font-size:3.175px;stroke-width:0.264583"
           x="-165.603"
           y="87.295547">Thalium</tspan></text><text
         xml:space="preserve"
         style="font-size:3.175px;line-height:0.65;font-family:'EB Garamond';-inkscape-font-specification:'EB Garamond, Normal';text-align:end;letter-spacing:0px;word-spacing:0px;text-anchor:end;stroke-width:0.264583"
         x="-170.34961"
         y="93.577332"
         id="text17259"
         transform="rotate(-90)"><tspan
           sodipodi:role="line"
           id="tspan17257"
           style="font-size:3.175px;stroke-width:0.264583"
           x="-170.34961"
           y="93.577332">Lead</tspan></text><text
         xml:space="preserve"
         style="font-size:3.175px;line-height:0.65;font-family:'EB Garamond';-inkscape-font-specification:'EB Garamond, Normal';text-align:end;letter-spacing:0px;word-spacing:0px;text-anchor:end;stroke-width:0.264583"
         x="-165.84746"
         y="99.862289"
         id="text17263"
         transform="rotate(-90)"><tspan
           sodipodi:role="line"
           id="tspan17261"
           style="font-size:3.175px;stroke-width:0.264583"
           x="-165.84746"
           y="99.862289">Bismuth</tspan></text><text
         xml:space="preserve"
         style="font-size:3.175px;line-height:0.65;font-family:'EB Garamond';-inkscape-font-specification:'EB Garamond, Normal';text-align:end;letter-spacing:0px;word-spacing:0px;text-anchor:end;stroke-width:0.264583"
         x="-164.25681"
         y="106.14725"
         id="text17267"
         transform="rotate(-90)"><tspan
           sodipodi:role="line"
           id="tspan17265"
           style="font-size:3.175px;stroke-width:0.264583"
           x="-164.25681"
           y="106.14725">Polonium</tspan></text><text
         xml:space="preserve"
         style="font-size:3.175px;line-height:0.65;font-family:'EB Garamond';-inkscape-font-specification:'EB Garamond, Normal';text-align:end;letter-spacing:0px;word-spacing:0px;text-anchor:end;stroke-width:0.264583"
         x="-166.04749"
         y="112.37189"
         id="text17271"
         transform="rotate(-90)"><tspan
           sodipodi:role="line"
           id="tspan17269"
           style="font-size:3.175px;stroke-width:0.264583"
           x="-166.04749"
           y="112.37189">Astatine</tspan></text><text
         xml:space="preserve"
         style="font-size:3.175px;line-height:0.65;font-family:'EB Garamond';-inkscape-font-specification:'EB Garamond, Normal';text-align:end;letter-spacing:0px;word-spacing:0px;text-anchor:end;stroke-width:0.264583"
         x="-164.48222"
         y="124.98359"
         id="text17275"
         transform="rotate(-90)"><tspan
           sodipodi:role="line"
           id="tspan17273"
           style="font-size:3.175px;stroke-width:0.264583"
           x="-164.48222"
           y="124.98359">Francium</tspan></text><text
         xml:space="preserve"
         style="font-size:3.175px;line-height:0.65;font-family:'EB Garamond';-inkscape-font-specification:'EB Garamond, Normal';text-align:end;letter-spacing:0px;word-spacing:0px;text-anchor:end;stroke-width:0.264583"
         x="-166.24751"
         y="130.33932"
         id="text17279"
         transform="rotate(-90)"><tspan
           sodipodi:role="line"
           id="tspan17277"
           style="font-size:3.175px;stroke-width:0.264583"
           x="-166.24751"
           y="130.33932">Radium</tspan></text><text
         xml:space="preserve"
         style="font-size:3.175px;line-height:0.65;font-family:'EB Garamond';-inkscape-font-specification:'EB Garamond, Normal';text-align:end;letter-spacing:0px;word-spacing:0px;text-anchor:end;stroke-width:0.264583"
         x="-164.36157"
         y="137.23175"
         id="text17339"
         transform="rotate(-90)"><tspan
           sodipodi:role="line"
           id="tspan17337"
           style="font-size:3.175px;stroke-width:0.264583"
           x="-164.36157"
           y="137.23175">Actinium</tspan></text><text
         xml:space="preserve"
         style="font-size:3.175px;line-height:0.65;font-family:'EB Garamond';-inkscape-font-specification:'EB Garamond, Normal';text-align:end;letter-spacing:0px;word-spacing:0px;text-anchor:end;stroke-width:0.264583"
         x="-164.99974"
         y="143.11986"
         id="text17343"
         transform="rotate(-90)"><tspan
           sodipodi:role="line"
           id="tspan17341"
           style="font-size:3.175px;stroke-width:0.264583"
           x="-164.99974"
           y="143.11986">Thorium</tspan></text><text
         xml:space="preserve"
         style="font-size:3.175px;line-height:0.65;font-family:'EB Garamond';-inkscape-font-specification:'EB Garamond, Normal';text-align:end;letter-spacing:0px;word-spacing:0px;text-anchor:end;stroke-width:0.264583"
         x="-161.05324"
         y="149.38788"
         id="text17347"
         transform="rotate(-90)"><tspan
           sodipodi:role="line"
           id="tspan17345"
           style="font-size:3.175px;stroke-width:0.264583"
           x="-161.05324"
           y="149.38788">Proactinium</tspan></text><text
         xml:space="preserve"
         style="font-size:3.175px;line-height:0.65;font-family:'EB Garamond';-inkscape-font-specification:'EB Garamond, Normal';text-align:end;letter-spacing:0px;word-spacing:0px;text-anchor:end;stroke-width:0.264583"
         x="-165.03784"
         y="155.64009"
         id="text17351"
         transform="rotate(-90)"><tspan
           sodipodi:role="line"
           id="tspan17349"
           style="font-size:3.175px;stroke-width:0.264583"
           x="-165.03784"
           y="155.64009">Uranium</tspan></text><text
         xml:space="preserve"
         style="font-size:3.175px;line-height:0.65;font-family:'EB Garamond';-inkscape-font-specification:'EB Garamond, Normal';text-align:end;letter-spacing:0px;word-spacing:0px;text-anchor:end;stroke-width:0.264583"
         x="-161.59932"
         y="161.90804"
         id="text17355"
         transform="rotate(-90)"><tspan
           sodipodi:role="line"
           id="tspan17353"
           style="font-size:3.175px;stroke-width:0.264583"
           x="-161.59932"
           y="161.90804">Neptunium</tspan></text><text
         xml:space="preserve"
         style="font-size:3.175px;line-height:0.65;font-family:'EB Garamond';-inkscape-font-specification:'EB Garamond, Normal';text-align:end;letter-spacing:0px;word-spacing:0px;text-anchor:end;stroke-width:0.264583"
         x="86.365181"
         y="157.61275"
         id="text17433"><tspan
           sodipodi:role="line"
           id="tspan17431"
           style="font-size:3.175px;stroke-width:0.264583"
           x="86.365181"
           y="157.61275">209</tspan></text><text
         xml:space="preserve"
         style="font-size:3.175px;line-height:0.65;font-family:'EB Garamond';-inkscape-font-specification:'EB Garamond, Normal';text-align:end;letter-spacing:0px;word-spacing:0px;text-anchor:end;stroke-width:0.264583"
         x="86.365181"
         y="147.31955"
         id="text17437"><tspan
           sodipodi:role="line"
           id="tspan17435"
           style="font-size:3.175px;stroke-width:0.264583"
           x="86.365181"
           y="147.31955">213</tspan></text><text
         xml:space="preserve"
         style="font-size:3.175px;line-height:0.65;font-family:'EB Garamond';-inkscape-font-specification:'EB Garamond, Normal';text-align:end;letter-spacing:0px;word-spacing:0px;text-anchor:end;stroke-width:0.264583"
         x="86.365181"
         y="137.02318"
         id="text17441"><tspan
           sodipodi:role="line"
           id="tspan17439"
           style="font-size:3.175px;stroke-width:0.264583"
           x="86.365181"
           y="137.02318">217</tspan></text><text
         xml:space="preserve"
         style="font-size:3.175px;line-height:0.65;font-family:'EB Garamond';-inkscape-font-specification:'EB Garamond, Normal';text-align:end;letter-spacing:0px;word-spacing:0px;text-anchor:end;stroke-width:0.264583"
         x="86.365181"
         y="126.81889"
         id="text17445"><tspan
           sodipodi:role="line"
           id="tspan17443"
           style="font-size:3.175px;stroke-width:0.264583"
           x="86.365181"
           y="126.81889">221</tspan></text><text
         xml:space="preserve"
         style="font-size:3.175px;line-height:0.65;font-family:'EB Garamond';-inkscape-font-specification:'EB Garamond, Normal';text-align:end;letter-spacing:0px;word-spacing:0px;text-anchor:end;stroke-width:0.264583"
         x="86.365181"
         y="116.50347"
         id="text17449"><tspan
           sodipodi:role="line"
           id="tspan17447"
           style="font-size:3.175px;stroke-width:0.264583"
           x="86.365181"
           y="116.50347">225</tspan></text><text
         xml:space="preserve"
         style="font-size:3.175px;line-height:0.65;font-family:'EB Garamond';-inkscape-font-specification:'EB Garamond, Normal';text-align:end;letter-spacing:0px;word-spacing:0px;text-anchor:end;stroke-width:0.264583"
         x="86.365181"
         y="106.23251"
         id="text17453"><tspan
           sodipodi:role="line"
           id="tspan17451"
           style="font-size:3.175px;stroke-width:0.264583"
           x="86.365181"
           y="106.23251">229</tspan></text><text
         xml:space="preserve"
         style="font-size:3.175px;line-height:0.65;font-family:'EB Garamond';-inkscape-font-specification:'EB Garamond, Normal';text-align:end;letter-spacing:0px;word-spacing:0px;text-anchor:end;stroke-width:0.264583"
         x="86.365181"
         y="95.939308"
         id="text17457"><tspan
           sodipodi:role="line"
           id="tspan17455"
           style="font-size:3.175px;stroke-width:0.264583"
           x="86.365181"
           y="95.939308">233</tspan></text><text
         xml:space="preserve"
         style="font-size:3.175px;line-height:0.65;font-family:'EB Garamond';-inkscape-font-specification:'EB Garamond, Normal';text-align:end;letter-spacing:0px;word-spacing:0px;text-anchor:end;stroke-width:0.264583"
         x="86.365181"
         y="85.646118"
         id="text17461"><tspan
           sodipodi:role="line"
           id="tspan17459"
           style="font-size:3.175px;stroke-width:0.264583"
           x="86.365181"
           y="85.646118">237</tspan></text><text
         xml:space="preserve"
         style="font-size:3.175px;line-height:0.65;font-family:'EB Garamond';-inkscape-font-specification:'EB Garamond, Normal';text-align:end;letter-spacing:0px;word-spacing:0px;text-anchor:end;stroke-width:0.264583"
         x="89.89106"
         y="182.11383"
         id="text17574"><tspan
           sodipodi:role="line"
           id="tspan17572"
           style="font-size:3.175px;stroke-width:0.264583"
           x="89.89106"
           y="182.11383">81</tspan></text><text
         xml:space="preserve"
         style="font-size:3.175px;line-height:0.65;font-family:'EB Garamond';-inkscape-font-specification:'EB Garamond, Normal';text-align:end;letter-spacing:0px;word-spacing:0px;text-anchor:end;stroke-width:0.264583"
         x="95.984978"
         y="182.11383"
         id="text17578"><tspan
           sodipodi:role="line"
           id="tspan17576"
           style="font-size:3.175px;stroke-width:0.264583"
           x="95.984978"
           y="182.11383">82</tspan></text><text
         xml:space="preserve"
         style="font-size:3.175px;line-height:0.65;font-family:'EB Garamond';-inkscape-font-specification:'EB Garamond, Normal';text-align:end;letter-spacing:0px;word-spacing:0px;text-anchor:end;stroke-width:0.264583"
         x="102.24718"
         y="182.11383"
         id="text17582"><tspan
           sodipodi:role="line"
           id="tspan17580"
           style="font-size:3.175px;stroke-width:0.264583"
           x="102.24718"
           y="182.11383">83</tspan></text><text
         xml:space="preserve"
         style="font-size:3.175px;line-height:0.65;font-family:'EB Garamond';-inkscape-font-specification:'EB Garamond, Normal';text-align:end;letter-spacing:0px;word-spacing:0px;text-anchor:end;stroke-width:0.264583"
         x="108.40778"
         y="182.11383"
         id="text17586"><tspan
           sodipodi:role="line"
           id="tspan17584"
           style="font-size:3.175px;stroke-width:0.264583"
           x="108.40778"
           y="182.11383">84</tspan></text><text
         xml:space="preserve"
         style="font-size:3.175px;line-height:0.65;font-family:'EB Garamond';-inkscape-font-specification:'EB Garamond, Normal';text-align:end;letter-spacing:0px;word-spacing:0px;text-anchor:end;stroke-width:0.264583"
         x="114.7049"
         y="182.11383"
         id="text17590"><tspan
           sodipodi:role="line"
           id="tspan17588"
           style="font-size:3.175px;stroke-width:0.264583"
           x="114.7049"
           y="182.11383">85</tspan></text><text
         xml:space="preserve"
         style="font-size:3.175px;line-height:0.65;font-family:'EB Garamond';-inkscape-font-specification:'EB Garamond, Normal';text-align:end;letter-spacing:0px;word-spacing:0px;text-anchor:end;stroke-width:0.264583"
         x="120.80517"
         y="182.11383"
         id="text17594"><tspan
           sodipodi:role="line"
           id="tspan17592"
           style="font-size:3.175px;stroke-width:0.264583"
           x="120.80517"
           y="182.11383">86</tspan></text><text
         xml:space="preserve"
         style="font-size:3.175px;line-height:0.65;font-family:'EB Garamond';-inkscape-font-specification:'EB Garamond, Normal';text-align:end;letter-spacing:0px;word-spacing:0px;text-anchor:end;stroke-width:0.264583"
         x="127.02291"
         y="182.11383"
         id="text17598"><tspan
           sodipodi:role="line"
           id="tspan17596"
           style="font-size:3.175px;stroke-width:0.264583"
           x="127.02291"
           y="182.11383">87</tspan></text><text
         xml:space="preserve"
         style="font-size:3.175px;line-height:0.65;font-family:'EB Garamond';-inkscape-font-specification:'EB Garamond, Normal';text-align:end;letter-spacing:0px;word-spacing:0px;text-anchor:end;stroke-width:0.264583"
         x="133.32956"
         y="182.11383"
         id="text17602"><tspan
           sodipodi:role="line"
           id="tspan17600"
           style="font-size:3.175px;stroke-width:0.264583"
           x="133.32956"
           y="182.11383">88</tspan></text><text
         xml:space="preserve"
         style="font-size:3.175px;line-height:0.65;font-family:'EB Garamond';-inkscape-font-specification:'EB Garamond, Normal';text-align:end;letter-spacing:0px;word-spacing:0px;text-anchor:end;stroke-width:0.264583"
         x="139.49016"
         y="182.11383"
         id="text17606"><tspan
           sodipodi:role="line"
           id="tspan17604"
           style="font-size:3.175px;stroke-width:0.264583"
           x="139.49016"
           y="182.11383">89</tspan></text><text
         xml:space="preserve"
         style="font-size:3.175px;line-height:0.65;font-family:'EB Garamond';-inkscape-font-specification:'EB Garamond, Normal';text-align:end;letter-spacing:0px;word-spacing:0px;text-anchor:end;stroke-width:0.264583"
         x="145.76506"
         y="182.11383"
         id="text17610"><tspan
           sodipodi:role="line"
           id="tspan17608"
           style="font-size:3.175px;stroke-width:0.264583"
           x="145.76506"
           y="182.11383">90</tspan></text><text
         xml:space="preserve"
         style="font-size:3.175px;line-height:0.65;font-family:'EB Garamond';-inkscape-font-specification:'EB Garamond, Normal';text-align:end;letter-spacing:0px;word-spacing:0px;text-anchor:end;stroke-width:0.264583"
         x="152.01456"
         y="182.11383"
         id="text17614"><tspan
           sodipodi:role="line"
           id="tspan17612"
           style="font-size:3.175px;stroke-width:0.264583"
           x="152.01456"
           y="182.11383">91</tspan></text><text
         xml:space="preserve"
         style="font-size:3.175px;line-height:0.65;font-family:'EB Garamond';-inkscape-font-specification:'EB Garamond, Normal';text-align:end;letter-spacing:0px;word-spacing:0px;text-anchor:end;stroke-width:0.264583"
         x="158.14658"
         y="182.11383"
         id="text17618"><tspan
           sodipodi:role="line"
           id="tspan17616"
           style="font-size:3.175px;stroke-width:0.264583"
           x="158.14658"
           y="182.11383">92</tspan></text><text
         xml:space="preserve"
         style="font-size:3.175px;line-height:0.65;font-family:'EB Garamond';-inkscape-font-specification:'EB Garamond, Normal';text-align:end;letter-spacing:0px;word-spacing:0px;text-anchor:end;stroke-width:0.264583"
         x="164.44687"
         y="182.11383"
         id="text17622"><tspan
           sodipodi:role="line"
           id="tspan17620"
           style="font-size:3.175px;stroke-width:0.264583"
           x="164.44687"
           y="182.11383">93</tspan></text><text
         xml:space="preserve"
         style="font-size:3.88056px;line-height:0.65;font-family:'EB Garamond';-inkscape-font-specification:'EB Garamond, Normal';text-align:end;letter-spacing:0px;word-spacing:0px;text-anchor:end;stroke-width:0.264583"
         x="170.2677"
         y="182.11383"
         id="text17634"><tspan
           sodipodi:role="line"
           id="tspan17632"
           style="font-style:italic;font-variant:normal;font-weight:normal;font-stretch:normal;font-size:3.88056px;font-family:'EB Garamond';-inkscape-font-specification:'EB Garamond Italic';stroke-width:0.264583"
           x="170.2677"
           y="182.11383">Z</tspan></text><text
         xml:space="preserve"
         style="font-size:3.88056px;line-height:0.65;font-family:'EB Garamond';-inkscape-font-specification:'EB Garamond, Normal';text-align:end;letter-spacing:0px;word-spacing:0px;text-anchor:end;stroke-width:0.264583"
         x="86.365181"
         y="80.354454"
         id="text17638"><tspan
           sodipodi:role="line"
           id="tspan17636"
           style="font-style:italic;font-variant:normal;font-weight:normal;font-stretch:normal;font-size:3.88056px;font-family:'EB Garamond';-inkscape-font-specification:'EB Garamond Italic';stroke-width:0.264583"
           x="86.365181"
           y="80.354454">A</tspan></text><g
         id="g17710"><text
           xml:space="preserve"
           style="font-size:3.175px;line-height:0.65;font-family:'EB Garamond';-inkscape-font-specification:'EB Garamond, Normal';text-align:end;letter-spacing:0px;word-spacing:0px;text-anchor:end;stroke-width:0.264583"
           x="162.99072"
           y="81.532654"
           id="text17700"><tspan
             sodipodi:role="line"
             id="tspan17698"
             style="font-size:3.175px;stroke-width:0.264583"
             x="162.99072"
             y="81.532654">Np</tspan></text><text
           xml:space="preserve"
           style="font-size:3.175px;line-height:0.65;font-family:'EB Garamond';-inkscape-font-specification:'EB Garamond, Normal';text-align:end;letter-spacing:0px;word-spacing:0px;text-anchor:end;stroke-width:0.264583"
           x="158.75737"
           y="81.003487"
           id="text17704"><tspan
             sodipodi:role="line"
             id="tspan17702"
             style="font-size:65%;baseline-shift:super;stroke-width:0.264583"
             x="158.75737"
             y="81.003487">237</tspan></text></g><g
         id="g17720"
         transform="translate(-2.4151948,21.1794)"><text
           xml:space="preserve"
           style="font-size:3.175px;line-height:0.65;font-family:'EB Garamond';-inkscape-font-specification:'EB Garamond, Normal';text-align:end;letter-spacing:0px;word-spacing:0px;text-anchor:end;stroke-width:0.264583"
           x="161.06926"
           y="81.699738"
           id="text17714"><tspan
             sodipodi:role="line"
             id="tspan17712"
             style="font-size:3.175px;stroke-width:0.264583"
             x="161.06926"
             y="81.699738">U</tspan></text><text
           xml:space="preserve"
           style="font-size:3.175px;line-height:0.65;font-family:'EB Garamond';-inkscape-font-specification:'EB Garamond, Normal';text-align:end;letter-spacing:0px;word-spacing:0px;text-anchor:end;stroke-width:0.264583"
           x="158.75737"
           y="81.003487"
           id="text17718"><tspan
             sodipodi:role="line"
             id="tspan17716"
             style="font-size:65%;baseline-shift:super;stroke-width:0.264583"
             x="158.75737"
             y="81.003487">233</tspan></text></g><text
         xml:space="preserve"
         style="font-size:3.175px;line-height:0.65;font-family:'EB Garamond';-inkscape-font-specification:'EB Garamond, Normal';text-align:end;letter-spacing:0px;word-spacing:0px;text-anchor:end;stroke-width:0.264583"
         x="148.13902"
         y="94.136299"
         id="text17724"><tspan
           sodipodi:role="line"
           id="tspan17722"
           style="font-size:3.175px;stroke-width:0.264583"
           x="148.13902"
           y="94.136299">Pa</tspan></text><text
         xml:space="preserve"
         style="font-size:3.175px;line-height:0.65;font-family:'EB Garamond';-inkscape-font-specification:'EB Garamond, Normal';text-align:end;letter-spacing:0px;word-spacing:0px;text-anchor:end;stroke-width:0.264583"
         x="144.94353"
         y="93.440048"
         id="text17728"><tspan
           sodipodi:role="line"
           id="tspan17726"
           style="font-size:65%;baseline-shift:super;stroke-width:0.264583"
           x="144.94353"
           y="93.440048">233</tspan></text><text
         xml:space="preserve"
         style="font-size:3.175px;line-height:0.65;font-family:'EB Garamond';-inkscape-font-specification:'EB Garamond, Normal';text-align:end;letter-spacing:0px;word-spacing:0px;text-anchor:end;stroke-width:0.264583"
         x="141.68745"
         y="103.58779"
         id="text17893"><tspan
           sodipodi:role="line"
           id="tspan17891"
           style="font-size:3.175px;stroke-width:0.264583"
           x="141.68745"
           y="103.58779">Th</tspan></text><text
         xml:space="preserve"
         style="font-size:3.175px;line-height:0.65;font-family:'EB Garamond';-inkscape-font-specification:'EB Garamond, Normal';text-align:end;letter-spacing:0px;word-spacing:0px;text-anchor:end;stroke-width:0.264583"
         x="137.98326"
         y="103.05862"
         id="text17897"><tspan
           sodipodi:role="line"
           id="tspan17895"
           style="font-size:65%;baseline-shift:super;stroke-width:0.264583"
           x="137.98326"
           y="103.05862">229</tspan></text><text
         xml:space="preserve"
         style="font-size:3.175px;line-height:0.65;font-family:'EB Garamond';-inkscape-font-specification:'EB Garamond, Normal';text-align:end;letter-spacing:0px;word-spacing:0px;text-anchor:end;stroke-width:0.264583"
         x="129.23967"
         y="114.61536"
         id="text17907"><tspan
           sodipodi:role="line"
           id="tspan17905"
           style="font-size:3.175px;stroke-width:0.264583"
           x="129.23967"
           y="114.61536">Ra</tspan></text><text
         xml:space="preserve"
         style="font-size:3.175px;line-height:0.65;font-family:'EB Garamond';-inkscape-font-specification:'EB Garamond, Normal';text-align:end;letter-spacing:0px;word-spacing:0px;text-anchor:end;stroke-width:0.264583"
         x="125.53548"
         y="114.08619"
         id="text17911"><tspan
           sodipodi:role="line"
           id="tspan17909"
           style="font-size:65%;baseline-shift:super;stroke-width:0.264583"
           x="125.53548"
           y="114.08619">225</tspan></text><text
         xml:space="preserve"
         style="font-size:3.175px;line-height:0.65;font-family:'EB Garamond';-inkscape-font-specification:'EB Garamond, Normal';text-align:end;letter-spacing:0px;word-spacing:0px;text-anchor:end;stroke-width:0.264583"
         x="123.64234"
         y="124.38979"
         id="text17915"><tspan
           sodipodi:role="line"
           id="tspan17913"
           style="font-size:3.175px;stroke-width:0.264583"
           x="123.64234"
           y="124.38979">Fr</tspan></text><text
         xml:space="preserve"
         style="font-size:3.175px;line-height:0.65;font-family:'EB Garamond';-inkscape-font-specification:'EB Garamond, Normal';text-align:end;letter-spacing:0px;word-spacing:0px;text-anchor:end;stroke-width:0.264583"
         x="120.99649"
         y="123.86063"
         id="text17919"><tspan
           sodipodi:role="line"
           id="tspan17917"
           style="font-size:65%;baseline-shift:super;stroke-width:0.264583"
           x="120.99649"
           y="123.86063">221</tspan></text><text
         xml:space="preserve"
         style="font-size:3.175px;line-height:0.65;font-family:'EB Garamond';-inkscape-font-specification:'EB Garamond, Normal';text-align:end;letter-spacing:0px;word-spacing:0px;text-anchor:end;stroke-width:0.264583"
         x="111.02747"
         y="134.74902"
         id="text17923"><tspan
           sodipodi:role="line"
           id="tspan17921"
           style="font-size:3.175px;stroke-width:0.264583"
           x="111.02747"
           y="134.74902">At</tspan></text><text
         xml:space="preserve"
         style="font-size:3.175px;line-height:0.65;font-family:'EB Garamond';-inkscape-font-specification:'EB Garamond, Normal';text-align:end;letter-spacing:0px;word-spacing:0px;text-anchor:end;stroke-width:0.264583"
         x="108.3816"
         y="134.21986"
         id="text17927"><tspan
           sodipodi:role="line"
           id="tspan17925"
           style="font-size:65%;baseline-shift:super;stroke-width:0.264583"
           x="108.3816"
           y="134.21986">217</tspan></text><text
         xml:space="preserve"
         style="font-size:3.175px;line-height:0.65;font-family:'EB Garamond';-inkscape-font-specification:'EB Garamond, Normal';text-align:end;letter-spacing:0px;word-spacing:0px;text-anchor:end;stroke-width:0.264583"
         x="99.164482"
         y="144.85764"
         id="text17931"><tspan
           sodipodi:role="line"
           id="tspan17929"
           style="font-size:3.175px;stroke-width:0.264583"
           x="99.164482"
           y="144.85764">Bi</tspan></text><text
         xml:space="preserve"
         style="font-size:3.175px;line-height:0.65;font-family:'EB Garamond';-inkscape-font-specification:'EB Garamond, Normal';text-align:end;letter-spacing:0px;word-spacing:0px;text-anchor:end;stroke-width:0.264583"
         x="96.518623"
         y="144.32848"
         id="text17935"><tspan
           sodipodi:role="line"
           id="tspan17933"
           style="font-size:65%;baseline-shift:super;stroke-width:0.264583"
           x="96.518623"
           y="144.32848">213</tspan></text><text
         xml:space="preserve"
         style="font-size:3.175px;line-height:0.65;font-family:'EB Garamond';-inkscape-font-specification:'EB Garamond, Normal';text-align:end;letter-spacing:0px;word-spacing:0px;text-anchor:end;stroke-width:0.264583"
         x="116.79189"
         y="149.70308"
         id="text17939"><tspan
           sodipodi:role="line"
           id="tspan17937"
           style="font-size:3.175px;stroke-width:0.264583"
           x="116.79189"
           y="149.70308">Po</tspan></text><text
         xml:space="preserve"
         style="font-size:3.175px;line-height:0.65;font-family:'EB Garamond';-inkscape-font-specification:'EB Garamond, Normal';text-align:end;letter-spacing:0px;word-spacing:0px;text-anchor:end;stroke-width:0.264583"
         x="113.08769"
         y="149.17392"
         id="text17943"><tspan
           sodipodi:role="line"
           id="tspan17941"
           style="font-size:65%;baseline-shift:super;stroke-width:0.264583"
           x="113.08769"
           y="149.17392">213</tspan></text><text
         xml:space="preserve"
         style="font-size:3.175px;line-height:0.65;font-family:'EB Garamond';-inkscape-font-specification:'EB Garamond, Normal';text-align:end;letter-spacing:0px;word-spacing:0px;text-anchor:end;stroke-width:0.264583"
         x="87.217949"
         y="161.8167"
         id="text17947"><tspan
           sodipodi:role="line"
           id="tspan17945"
           style="font-size:3.175px;stroke-width:0.264583"
           x="87.217949"
           y="161.8167">Tl</tspan></text><text
         xml:space="preserve"
         style="font-size:3.175px;line-height:0.65;font-family:'EB Garamond';-inkscape-font-specification:'EB Garamond, Normal';text-align:end;letter-spacing:0px;word-spacing:0px;text-anchor:end;stroke-width:0.264583"
         x="84.042923"
         y="161.28754"
         id="text17951"><tspan
           sodipodi:role="line"
           id="tspan17949"
           style="font-size:65%;baseline-shift:super;stroke-width:0.264583"
           x="84.042923"
           y="161.28754">209</tspan></text><text
         xml:space="preserve"
         style="font-size:3.175px;line-height:0.65;font-family:'EB Garamond';-inkscape-font-specification:'EB Garamond, Normal';text-align:end;letter-spacing:0px;word-spacing:0px;text-anchor:end;stroke-width:0.264583"
         x="109.10581"
         y="159.22688"
         id="text17963"><tspan
           sodipodi:role="line"
           id="tspan17961"
           style="font-size:3.175px;stroke-width:0.264583"
           x="109.10581"
           y="159.22688">Bi</tspan></text><text
         xml:space="preserve"
         style="font-size:3.175px;line-height:0.65;font-family:'EB Garamond';-inkscape-font-specification:'EB Garamond, Normal';text-align:end;letter-spacing:0px;word-spacing:0px;text-anchor:end;stroke-width:0.264583"
         x="106.98911"
         y="158.69772"
         id="text17967"><tspan
           sodipodi:role="line"
           id="tspan17965"
           style="font-size:65%;baseline-shift:super;stroke-width:0.264583"
           x="106.98911"
           y="158.69772">209</tspan></text><g
         id="g19604"
         transform="translate(0,-1.0583333)"><text
           xml:space="preserve"
           style="font-size:3.175px;line-height:0.65;font-family:'EB Garamond';-inkscape-font-specification:'EB Garamond, Normal';text-align:end;letter-spacing:0px;word-spacing:0px;text-anchor:end;stroke-width:0.264583"
           x="97.911346"
           y="163.15337"
           id="text17971"><tspan
             sodipodi:role="line"
             id="tspan17969"
             style="font-size:3.175px;stroke-width:0.264583"
             x="97.911346"
             y="163.15337">Pb</tspan></text><text
           xml:space="preserve"
           style="font-size:3.175px;line-height:0.65;font-family:'EB Garamond';-inkscape-font-specification:'EB Garamond, Normal';text-align:end;letter-spacing:0px;word-spacing:0px;text-anchor:end;stroke-width:0.264583"
           x="94.73632"
           y="162.62421"
           id="text17975"><tspan
             sodipodi:role="line"
             id="tspan17973"
             style="font-size:65%;baseline-shift:super;stroke-width:0.264583"
             x="94.73632"
             y="162.62421">209</tspan></text></g><text
         xml:space="preserve"
         style="font-size:3.175px;line-height:0.65;font-family:'EB Garamond';-inkscape-font-specification:'EB Garamond, Normal';text-align:end;letter-spacing:0px;word-spacing:0px;text-anchor:end;stroke-width:0.264583"
         x="146.78693"
         y="117.68716"
         id="text17979"><tspan
           sodipodi:role="line"
           id="tspan17977"
           style="font-size:3.175px;stroke-width:0.264583"
           x="146.78693"
           y="117.68716">Ac</tspan></text><text
         xml:space="preserve"
         style="font-size:3.175px;line-height:0.65;font-family:'EB Garamond';-inkscape-font-specification:'EB Garamond, Normal';text-align:end;letter-spacing:0px;word-spacing:0px;text-anchor:end;stroke-width:0.264583"
         x="143.61189"
         y="117.158"
         id="text17983"><tspan
           sodipodi:role="line"
           id="tspan17981"
           style="font-size:65%;baseline-shift:super;stroke-width:0.264583"
           x="143.61189"
           y="117.158">225</tspan></text><text
         xml:space="preserve"
         style="font-size:3.175px;line-height:0.65;font-family:'EB Garamond';-inkscape-font-specification:'EB Garamond, Normal';text-align:end;letter-spacing:0px;word-spacing:0px;text-anchor:end;fill:#0055d4;stroke-width:0.264583"
         x="-160.85472"
         y="93.084747"
         id="text18576"
         transform="rotate(-90)"><tspan
           sodipodi:role="line"
           id="tspan18574"
           style="font-size:3.175px;fill:#0055d4;stroke-width:0.264583"
           x="-160.85472"
           y="93.084747">22 min</tspan></text><text
         xml:space="preserve"
         style="font-size:3.175px;line-height:0.65;font-family:'EB Garamond';-inkscape-font-specification:'EB Garamond, Normal';text-align:end;letter-spacing:0px;word-spacing:0px;text-anchor:end;fill:#0055d4;stroke-width:0.264583"
         x="110.49043"
         y="162.00075"
         id="text18580"><tspan
           sodipodi:role="line"
           id="tspan18578"
           style="font-size:3.175px;fill:#0055d4;stroke-width:0.264583"
           x="110.49043"
           y="162.00075">3.3 hr</tspan></text><g
         id="g19576"
         transform="translate(-1.6096799,-4.9475485)"><path
           style="fill:#0055d4;fill-opacity:1;stroke-width:1"
           d="m 118.04011,158.87846 c -0.0188,-0.0269 -0.0343,-0.064 -0.0343,-0.0822 0,-0.0183 0.11135,-0.145 0.24748,-0.28152 l 0.2475,-0.24819 -0.23648,-0.23722 c -0.25424,-0.25503 -0.27711,-0.30267 -0.19432,-0.40481 l 0.0422,-0.052 0.2718,0.2694 0.2718,0.26939 0.2711,-0.26939 0.27112,-0.2694 0.0429,0.052 c 0.0779,0.0945 0.0572,0.13594 -0.18848,0.37866 -0.12722,0.1257 -0.23135,0.23902 -0.23135,0.25182 0,0.0128 0.10906,0.13202 0.24235,0.2649 0.13331,0.13288 0.24238,0.25692 0.24238,0.27562 0,0.0536 -0.0645,0.13199 -0.10873,0.13199 -0.0226,0 -0.14318,-0.11009 -0.27738,-0.25338 -0.1305,-0.13935 -0.24841,-0.25336 -0.26197,-0.25336 -0.0136,0 -0.13837,0.11404 -0.27733,0.25336 -0.13896,0.13934 -0.26464,0.25338 -0.27931,0.25338 -0.0148,0 -0.0421,-0.022 -0.0609,-0.049 z"
           id="path19215"
           sodipodi:nodetypes="csscscccccccssssssssscc" /><text
           xml:space="preserve"
           style="font-size:3.175px;line-height:0.65;font-family:'EB Garamond';-inkscape-font-specification:'EB Garamond, Normal';text-align:end;letter-spacing:0px;word-spacing:0px;text-anchor:end;fill:#0055d4;stroke-width:0.264583"
           x="126.41433"
           y="159.078"
           id="text19564"><tspan
             sodipodi:role="line"
             id="tspan19562"
             style="font-size:3.175px;fill:#0055d4;stroke-width:0.264583"
             x="126.41433"
             y="159.078">4.2    10<tspan
   style="font-size:65%;baseline-shift:super"
   id="tspan19566">–6 </tspan>s</tspan></text></g><text
         xml:space="preserve"
         style="font-size:3.175px;line-height:0.65;font-family:'EB Garamond';-inkscape-font-specification:'EB Garamond, Normal';text-align:end;letter-spacing:0px;word-spacing:0px;text-anchor:end;fill:#0055d4;stroke-width:0.264583"
         x="97.399368"
         y="139.21065"
         id="text19580"><tspan
           sodipodi:role="line"
           id="tspan19578"
           style="font-size:3.175px;fill:#0055d4;stroke-width:0.264583"
           x="97.399368"
           y="139.21065">47 min</tspan></text><text
         xml:space="preserve"
         style="font-size:3.175px;line-height:0.65;font-family:'EB Garamond';-inkscape-font-specification:'EB Garamond, Normal';text-align:end;letter-spacing:0px;word-spacing:0px;text-anchor:end;fill:#0055d4;stroke-width:0.264583"
         x="123.88103"
         y="144.44063"
         id="text19588"><tspan
           sodipodi:role="line"
           id="tspan19586"
           style="font-size:3.175px;fill:#0055d4;stroke-width:0.264583"
           x="123.88103"
           y="144.44063">0.08s</tspan></text><text
         xml:space="preserve"
         style="font-size:3.175px;line-height:0.65;font-family:'EB Garamond';-inkscape-font-specification:'EB Garamond, Normal';text-align:end;letter-spacing:0px;word-spacing:0px;text-anchor:end;fill:#0055d4;stroke-width:0.264583"
         x="115.03714"
         y="129.2196"
         id="text19598"><tspan
           sodipodi:role="line"
           id="tspan19596"
           style="font-size:3.175px;fill:#0055d4;stroke-width:0.264583"
           x="115.03714"
           y="129.2196">4.8 min</tspan></text><text
         xml:space="preserve"
         style="font-size:3.175px;line-height:0.65;font-family:'EB Garamond';-inkscape-font-specification:'EB Garamond, Normal';text-align:end;letter-spacing:0px;word-spacing:0px;text-anchor:end;fill:#0055d4;stroke-width:0.264583"
         x="125.40685"
         y="119.11282"
         id="text19608"><tspan
           sodipodi:role="line"
           id="tspan19606"
           style="font-size:3.175px;fill:#0055d4;stroke-width:0.264583"
           x="125.40685"
           y="119.11282">10 days</tspan></text><text
         xml:space="preserve"
         style="font-size:3.175px;line-height:0.65;font-family:'EB Garamond';-inkscape-font-specification:'EB Garamond, Normal';text-align:end;letter-spacing:0px;word-spacing:0px;text-anchor:end;fill:#0055d4;stroke-width:0.264583"
         x="148.58398"
         y="124.61375"
         id="text19612"><tspan
           sodipodi:role="line"
           id="tspan19610"
           style="font-size:3.175px;fill:#0055d4;stroke-width:0.264583"
           x="148.58398"
           y="124.61375">15 days</tspan></text><text
         xml:space="preserve"
         style="font-size:3.175px;line-height:0.65;font-family:'EB Garamond';-inkscape-font-specification:'EB Garamond, Normal';text-align:end;letter-spacing:0px;word-spacing:0px;text-anchor:end;fill:#0055d4;stroke-width:0.264583"
         x="131.65474"
         y="108.06159"
         id="text19616"><tspan
           sodipodi:role="line"
           id="tspan19614"
           style="font-size:3.175px;fill:#0055d4;stroke-width:0.264583"
           x="131.65474"
           y="108.06159">7340 yr</tspan></text><path
         style="fill:#0055d4;fill-opacity:1;stroke-width:1"
         d="m 135.15351,98.170517 c -0.0188,-0.0269 -0.0343,-0.064 -0.0343,-0.0822 0,-0.0183 0.11135,-0.145 0.24748,-0.28152 l 0.2475,-0.24819 -0.23648,-0.23722 c -0.25424,-0.25503 -0.27711,-0.30267 -0.19432,-0.40481 l 0.0422,-0.052 0.2718,0.2694 0.2718,0.26939 0.2711,-0.26939 0.27112,-0.2694 0.0429,0.052 c 0.0779,0.0945 0.0572,0.13594 -0.18848,0.37866 -0.12722,0.1257 -0.23135,0.23902 -0.23135,0.25182 0,0.0128 0.10906,0.13202 0.24235,0.2649 0.13331,0.13288 0.24238,0.25692 0.24238,0.27562 0,0.0536 -0.0645,0.13199 -0.10873,0.13199 -0.0226,0 -0.14318,-0.11009 -0.27738,-0.25338 -0.1305,-0.13935 -0.24841,-0.25336 -0.26197,-0.25336 -0.0136,0 -0.13837,0.11404 -0.27733,0.25336 -0.13896,0.13934 -0.26464,0.25338 -0.27931,0.25338 -0.0148,0 -0.0421,-0.022 -0.0609,-0.049 z"
         id="path19618"
         sodipodi:nodetypes="csscscccccccssssssssscc" /><text
         xml:space="preserve"
         style="font-size:3.175px;line-height:0.65;font-family:'EB Garamond';-inkscape-font-specification:'EB Garamond, Normal';text-align:end;letter-spacing:0px;word-spacing:0px;text-anchor:end;fill:#0055d4;stroke-width:0.264583"
         x="144.70262"
         y="98.370056"
         id="text19624"><tspan
           sodipodi:role="line"
           id="tspan19622"
           style="font-size:3.175px;fill:#0055d4;stroke-width:0.264583"
           x="144.70262"
           y="98.370056">1.6    10<tspan
   style="font-size:65%;baseline-shift:super"
   id="tspan19620">–5 </tspan>yr</tspan></text><path
         style="fill:#0055d4;fill-opacity:1;stroke-width:1"
         d="m 140.03188,88.05031 c -0.0188,-0.0269 -0.0343,-0.064 -0.0343,-0.0822 0,-0.0183 0.11135,-0.145 0.24748,-0.28152 l 0.2475,-0.24819 -0.23648,-0.23722 c -0.25424,-0.25503 -0.27711,-0.30267 -0.19432,-0.40481 l 0.0422,-0.052 0.2718,0.2694 0.2718,0.26939 0.2711,-0.26939 0.27112,-0.2694 0.0429,0.052 c 0.0779,0.0945 0.0572,0.13594 -0.18848,0.37866 -0.12722,0.1257 -0.23135,0.23902 -0.23135,0.25182 0,0.0128 0.10906,0.13202 0.24235,0.2649 0.13331,0.13288 0.24238,0.25692 0.24238,0.27562 0,0.0536 -0.0645,0.13199 -0.10873,0.13199 -0.0226,0 -0.14318,-0.11009 -0.27738,-0.25338 -0.1305,-0.13935 -0.24841,-0.25336 -0.26197,-0.25336 -0.0136,0 -0.13837,0.11404 -0.27733,0.25336 -0.13896,0.13934 -0.26464,0.25338 -0.27931,0.25338 -0.0148,0 -0.0421,-0.022 -0.0609,-0.049 z"
         id="path19632"
         sodipodi:nodetypes="csscscccccccssssssssscc" /><text
         xml:space="preserve"
         style="font-size:3.175px;line-height:0.65;font-family:'EB Garamond';-inkscape-font-specification:'EB Garamond, Normal';text-align:end;letter-spacing:0px;word-spacing:0px;text-anchor:end;fill:#0055d4;stroke-width:0.264583"
         x="149.58099"
         y="88.249847"
         id="text19638"><tspan
           sodipodi:role="line"
           id="tspan19636"
           style="font-size:3.175px;fill:#0055d4;stroke-width:0.264583"
           x="149.58099"
           y="88.249847">2.2    10<tspan
   style="font-size:65%;baseline-shift:super"
   id="tspan19634">–6 </tspan>yr</tspan></text><text
         xml:space="preserve"
         style="font-size:3.175px;line-height:0.65;font-family:'EB Garamond';-inkscape-font-specification:'EB Garamond, Normal';text-align:end;letter-spacing:0px;word-spacing:0px;text-anchor:end;fill:#0055d4;stroke-width:0.264583"
         x="162.99745"
         y="107.08456"
         id="text19642"><tspan
           sodipodi:role="line"
           id="tspan19640"
           style="font-size:3.175px;fill:#0055d4;stroke-width:0.264583"
           x="162.99745"
           y="107.08456">27 days</tspan></text></g><text
       xml:space="preserve"
       style="font-size:5.29167px;line-height:0.65;font-family:'EB Garamond';-inkscape-font-specification:'EB Garamond, Normal';text-align:end;letter-spacing:0.396875px;word-spacing:0px;text-anchor:end;stroke-width:0.264583"
       x="75.042229"
       y="187.34073"
       id="text17255"><tspan
         sodipodi:role="line"
         id="tspan17253"
         style="stroke-width:0.264583"
         x="75.042229"
         y="187.34073" /></text></g></svg>
